Power_measurements/AES_csv/aes_idle_4.csv

#Digilent WaveForms Oscilloscope Acquisition
#Device Name: Discovery2
#Serial Number: SN:210321A1A9F5
#Date Time: 2018-06-28 03:53:53.959
#Sample rate: 1e+08Hz
#Samples: 8192
#Trigger: Source: Channel 1 Type: Edge Condition: Rising Level: 2 V Hyst.: Auto HoldOff: 0 s
#Channel 2: Range: 1 V/div Offset: 0 V

Time (s),Channel 2 (V)
-4.0698181818181817e-05,0.99197675879049874
-4.0688181818181815e-05,0.95843390092813074
-4.0678181818181813e-05,0.9807958061697043
-4.0668181818181819e-05,0.96961485354892518
-4.0658181818181817e-05,0.96961485354892007
-4.0648181818181815e-05,0.97334183775584981
-4.0638181818181814e-05,0.98079580616970941
-4.0628181818181819e-05,0.97706882196278133
-4.0618181818181817e-05,0.97334183775584981
-4.0608181818181816e-05,0.96588786934199033
-4.0598181818181814e-05,0.98079580616970941
-4.0588181818181813e-05,0.9621608851350707
-4.0578181818181818e-05,0.98452279037663915
-4.0568181818181816e-05,0.97334183775584981
-4.0558181818181815e-05,0.96961485354892007
-4.0548181818181813e-05,0.9584339009281273
-4.0538181818181818e-05,0.9509799325142746
-4.0528181818181817e-05,0.988249774583569
-4.0518181818181815e-05,0.96961485354892007
-4.0508181818181813e-05,0.97334183775584637
-4.0498181818181819e-05,0.96588786934199378
-4.0488181818181817e-05,0.96588786934199033
-4.0478181818181815e-05,0.96961485354892007
-4.0468181818181814e-05,0.96588786934199033
-4.0458181818181819e-05,0.96961485354891841
-4.0448181818181817e-05,0.96961485354892007
-4.0438181818181816e-05,0.96961485354892007
-4.0428181818181814e-05,0.96588786934199033
-4.0418181818181813e-05,0.97706882196277622
-4.0408181818181818e-05,0.96961485354892007
-4.0398181818181816e-05,0.95843390092813074
-4.0388181818181815e-05,0.95843390092813074
-4.0378181818181813e-05,0.97334183775584981
-4.0368181818181818e-05,0.97334183775584981
-4.0358181818181816e-05,0.97334183775584981
-4.0348181818181815e-05,0.96588786934199033
-4.0338181818181813e-05,0.98079580616970263
-4.0328181818181818e-05,0.96588786934199711
-4.0318181818181817e-05,0.96961485354892007
-4.0308181818181815e-05,0.96961485354892007
-4.0298181818181814e-05,0.96588786934199033
-4.0288181818181819e-05,0.98079580616970263
-4.0278181818181817e-05,0.96588786934199033
-4.0268181818181816e-05,0.96588786934199033
-4.0258181818181814e-05,0.94725294830734141
-4.0248181818181812e-05,0.96216088513506559
-4.0238181818181818e-05,0.97334183775584981
-4.0228181818181816e-05,0.95843390092813074
-4.0218181818181814e-05,0.97334183775584981
-4.0208181818181813e-05,0.97334183775584981
-4.0198181818181818e-05,0.97334183775584981
-4.0188181818181816e-05,0.96588786934199033
-4.0178181818181815e-05,0.96588786934199033
-4.0168181818181813e-05,0.96216088513506393
-4.0158181818181818e-05,0.96961485354891663
-4.0148181818181817e-05,0.94725294830734141
-4.0138181818181815e-05,0.96961485354892007
-4.0128181818181814e-05,0.96588786934199033
-4.0118181818181819e-05,0.97334183775584637
-4.0108181818181817e-05,0.95470691672120089
-4.0098181818181816e-05,0.96216088513506048
-4.0088181818181814e-05,0.97334183775584981
-4.0078181818181812e-05,0.96216088513505704
-4.0068181818181818e-05,0.95470691672120089
-4.0058181818181816e-05,0.97706882196277967
-4.0048181818181814e-05,0.97334183775584981
-4.0038181818181813e-05,0.965887869341992
-4.0028181818181818e-05,0.96961485354892007
-4.0018181818181816e-05,0.99197675879049874
-4.0008181818181815e-05,0.95470691672120089
-3.9998181818181813e-05,0.97706882196278133
-3.9988181818181818e-05,0.98079580616970774
-3.9978181818181817e-05,0.97334183775584981
-3.9968181818181815e-05,0.97706882196277967
-3.9958181818181814e-05,0.97706882196277967
-3.9948181818181819e-05,0.95843390092813918
-3.9938181818181817e-05,0.96961485354892007
-3.9928181818181816e-05,0.97706882196277967
-3.9918181818181814e-05,0.96588786934199033
-3.9908181818181819e-05,0.97706882196277456
-3.9898181818181818e-05,0.96588786934199033
-3.9888181818181816e-05,0.97334183775584981
-3.9878181818181814e-05,0.97334183775584981
-3.9868181818181813e-05,0.96961485354892518
-3.9858181818181818e-05,0.98079580616970941
-3.9848181818181816e-05,0.97334183775584981
-3.9838181818181815e-05,0.96961485354892007
-3.9828181818181813e-05,0.96216088513506726
-3.9818181818181818e-05,0.97706882196277289
-3.9808181818181817e-05,0.96216088513506048
-3.9798181818181815e-05,0.96216088513506048
-3.9788181818181813e-05,0.95470691672120089
-3.9778181818181819e-05,0.95470691672120089
-3.9768181818181817e-05,0.96216088513506048
-3.9758181818181815e-05,0.95470691672120089
-3.9748181818181814e-05,0.96961485354892007
-3.9738181818181819e-05,0.95470691672120767
-3.9728181818181817e-05,0.96588786934199033
-3.9718181818181816e-05,0.96588786934199033
-3.9708181818181814e-05,0.96588786934199033
-3.9698181818181813e-05,0.97334183775585148
-3.9688181818181818e-05,0.97706882196277967
-3.9678181818181816e-05,0.95470691672120089
-3.9668181818181815e-05,0.97706882196277967
-3.9658181818181813e-05,0.95097993251428303
-3.9648181818181818e-05,0.97706882196276779
-3.9638181818181817e-05,0.96216088513506048
-3.9628181818181815e-05,0.96216088513506048
-3.9618181818181813e-05,0.97334183775584471
-3.9608181818181819e-05,0.96216088513506559
-3.9598181818181817e-05,0.97706882196277967
-3.9588181818181815e-05,0.95843390092813074
-3.9578181818181814e-05,0.97706882196277967
-3.9568181818181819e-05,0.94725294830735496
-3.9558181818181817e-05,0.97334183775584981
-3.9548181818181816e-05,0.96588786934199033
-3.9538181818181814e-05,0.95843390092813074
-3.9528181818181813e-05,0.96961485354892174
-3.9518181818181818e-05,0.97334183775584981
-3.9508181818181816e-05,0.97334183775584981
-3.9498181818181815e-05,0.97706882196277967
-3.9488181818181813e-05,0.96216088513506393
-3.9478181818181818e-05,0.96961485354891663
-3.9468181818181817e-05,0.96588786934199033
-3.9458181818181815e-05,0.96961485354892007
-3.9448181818181813e-05,0.95097993251427959
-3.9438181818181819e-05,0.96961485354891164
-3.9428181818181817e-05,0.97706882196277967
-3.9418181818181815e-05,0.96588786934199033
-3.9408181818181814e-05,0.95843390092813074
-3.9398181818181819e-05,0.95843390092813074
-3.9388181818181817e-05,0.96588786934199033
-3.9378181818181816e-05,0.96216088513506048
-3.9368181818181814e-05,0.96961485354892007
-3.9358181818181813e-05,0.96216088513506892
-3.9348181818181818e-05,0.98079580616970941
-3.9338181818181816e-05,0.96216088513506048
-3.9328181818181814e-05,0.96216088513506048
-3.9318181818181813e-05,0.96961485354891497
-3.9308181818181818e-05,0.95843390092813585
-3.9298181818181816e-05,0.97334183775584981
-3.9288181818181815e-05,0.98079580616970941
-3.9278181818181813e-05,0.95843390092813241
-3.9268181818181818e-05,0.96216088513505882
-3.9258181818181817e-05,0.96216088513506048
-3.9248181818181815e-05,0.97706882196277967
-3.9238181818181814e-05,0.96961485354892007
-3.9228181818181819e-05,0.93979897989349537
-3.9218181818181817e-05,0.96961485354892007
-3.9208181818181816e-05,0.96216088513506048
-3.9198181818181814e-05,0.95843390092813074
-3.9188181818181812e-05,0.95097993251427282
-3.9178181818181818e-05,0.95470691672120089
-3.9168181818181816e-05,0.96216088513506048
-3.9158181818181814e-05,0.98079580616970941
-3.9148181818181813e-05,0.95097993251428137
-3.9138181818181818e-05,0.97334183775584981
-3.9128181818181816e-05,0.95097993251427115
-3.9118181818181815e-05,0.97706882196277967
-3.9108181818181813e-05,0.95470691672121277
-3.9098181818181818e-05,0.98079580616969753
-3.9088181818181817e-05,0.96216088513506048
-3.9078181818181815e-05,0.96961485354892007
-3.9068181818181814e-05,0.96961485354892007
-3.9058181818181819e-05,0.96961485354892007
-3.9048181818181817e-05,0.96961485354892007
-3.9038181818181816e-05,0.97334183775584981
-3.9028181818181814e-05,0.96216088513506048
-3.9018181818181812e-05,0.96961485354891841
-3.9008181818181818e-05,0.96588786934199033
-3.8998181818181816e-05,0.96961485354892007
-3.8988181818181814e-05,0.98079580616970941
-3.8978181818181813e-05,0.96961485354892174
-3.8968181818181818e-05,0.97334183775584981
-3.8958181818181816e-05,0.95470691672120089
-3.8948181818181815e-05,0.97706882196277967
-3.8938181818181813e-05,0.96216088513505882
-3.8928181818181818e-05,0.95843390092813241
-3.8918181818181817e-05,0.96588786934199033
-3.8908181818181815e-05,0.99570374299742848
-3.8898181818181814e-05,0.97334183775584981
-3.8888181818181819e-05,0.96961485354892174
-3.8878181818181817e-05,0.96961485354892007
-3.8868181818181816e-05,0.95843390092813074
-3.8858181818181814e-05,0.96961485354892007
-3.8848181818181819e-05,0.965887869341992
-3.8838181818181817e-05,0.97334183775584981
-3.8828181818181816e-05,0.96961485354892007
-3.8818181818181814e-05,0.98452279037663915
-3.8808181818181813e-05,0.96961485354891663
-3.8798181818181818e-05,0.96216088513506048
-3.8788181818181816e-05,0.97334183775584981
-3.8778181818181815e-05,0.96961485354892007
-3.8768181818181813e-05,0.96961485354891841
-3.8758181818181818e-05,0.965887869341992
-3.8748181818181817e-05,0.95843390092813074
-3.8738181818181815e-05,0.97334183775584981
-3.8728181818181813e-05,0.97334183775585148
-3.8718181818181819e-05,0.977068821962778
-3.8708181818181817e-05,0.97334183775584981
-3.8698181818181815e-05,0.98452279037663915
-3.8688181818181814e-05,0.97334183775584981
-3.8678181818181819e-05,0.9919767587904903
-3.8668181818181817e-05,0.97334183775584981
-3.8658181818181816e-05,0.98079580616970941
-3.8648181818181814e-05,0.97706882196277967
-3.8638181818181813e-05,0.97334183775584304
-3.8628181818181818e-05,0.95843390092813074
-3.8618181818181816e-05,0.98452279037663915
-3.8608181818181815e-05,0.97334183775584981
-3.8598181818181813e-05,0.98452279037663748
-3.8588181818181818e-05,0.98079580616971107
-3.8578181818181817e-05,0.96588786934199033
-3.8568181818181815e-05,0.98079580616970941
-3.8558181818181813e-05,1.0068846956182043
-3.8548181818181819e-05,0.97706882196279321
-3.8538181818181817e-05,0.98452279037663915
-3.8528181818181815e-05,0.99197675879049874
-3.8518181818181814e-05,0.97334183775584981
-3.8508181818181819e-05,0.97334183775584981
-3.8498181818181817e-05,0.97706882196277967
-3.8488181818181816e-05,0.96216088513506048
-3.8478181818181814e-05,0.97334183775584981
-3.8468181818181813e-05,0.98824977458355878
-3.8458181818181818e-05,0.96588786934199033
-3.8448181818181816e-05,0.95097993251427115
-3.8438181818181815e-05,0.97706882196277967
-3.8428181818181813e-05,0.96216088513506892
-3.8418181818181818e-05,0.98079580616970097
-3.8408181818181817e-05,0.96216088513506048
-3.8398181818181815e-05,0.96961485354892007
-3.8388181818181813e-05,0.97706882196278133
-3.8378181818181819e-05,0.98079580616970774
-3.8368181818181817e-05,0.97706882196277967
-3.8358181818181815e-05,0.97334183775584981
-3.8348181818181814e-05,0.98452279037663915
-3.8338181818181819e-05,0.97706882196278311
-3.8328181818181817e-05,0.96961485354892007
-3.8318181818181816e-05,0.95843390092813074
-3.8308181818181814e-05,0.97334183775584981
-3.8298181818181812e-05,0.98824977458356555
-3.8288181818181818e-05,0.98079580616970941
-3.8278181818181816e-05,0.96216088513506048
-3.8268181818181814e-05,0.96961485354892007
-3.8258181818181813e-05,0.97706882196277289
-3.8248181818181818e-05,0.96216088513506726
-3.8238181818181816e-05,1.0031577114112882
-3.8228181818181815e-05,0.97706882196277967
-3.8218181818181813e-05,0.9845227903766357
-3.8208181818181818e-05,0.97706882196278311
-3.8198181818181817e-05,0.96961485354892007
-3.8188181818181815e-05,0.98452279037663915
-3.8178181818181814e-05,0.988249774583569
-3.8168181818181819e-05,0.98079580616971285
-3.8158181818181817e-05,0.96961485354892007
-3.8148181818181816e-05,0.98452279037663915
-3.8138181818181814e-05,0.97706882196277967
-3.8128181818181812e-05,0.98079580616970596
-3.8118181818181818e-05,0.97334183775584981
-3.8108181818181816e-05,0.96216088513506048
-3.8098181818181814e-05,0.98452279037663915
-3.8088181818181813e-05,0.98079580616970941
-3.8078181818181818e-05,0.98079580616970941
-3.8068181818181816e-05,0.98079580616970941
-3.8058181818181815e-05,0.96216088513506048
-3.8048181818181813e-05,0.99197675879049196
-3.8038181818181818e-05,0.97706882196278644
-3.8028181818181817e-05,0.98079580616970941
-3.8018181818181815e-05,0.96961485354892007
-3.8008181818181814e-05,0.97706882196277967
-3.7998181818181819e-05,0.96961485354892352
-3.7988181818181817e-05,0.99943072720435833
-3.7978181818181816e-05,0.97334183775584981
-3.7968181818181814e-05,0.99197675879049874
-3.7958181818181819e-05,0.98079580616971451
-3.7948181818181818e-05,0.98079580616970941
-3.7938181818181816e-05,0.96961485354892007
-3.7928181818181814e-05,0.99570374299742848
-3.7918181818181813e-05,0.96588786934198867
-3.7908181818181818e-05,0.96216088513506048
-3.7898181818181816e-05,0.98452279037663915
-3.7888181818181815e-05,0.96588786934199033
-3.7878181818181813e-05,0.965887869341992
-3.7868181818181818e-05,0.96961485354891841
-3.7858181818181817e-05,0.97334183775584981
-3.7848181818181815e-05,0.98079580616970941
-3.7838181818181814e-05,0.98452279037663915
-3.7828181818181819e-05,0.98079580616971107
-3.7818181818181817e-05,0.96961485354892007
-3.7808181818181815e-05,0.988249774583569
-3.7798181818181814e-05,0.97334183775584981
-3.7788181818181819e-05,0.97334183775584981
-3.7778181818181817e-05,0.96216088513506048
-3.7768181818181816e-05,0.99197675879049874
-3.7758181818181814e-05,0.98079580616970941
-3.7748181818181813e-05,0.9621608851350707
-3.7738181818181818e-05,0.98452279037663915
-3.7728181818181816e-05,0.97706882196277967
-3.7718181818181815e-05,0.98079580616970941
-3.7708181818181813e-05,0.9509799325142847
-3.7698181818181818e-05,0.98079580616969586
-3.7688181818181817e-05,0.97706882196277967
-3.7678181818181815e-05,0.988249774583569
-3.7668181818181813e-05,0.98079580616970596
-3.7658181818181819e-05,0.97334183775585326
-3.7648181818181817e-05,0.97706882196277967
-3.7638181818181815e-05,0.96961485354892007
-3.7628181818181814e-05,0.95843390092813074
-3.7618181818181819e-05,0.98452279037662727
-3.7608181818181817e-05,0.97706882196277967
-3.7598181818181816e-05,0.96588786934199033
-3.7588181818181814e-05,0.96961485354892007
-3.7578181818181813e-05,0.98824977458356056
-3.7568181818181818e-05,0.96961485354892007
-3.7558181818181816e-05,0.95843390092813074
-3.7548181818181815e-05,0.99197675879049874
-3.7538181818181813e-05,0.97706882196277456
-3.7528181818181818e-05,0.96588786934199544
-3.7518181818181817e-05,0.98079580616970941
-3.7508181818181815e-05,0.97334183775584981
-3.7498181818181813e-05,0.97706882196277967
-3.7488181818181819e-05,0.97706882196277967
-3.7478181818181817e-05,0.96961485354892007
-3.7468181818181815e-05,0.96961485354892007
-3.7458181818181814e-05,0.96961485354892007
-3.7448181818181819e-05,0.96961485354892007
-3.7438181818181817e-05,0.95470691672120089
-3.7428181818181816e-05,0.97334183775584981
-3.7418181818181814e-05,0.96961485354892007
-3.7408181818181813e-05,0.96588786934200388
-3.7398181818181818e-05,0.99570374299742848
-3.7388181818181816e-05,0.96961485354892007
-3.7378181818181815e-05,0.97334183775584981
-3.7368181818181813e-05,0.98452279037663915
-3.7358181818181818e-05,0.98452279037663915
-3.7348181818181817e-05,0.98452279037663915
-3.7338181818181815e-05,0.96216088513506048
-3.7328181818181813e-05,0.98452279037663915
-3.7318181818181818e-05,0.98452279037663915
-3.7308181818181817e-05,0.988249774583569
-3.7298181818181815e-05,0.96588786934199033
-3.7288181818181814e-05,0.96588786934199033
-3.7278181818181819e-05,0.98079580616970263
-3.7268181818181817e-05,0.99570374299742848
-3.7258181818181816e-05,0.96961485354892007
-3.7248181818181814e-05,0.988249774583569
-3.7238181818181812e-05,0.96216088513506393
-3.7228181818181818e-05,0.96961485354892007
-3.7218181818181816e-05,0.988249774583569
-3.7208181818181814e-05,0.99197675879049874
-3.7198181818181813e-05,0.97334183775585492
-3.7188181818181818e-05,0.98452279037663404
-3.7178181818181816e-05,0.98079580616970941
-3.7168181818181815e-05,0.98452279037663915
-3.7158181818181813e-05,0.965887869341992
-3.7148181818181818e-05,0.96961485354891841
-3.7138181818181817e-05,0.96961485354892007
-3.7128181818181815e-05,0.99943072720435833
-3.7118181818181814e-05,0.97706882196277967
-3.7108181818181819e-05,0.97706882196277967
-3.7098181818181817e-05,0.98452279037663915
-3.7088181818181816e-05,0.98452279037663915
-3.7078181818181814e-05,0.98452279037663915
-3.7068181818181812e-05,0.98079580616971451
-3.7058181818181818e-05,0.99197675879049874
-3.7048181818181816e-05,0.98452279037663915
-3.7038181818181814e-05,0.97334183775584981
-3.7028181818181813e-05,0.98452279037663748
-3.7018181818181818e-05,0.98079580616970941
-3.7008181818181816e-05,0.97706882196277967
-3.6998181818181815e-05,0.97334183775584981
-3.6988181818181813e-05,0.98452279037663915
-3.6978181818181818e-05,0.98452279037663915
-3.6968181818181817e-05,0.988249774583569
-3.6958181818181815e-05,0.99570374299742848
-3.6948181818181814e-05,0.97706882196277967
-3.6938181818181819e-05,0.97706882196277967
-3.6928181818181817e-05,0.98452279037663915
-3.6918181818181816e-05,0.97334183775584981
-3.6908181818181814e-05,0.97706882196277967
-3.6898181818181819e-05,0.98079580616970774
-3.6888181818181818e-05,0.96961485354892007
-3.6878181818181816e-05,0.98452279037663915
-3.6868181818181814e-05,0.98452279037663915
-3.6858181818181813e-05,0.9509799325142847
-3.6848181818181818e-05,0.98079580616970941
-3.6838181818181816e-05,0.98079580616970941
-3.6828181818181815e-05,0.98452279037663915
-3.6818181818181813e-05,0.98824977458356733
-3.6808181818181818e-05,0.98452279037664081
-3.6798181818181817e-05,0.98079580616970941
-3.6788181818181815e-05,0.99197675879049874
-3.6778181818181813e-05,0.97706882196277967
-3.6768181818181819e-05,0.96216088513506726
-3.6758181818181817e-05,0.97334183775584981
-3.6748181818181815e-05,0.96961485354892007
-3.6738181818181814e-05,0.97706882196277967
-3.6728181818181819e-05,0.97334183775585148
-3.6718181818181817e-05,0.97334183775584981
-3.6708181818181816e-05,0.97706882196277967
-3.6698181818181814e-05,0.96588786934199033
-3.6688181818181813e-05,0.9957037429974217
-3.6678181818181818e-05,0.98079580616970941
-3.6668181818181816e-05,0.988249774583569
-3.6658181818181815e-05,0.988249774583569
-3.6648181818181813e-05,0.977068821962778
-3.6638181818181818e-05,0.97334183775585148
-3.6628181818181817e-05,0.97706882196277967
-3.6618181818181815e-05,0.99943072720435833
-3.6608181818181813e-05,0.96216088513506892
-3.6598181818181819e-05,0.98079580616970097
-3.6588181818181817e-05,0.96961485354892007
-3.6578181818181815e-05,0.96961485354892007
-3.6568181818181814e-05,0.97706882196277967
-3.6558181818181819e-05,0.96588786934199544
-3.6548181818181817e-05,0.96588786934199033
-3.6538181818181816e-05,0.99197675879049874
-3.6528181818181814e-05,0.988249774583569
-3.6518181818181813e-05,0.99570374299741493
-3.6508181818181818e-05,0.96588786934199033
-3.6498181818181816e-05,0.98079580616970941
-3.6488181818181815e-05,0.988249774583569
-3.6478181818181813e-05,0.96588786934199544
-3.6468181818181818e-05,0.97706882196277456
-3.6458181818181817e-05,0.96961485354892007
-3.6448181818181815e-05,0.97706882196277967
-3.6438181818181813e-05,0.97706882196278133
-3.6428181818181819e-05,0.98079580616970774
-3.6418181818181817e-05,0.96961485354892007
-3.6408181818181815e-05,0.94725294830734141
-3.6398181818181814e-05,0.96588786934199033
-3.6388181818181819e-05,0.98824977458355878
-3.6378181818181817e-05,0.98079580616970941
-3.6368181818181816e-05,0.98079580616970941
-3.6358181818181814e-05,0.96588786934199033
-3.6348181818181813e-05,0.9807958061697043
-3.6338181818181818e-05,0.96961485354892007
-3.6328181818181816e-05,0.99570374299742848
-3.6318181818181815e-05,0.97334183775584981
-3.6308181818181813e-05,0.98079580616970596
-3.6298181818181818e-05,0.97334183775585326
-3.6288181818181816e-05,0.96961485354892007
-3.6278181818181815e-05,0.98452279037663915
-3.6268181818181813e-05,0.99570374299741826
-3.6258181818181818e-05,0.97334183775586003
-3.6248181818181817e-05,0.988249774583569
-3.6238181818181815e-05,0.98452279037663915
-3.6228181818181814e-05,0.97706882196277967
