Power_measurements/AES_csv/aes_idle_5.csv

#Digilent WaveForms Oscilloscope Acquisition
#Device Name: Discovery2
#Serial Number: SN:210321A1A9F5
#Date Time: 2018-06-28 03:53:58.958
#Sample rate: 1e+08Hz
#Samples: 8192
#Trigger: Source: Channel 1 Type: Edge Condition: Rising Level: 2 V Hyst.: Auto HoldOff: 0 s
#Channel 2: Range: 1 V/div Offset: 0 V

Time (s),Channel 2 (V)
-4.0697636986301373e-05,0.98452279037663915
-4.0687636986301371e-05,0.98079580616970941
-4.0677636986301369e-05,0.96216088513506215
-4.0667636986301375e-05,0.96588786934198867
-4.0657636986301373e-05,0.98452279037663915
-4.0647636986301371e-05,0.98452279037663915
-4.063763698630137e-05,0.97334183775584981
-4.0627636986301375e-05,0.96961485354892174
-4.0617636986301373e-05,0.98452279037663915
-4.0607636986301372e-05,0.98452279037663915
-4.059763698630137e-05,0.98452279037663915
-4.0587636986301369e-05,0.9957037429974166
-4.0577636986301374e-05,0.96961485354892007
-4.0567636986301372e-05,0.98452279037663915
-4.055763698630137e-05,0.96961485354892007
-4.0547636986301369e-05,0.99570374299742004
-4.0537636986301374e-05,0.9770688219627881
-4.0527636986301372e-05,0.98452279037663915
-4.0517636986301371e-05,0.98079580616970941
-4.0507636986301369e-05,0.9845227903766256
-4.0497636986301374e-05,0.95470691672121444
-4.0487636986301373e-05,0.97706882196277967
-4.0477636986301371e-05,0.988249774583569
-4.046763698630137e-05,0.99197675879049874
-4.0457636986301375e-05,0.98824977458357066
-4.0447636986301373e-05,0.988249774583569
-4.0437636986301372e-05,0.97706882196277967
-4.042763698630137e-05,0.97334183775584981
-4.0417636986301368e-05,0.96961485354892851
-4.0407636986301374e-05,0.988249774583569
-4.0397636986301372e-05,0.96961485354892007
-4.038763698630137e-05,0.96961485354892007
-4.0377636986301369e-05,0.98824977458356733
-4.0367636986301374e-05,0.98452279037664081
-4.0357636986301372e-05,0.99197675879049874
-4.0347636986301371e-05,0.96588786934199033
-4.0337636986301369e-05,0.97706882196277456
-4.0327636986301374e-05,0.96588786934199544
-4.0317636986301373e-05,0.97334183775584981
-4.0307636986301371e-05,0.97706882196277967
-4.029763698630137e-05,0.97334183775584981
-4.0287636986301375e-05,0.98079580616970596
-4.0277636986301373e-05,0.98079580616970941
-4.0267636986301372e-05,0.96588786934199033
-4.025763698630137e-05,0.95843390092813074
-4.0247636986301368e-05,0.96216088513506726
-4.0237636986301374e-05,0.97706882196277967
-4.0227636986301372e-05,0.96216088513506048
-4.021763698630137e-05,0.988249774583569
-4.0207636986301369e-05,0.98079580616971107
-4.0197636986301374e-05,0.98452279037663915
-4.0187636986301372e-05,0.96216088513506048
-4.0177636986301371e-05,0.98079580616970941
-4.0167636986301369e-05,0.977068821962778
-4.0157636986301374e-05,0.97334183775585148
-4.0147636986301373e-05,0.98079580616970941
-4.0137636986301371e-05,0.98079580616970941
-4.012763698630137e-05,0.97706882196277967
-4.0117636986301375e-05,0.96961485354892352
-4.0107636986301373e-05,0.99197675879049874
-4.0097636986301371e-05,0.95843390092813074
-4.008763698630137e-05,0.97334183775584981
-4.0077636986301368e-05,0.97334183775585326
-4.0067636986301373e-05,0.98079580616970941
-4.0057636986301372e-05,0.98079580616970941
-4.004763698630137e-05,0.97334183775584981
-4.0037636986301369e-05,0.9807958061697043
-4.0027636986301374e-05,0.96961485354892007
-4.0017636986301372e-05,1.0031577114112882
-4.0007636986301371e-05,0.96588786934199033
-3.9997636986301369e-05,0.98079580616970774
-3.9987636986301374e-05,0.97706882196278133
-3.9977636986301373e-05,0.97706882196277967
-3.9967636986301371e-05,0.98079580616970941
-3.9957636986301369e-05,0.98079580616970941
-3.9947636986301375e-05,0.99197675879049363
-3.9937636986301373e-05,0.97706882196277967
-3.9927636986301371e-05,0.988249774583569
-3.991763698630137e-05,0.96216088513506048
-3.9907636986301375e-05,0.98452279037662893
-3.9897636986301373e-05,0.988249774583569
-3.9887636986301372e-05,0.99197675879049874
-3.987763698630137e-05,0.99197675879049874
-3.9867636986301369e-05,0.96588786934200221
-3.9857636986301374e-05,0.99197675879049874
-3.9847636986301372e-05,0.97334183775584981
-3.9837636986301371e-05,0.99197675879049874
-3.9827636986301369e-05,0.99197675879049707
-3.9817636986301374e-05,0.98824977458357066
-3.9807636986301373e-05,0.98079580616970941
-3.9797636986301371e-05,0.98079580616970941
-3.9787636986301369e-05,0.99197675879049529
-3.9777636986301375e-05,0.98452279037664259
-3.9767636986301373e-05,0.98452279037663915
-3.9757636986301371e-05,0.99570374299742848
-3.974763698630137e-05,0.98079580616970941
-3.9737636986301375e-05,0.98079580616970941
-3.9727636986301373e-05,0.96588786934199033
-3.9717636986301372e-05,0.97334183775584981
-3.970763698630137e-05,0.988249774583569
-3.9697636986301369e-05,0.99943072720434811
-3.9687636986301374e-05,0.97706882196277967
-3.9677636986301372e-05,0.988249774583569
-3.9667636986301371e-05,0.98079580616970941
-3.9657636986301369e-05,0.99570374299742004
-3.9647636986301374e-05,0.9770688219627881
-3.9637636986301373e-05,0.99570374299742848
-3.9627636986301371e-05,0.988249774583569
-3.9617636986301369e-05,0.98452279037664081
-3.9607636986301374e-05,0.98824977458356733
-3.9597636986301373e-05,0.99570374299742848
-3.9587636986301371e-05,0.99570374299742848
-3.957763698630137e-05,0.98079580616970941
-3.9567636986301375e-05,1.0106116798251341
-3.9557636986301373e-05,0.98452279037663915
-3.9547636986301372e-05,0.98452279037663915
-3.953763698630137e-05,0.96961485354892007
-3.9527636986301368e-05,1.0068846956182127
-3.9517636986301374e-05,0.99570374299742848
-3.9507636986301372e-05,0.97334183775584981
-3.949763698630137e-05,0.97706882196277967
-3.9487636986301369e-05,0.988249774583569
-3.9477636986301374e-05,0.988249774583569
-3.9467636986301372e-05,0.96588786934199033
-3.9457636986301371e-05,0.96588786934199033
-3.9447636986301369e-05,1.0106116798251323
-3.9437636986301374e-05,0.97706882196279488
-3.9427636986301373e-05,0.98452279037663915
-3.9417636986301371e-05,0.96961485354892007
-3.940763698630137e-05,0.99943072720435833
-3.9397636986301375e-05,0.98452279037664592
-3.9387636986301373e-05,0.988249774583569
-3.9377636986301372e-05,0.97706882196277967
-3.936763698630137e-05,0.99570374299742848
-3.9357636986301368e-05,0.98079580616971451
-3.9347636986301374e-05,0.99197675879049874
-3.9337636986301372e-05,0.98079580616970941
-3.932763698630137e-05,0.96961485354892007
-3.9317636986301369e-05,0.96588786934199544
-3.9307636986301374e-05,0.97706882196277456
-3.9297636986301372e-05,0.98079580616970941
-3.9287636986301371e-05,0.97706882196277967
-3.9277636986301369e-05,0.96961485354893029
-3.9267636986301374e-05,0.99197675879048852
-3.9257636986301373e-05,0.97706882196277967
-3.9247636986301371e-05,0.988249774583569
-3.923763698630137e-05,0.97706882196277967
-3.9227636986301375e-05,0.96961485354892352
-3.9217636986301373e-05,0.98079580616970941
-3.9207636986301372e-05,0.98452279037663915
-3.919763698630137e-05,0.98452279037663915
-3.9187636986301368e-05,0.98452279037664425
-3.9177636986301374e-05,0.99570374299742848
-3.9167636986301372e-05,0.98079580616970941
-3.915763698630137e-05,0.98452279037663915
-3.9147636986301369e-05,0.96216088513506726
-3.9137636986301374e-05,0.97706882196277967
-3.9127636986301372e-05,0.99570374299742848
-3.9117636986301371e-05,0.97706882196277967
-3.9107636986301369e-05,0.97706882196277622
-3.9097636986301374e-05,0.96961485354892352
-3.9087636986301373e-05,0.988249774583569
-3.9077636986301371e-05,0.97706882196277967
-3.906763698630137e-05,0.988249774583569
-3.9057636986301375e-05,0.99570374299742503
-3.9047636986301373e-05,0.99570374299742848
-3.9037636986301371e-05,0.97334183775584981
-3.902763698630137e-05,0.95843390092813074
-3.9017636986301368e-05,0.97334183775585659
-3.9007636986301373e-05,0.988249774583569
-3.8997636986301372e-05,0.988249774583569
-3.898763698630137e-05,0.96961485354892007
-3.8977636986301369e-05,0.98452279037664081
-3.8967636986301374e-05,0.988249774583569
-3.8957636986301372e-05,0.99570374299742848
-3.8947636986301371e-05,0.96961485354892007
-3.8937636986301369e-05,0.98824977458356222
-3.8927636986301374e-05,0.97334183775585659
-3.8917636986301373e-05,0.98079580616970941
-3.8907636986301371e-05,0.99197675879049874
-3.8897636986301369e-05,0.988249774583569
-3.8887636986301375e-05,0.99197675879049707
-3.8877636986301373e-05,0.98079580616970941
-3.8867636986301371e-05,0.97334183775584981
-3.885763698630137e-05,0.95843390092813074
-3.8847636986301375e-05,0.99943072720433968
-3.8837636986301373e-05,0.97706882196277967
-3.8827636986301372e-05,1.0031577114112882
-3.881763698630137e-05,0.98079580616970941
-3.8807636986301369e-05,0.97334183775584815
-3.8797636986301374e-05,0.96961485354892007
-3.8787636986301372e-05,0.988249774583569
-3.8777636986301371e-05,0.99197675879049874
-3.8767636986301369e-05,0.98079580616970941
-3.8757636986301374e-05,0.98079580616970941
-3.8747636986301373e-05,0.988249774583569
-3.8737636986301371e-05,0.97334183775584981
-3.8727636986301369e-05,0.97706882196277456
-3.8717636986301375e-05,0.96588786934199544
-3.8707636986301373e-05,0.98079580616970941
-3.8697636986301371e-05,0.96216088513506048
-3.868763698630137e-05,0.97706882196277967
-3.8677636986301375e-05,0.97334183775585148
-3.8667636986301373e-05,0.96216088513506048
-3.8657636986301372e-05,0.97334183775584981
-3.864763698630137e-05,0.98079580616970941
-3.8637636986301369e-05,0.98452279037663237
-3.8627636986301374e-05,0.96961485354892007
-3.8617636986301372e-05,0.988249774583569
-3.8607636986301371e-05,0.988249774583569
-3.8597636986301369e-05,0.96961485354893362
-3.8587636986301374e-05,0.99943072720434478
-3.8577636986301372e-05,0.97334183775584981
-3.8567636986301371e-05,0.988249774583569
-3.8557636986301369e-05,0.98452279037663915
-3.8547636986301374e-05,0.98452279037663915
-3.8537636986301373e-05,0.96588786934199033
-3.8527636986301371e-05,0.98079580616970941
-3.851763698630137e-05,0.97334183775584981
-3.8507636986301375e-05,0.98452279037663404
-3.8497636986301373e-05,0.97706882196277967
-3.8487636986301372e-05,0.96588786934199033
-3.847763698630137e-05,0.97706882196277967
-3.8467636986301368e-05,0.99570374299742004
-3.8457636986301374e-05,0.97706882196277967
-3.8447636986301372e-05,0.97706882196277967
-3.843763698630137e-05,0.96961485354892007
-3.8427636986301369e-05,0.99943072720435489
-3.8417636986301374e-05,0.99197675879050218
-3.8407636986301372e-05,0.97334183775584981
-3.8397636986301371e-05,0.97334183775584981
-3.8387636986301369e-05,0.98452279037664081
-3.8377636986301374e-05,0.98824977458356733
-3.8367636986301373e-05,0.98452279037663915
-3.8357636986301371e-05,0.95843390092813074
-3.834763698630137e-05,0.98079580616970941
-3.8337636986301375e-05,0.96216088513506892
-3.8327636986301373e-05,0.98079580616970941
-3.8317636986301372e-05,0.98079580616970941
-3.830763698630137e-05,0.96216088513506048
-3.8297636986301368e-05,0.99943072720434811
-3.8287636986301374e-05,0.97706882196277967
-3.8277636986301372e-05,0.98079580616970941
-3.826763698630137e-05,0.96961485354892007
-3.8257636986301369e-05,0.97706882196278133
-3.8247636986301374e-05,0.98079580616970774
-3.8237636986301372e-05,0.97334183775584981
-3.8227636986301371e-05,0.97706882196277967
-3.8217636986301369e-05,0.97334183775584981
-3.8207636986301374e-05,0.97334183775584981
-3.8197636986301373e-05,0.97334183775584981
-3.8187636986301371e-05,0.96961485354892007
-3.817763698630137e-05,0.95843390092813074
-3.8167636986301375e-05,0.95470691672120256
-3.8157636986301373e-05,0.96961485354892007
-3.8147636986301372e-05,0.97334183775584981
-3.813763698630137e-05,0.97334183775584981
-3.8127636986301368e-05,0.96588786934199711
-3.8117636986301374e-05,0.98079580616970941
-3.8107636986301372e-05,0.96216088513506048
-3.809763698630137e-05,0.98452279037663915
-3.8087636986301369e-05,0.98079580616970097
-3.8077636986301374e-05,0.96216088513506048
-3.8067636986301372e-05,0.98452279037663915
-3.8057636986301371e-05,0.96961485354892007
-3.8047636986301369e-05,0.97334183775584304
-3.8037636986301374e-05,0.95843390092813752
-3.8027636986301373e-05,0.96216088513506048
-3.8017636986301371e-05,0.95843390092813074
-3.8007636986301369e-05,0.97706882196277967
-3.7997636986301375e-05,0.96961485354892352
-3.7987636986301373e-05,0.98079580616970941
-3.7977636986301371e-05,0.97334183775584981
-3.796763698630137e-05,0.96588786934199033
-3.7957636986301375e-05,0.98452279037663071
-3.7947636986301373e-05,0.98452279037663915
-3.7937636986301372e-05,0.97334183775584981
-3.792763698630137e-05,0.988249774583569
-3.7917636986301369e-05,0.97706882196277456
-3.7907636986301374e-05,0.96588786934199033
-3.7897636986301372e-05,0.96961485354892007
-3.7887636986301371e-05,0.95843390092813074
-3.7877636986301369e-05,0.97334183775584304
-3.7867636986301374e-05,0.95843390092813752
-3.7857636986301373e-05,0.99570374299742848
-3.7847636986301371e-05,0.97334183775584981
-3.7837636986301369e-05,0.96961485354892007
-3.7827636986301375e-05,0.96961485354892007
-3.7817636986301373e-05,0.96588786934199033
-3.7807636986301371e-05,0.97334183775584981
-3.779763698630137e-05,0.97706882196277967
-3.7787636986301375e-05,0.97334183775585148
-3.7777636986301373e-05,0.95843390092813074
-3.7767636986301372e-05,0.96588786934199033
-3.775763698630137e-05,0.96588786934199033
-3.7747636986301369e-05,0.97706882196277622
-3.7737636986301374e-05,0.96961485354892007
-3.7727636986301372e-05,0.97706882196277967
-3.7717636986301371e-05,0.96588786934199033
-3.7707636986301369e-05,0.96961485354891663
-3.7697636986301374e-05,0.96216088513506393
-3.7687636986301373e-05,0.95470691672120089
-3.7677636986301371e-05,0.97334183775584981
-3.7667636986301369e-05,0.9547069167212161
-3.7657636986301375e-05,0.98824977458355379
-3.7647636986301373e-05,0.97706882196277967
-3.7637636986301371e-05,0.94725294830734141
-3.762763698630137e-05,0.96216088513506048
-3.7617636986301375e-05,0.96961485354891663
-3.7607636986301373e-05,0.95843390092813074
-3.7597636986301372e-05,0.97334183775584981
-3.758763698630137e-05,0.95843390092813074
-3.7577636986301369e-05,0.95843390092813419
-3.7567636986301374e-05,0.96588786934199033
-3.7557636986301372e-05,0.97334183775584981
-3.7547636986301371e-05,0.96588786934199033
-3.7537636986301369e-05,0.98452279037663237
-3.7527636986301374e-05,0.96961485354892685
-3.7517636986301372e-05,0.96961485354892007
-3.7507636986301371e-05,0.95470691672120089
-3.7497636986301369e-05,0.97706882196276945
-3.7487636986301374e-05,0.95470691672121111
-3.7477636986301373e-05,0.96216088513506048
-3.7467636986301371e-05,0.96961485354892007
-3.745763698630137e-05,0.96961485354892007
-3.7447636986301375e-05,0.96961485354892007
-3.7437636986301373e-05,0.96961485354892007
-3.7427636986301372e-05,0.96961485354892007
-3.741763698630137e-05,0.96961485354892007
-3.7407636986301368e-05,0.98452279037663237
-3.7397636986301374e-05,0.96961485354892007
-3.7387636986301372e-05,0.96216088513506048
-3.737763698630137e-05,0.97334183775584981
-3.7367636986301369e-05,0.98452279037664081
-3.7357636986301374e-05,0.98824977458356733
-3.7347636986301372e-05,0.97706882196277967
-3.7337636986301371e-05,0.96588786934199033
-3.7327636986301369e-05,0.965887869341992
-3.7317636986301374e-05,0.96961485354891841
-3.7307636986301373e-05,0.98452279037663915
-3.7297636986301371e-05,0.96216088513506048
-3.728763698630137e-05,0.97334183775584981
-3.7277636986301375e-05,0.98079580616970596
-3.7267636986301373e-05,0.97706882196277967
-3.7257636986301372e-05,0.95097993251427115
-3.724763698630137e-05,0.95470691672120089
-3.7237636986301368e-05,0.97706882196277456
-3.7227636986301374e-05,0.96588786934199033
-3.7217636986301372e-05,0.97334183775584981
-3.720763698630137e-05,0.95470691672120089
-3.7197636986301369e-05,0.95843390092813752
-3.7187636986301374e-05,0.97334183775584304
-3.7177636986301372e-05,0.97334183775584981
-3.7167636986301371e-05,0.95843390092813074
-3.7157636986301369e-05,0.96961485354891841
-3.7147636986301374e-05,0.965887869341992
-3.7137636986301373e-05,0.98079580616970941
-3.7127636986301371e-05,0.99197675879049874
-3.711763698630137e-05,0.96588786934199033
-3.7107636986301375e-05,0.97334183775584637
-3.7097636986301373e-05,0.97334183775584981
-3.7087636986301372e-05,0.97334183775584981
-3.707763698630137e-05,0.96588786934199033
-3.7067636986301368e-05,0.95843390092813241
-3.7057636986301373e-05,0.96216088513506048
-3.7047636986301372e-05,0.96588786934199033
-3.703763698630137e-05,0.97706882196277967
-3.7027636986301369e-05,0.9807958061697043
-3.7017636986301374e-05,0.96961485354892007
-3.7007636986301372e-05,0.97334183775584981
-3.6997636986301371e-05,0.97334183775584981
-3.6987636986301369e-05,0.98079580616970596
-3.6977636986301374e-05,0.97334183775585326
-3.6967636986301373e-05,0.97706882196277967
-3.6957636986301371e-05,0.99570374299742848
-3.6947636986301369e-05,0.96588786934199033
-3.6937636986301375e-05,0.97334183775584637
-3.6927636986301373e-05,0.97706882196277967
-3.6917636986301371e-05,0.97334183775584981
-3.690763698630137e-05,0.97706882196277967
-3.6897636986301375e-05,0.98079580616970774
-3.6887636986301373e-05,0.98079580616970941
-3.6877636986301372e-05,0.97334183775584981
-3.686763698630137e-05,0.97706882196277967
-3.6857636986301369e-05,0.97334183775584637
-3.6847636986301374e-05,0.96588786934199033
-3.6837636986301372e-05,0.96216088513506048
-3.6827636986301371e-05,0.96588786934199033
-3.6817636986301369e-05,0.96588786934199544
-3.6807636986301374e-05,0.97706882196277456
-3.6797636986301373e-05,0.96588786934199033
-3.6787636986301371e-05,0.98079580616970941
-3.6777636986301369e-05,0.97334183775584981
-3.6767636986301375e-05,0.96588786934199378
-3.6757636986301373e-05,0.99570374299742848
-3.6747636986301371e-05,0.96588786934199033
-3.673763698630137e-05,0.97706882196277967
-3.6727636986301375e-05,0.95843390092813918
-3.6717636986301373e-05,0.97334183775584981
-3.6707636986301372e-05,0.96216088513506048
-3.669763698630137e-05,0.98452279037663915
-3.6687636986301369e-05,0.98452279037664592
-3.6677636986301374e-05,0.99943072720435833
-3.6667636986301372e-05,0.97706882196277967
-3.6657636986301371e-05,0.99197675879049874
-3.6647636986301369e-05,0.95843390092814595
-3.6637636986301374e-05,0.99197675879048353
-3.6627636986301373e-05,0.97334183775584981
-3.6617636986301371e-05,0.98079580616970941
-3.6607636986301369e-05,0.96961485354892007
-3.6597636986301375e-05,0.96961485354892007
-3.6587636986301373e-05,0.98079580616970941
-3.6577636986301371e-05,0.98079580616970941
-3.656763698630137e-05,0.95470691672120089
-3.6557636986301375e-05,0.98824977458355379
-3.6547636986301373e-05,0.99943072720435833
-3.6537636986301372e-05,0.97706882196277967
-3.652763698630137e-05,0.97334183775584981
-3.6517636986301369e-05,0.97334183775585326
-3.6507636986301374e-05,0.98079580616970941
-3.6497636986301372e-05,0.98452279037663915
-3.648763698630137e-05,0.96216088513506048
-3.6477636986301369e-05,0.977068821962778
-3.6467636986301374e-05,0.97334183775585148
-3.6457636986301372e-05,0.97334183775584981
-3.6447636986301371e-05,0.988249774583569
-3.6437636986301369e-05,0.96961485354892352
-3.6427636986301374e-05,0.97706882196277622
-3.6417636986301373e-05,0.988249774583569
-3.6407636986301371e-05,0.97706882196277967
-3.639763698630137e-05,0.98452279037663915
-3.6387636986301375e-05,0.96588786934199877
-3.6377636986301373e-05,0.98079580616970941
-3.6367636986301372e-05,0.96588786934199033
-3.635763698630137e-05,0.99570374299742848
-3.6347636986301368e-05,0.96216088513506559
-3.6337636986301374e-05,0.97334183775584981
-3.6327636986301372e-05,0.97706882196277967
-3.631763698630137e-05,0.97706882196277967
-3.6307636986301369e-05,0.98452279037663915
-3.6297636986301374e-05,0.98452279037663915
-3.6287636986301372e-05,0.97706882196277967
-3.6277636986301371e-05,0.98452279037663915
-3.6267636986301369e-05,0.98079580616970596
-3.6257636986301374e-05,0.97334183775585326
-3.6247636986301373e-05,0.97334183775584981
-3.6237636986301371e-05,0.97706882196277967
-3.622763698630137e-05,0.97334183775584981
-3.6217636986301375e-05,0.98079580616970596
-3.6207636986301373e-05,0.97706882196277967
