Power_measurements/AES_csv/aes_active_l3_6.csv

#Digilent WaveForms Oscilloscope Acquisition
#Device Name: Discovery2
#Serial Number: SN:210321A1A9F5
#Date Time: 2018-06-28 02:53:51.266
#Sample rate: 1e+08Hz
#Samples: 8192
#Trigger: Source: Channel 1 Type: Edge Condition: Rising Level: 2 V Hyst.: Auto HoldOff: 0 s
#Channel 2: Range: 1 V/div Offset: 0 V

Time (s),Channel 2 (V)
-4.0693232876712331e-05,-1.0466836024000916
-4.0683232876712329e-05,-1.0317756655723727
-4.0673232876712327e-05,-1.0205947129515902
-4.0663232876712333e-05,-1.0355026497792954
-4.0653232876712331e-05,-1.0392296339862321
-4.0643232876712329e-05,-1.0466836024000916
-4.0633232876712328e-05,-1.024321697158513
-4.0623232876712333e-05,-1.0429566181931536
-4.0613232876712331e-05,-1.1025883655040385
-4.060323287671233e-05,1.685195821279438
-4.0593232876712328e-05,6.2097546484921935
-4.0583232876712327e-05,2.2815132943894709
-4.0573232876712332e-05,5.06929748117168
-4.056323287671233e-05,2.8666498148761788
-4.0553232876712329e-05,4.4804339764767747
-4.0543232876712327e-05,3.3958815722604845
-4.0533232876712332e-05,4.0033799979894864
-4.0523232876712331e-05,3.8021228508155538
-4.0513232876712329e-05,3.6679514193660818
-4.0503232876712327e-05,4.1263704768180993
-4.0493232876712333e-05,3.366065698605115
-4.0483232876712331e-05,4.4170752449589683
-4.0473232876712329e-05,3.0790879146711765
-4.0463232876712328e-05,4.6444212815816845
-4.0453232876712333e-05,2.8629228306700591
-4.0443232876712331e-05,4.8009546182727361
-4.043323287671233e-05,2.7548402886682855
-4.0423232876712328e-05,4.8419514445489629
-4.0413232876712327e-05,2.7212974308068594
-4.0403232876712332e-05,4.7935006498588759
-4.039323287671233e-05,2.7585672728752151
-4.0383232876712329e-05,4.7338689025479992
-4.0373232876712327e-05,2.8517418780492609
-4.0363232876712332e-05,4.6146054079254455
-4.0353232876712331e-05,2.9896402937048618
-4.0343232876712329e-05,4.4692530238559849
-4.0333232876712327e-05,3.1163577567410168
-4.0323232876712333e-05,4.308992702957462
-4.0313232876712331e-05,3.2952529986731038
-4.0303232876712329e-05,4.1040085715768662
-4.0293232876712328e-05,3.503964114261171
-4.0283232876712333e-05,3.9251133296440455
-4.0273232876712331e-05,3.6791323719868716
-4.026323287671233e-05,3.7499450719185372
-4.0253232876712328e-05,3.8282117402640621
-4.0243232876712327e-05,3.6269545930899998
-4.0233232876712332e-05,3.9474752348858155
-4.022323287671233e-05,3.5002371300542414
-4.0213232876712329e-05,4.0443768242659903
-4.0203232876712327e-05,3.407062524881304
-4.0193232876712332e-05,4.0816466663352875
-4.018323287671233e-05,3.1536275988097717
-4.0173232876712329e-05,-2.2206836275829733
-4.0163232876712327e-05,0.12358943857480208
-4.0153232876712332e-05,-2.2020487065472669
-4.0143232876712331e-05,0.32111960154313807
-4.0133232876712329e-05,-2.4852995062749876
-4.0123232876712328e-05,0.58946246444208239
-4.0113232876712333e-05,-2.6977376060684906
-4.0103232876712331e-05,0.72736088009848432
-4.009323287671233e-05,-2.7424614165531427
-4.0083232876712328e-05,0.7087259590638354
-4.0073232876712326e-05,-2.6679217324130824
-4.0063232876712332e-05,0.55219262237278455
-4.005323287671233e-05,-2.4666645852403386
-4.0043232876712328e-05,0.30621166471541894
-4.0033232876712327e-05,-2.2244106117888727
-4.0023232876712332e-05,0.041595786023404469
-4.001323287671233e-05,-1.9486137804770989
-4.0003232876712329e-05,-0.23420104528939936
-3.9993232876712327e-05,-1.6541820281291428
-3.9983232876712332e-05,-0.54726771867200452
-3.9973232876712331e-05,-1.3634772599891232
-3.9963232876712329e-05,-0.8416994710189537
-3.9953232876712328e-05,-1.0690455076416705
-3.9943232876712333e-05,-1.1137693181248074
-3.9933232876712331e-05,-0.78579470791500705
-3.992323287671233e-05,-1.348569323161404
-3.9913232876712328e-05,-0.60689946598237754
-3.9903232876712333e-05,-1.5386455177143992
-3.9893232876712332e-05,-0.46527406611904581
-3.988323287671233e-05,-1.6355471070949972
-3.9873232876712328e-05,-0.36837247673887152
-3.9863232876712327e-05,-1.698905838612178
-3.9853232876712332e-05,-0.32364866625571409
-3.984323287671233e-05,-1.7436296490959609
-3.9833232876712329e-05,-0.33110263466957368
-3.9823232876712327e-05,-1.7138137754399125
-3.9813232876712332e-05,-0.37209946094641144
-3.9803232876712331e-05,-1.6467280597157865
-3.9793232876712329e-05,-0.4429121608774671
-3.9783232876712328e-05,-1.5572804387490211
-3.9773232876712333e-05,-0.56590263970660082
-3.9763232876712331e-05,-1.4491978967485082
-3.975323287671233e-05,-0.65907724487939445
-3.9743232876712328e-05,-1.3373883705406147
-3.9733232876712333e-05,-0.80070264474297015
-3.9723232876712332e-05,-1.2143978917119318
-3.971323287671233e-05,-0.90133121832983021
-3.9703232876712328e-05,-1.0988613812971086
-3.9693232876712327e-05,-1.0280486813654259
-3.9683232876712332e-05,-0.99077883929614496
-3.967323287671233e-05,-1.1473121759871958
-3.9663232876712329e-05,-0.90133121832983021
-3.9653232876712327e-05,-1.2218518601256136
-3.9643232876712332e-05,-0.83051851839834234
-3.9633232876712331e-05,-1.2665756706089488
-3.9623232876712329e-05,-0.78579470791500705
-3.9613232876712327e-05,-1.2963915442641465
-3.9603232876712333e-05,-0.76715978688059883
-3.9593232876712331e-05,-1.3187534495059658
-3.9583232876712329e-05,-0.77834073950114746
-3.9573232876712328e-05,-1.3224804337128955
-3.9563232876712333e-05,-0.77088677108753867
-3.9553232876712331e-05,-1.2777566232297382
-3.954323287671233e-05,-0.81188359736351545
-3.9533232876712328e-05,-1.2777566232297382
-3.9523232876712327e-05,-0.82306454998447931
-3.9513232876712332e-05,-1.2069439232980723
-3.950323287671233e-05,-0.89387724991597073
-3.9493232876712329e-05,-1.1734010654357043
-3.9483232876712327e-05,-0.93487407619228813
-3.9473232876712332e-05,-1.1324042391593867
-3.9463232876712331e-05,-0.98332487088228548
-3.9453232876712329e-05,-1.0839534444693895
-3.9443232876712327e-05,-1.0243216971585181
-3.9433232876712333e-05,-1.0355026497792972
-3.9423232876712331e-05,-1.0615915392278108
-3.9413232876712329e-05,-1.0019597919169343
-3.9403232876712328e-05,-1.0988613812971086
-3.9393232876712333e-05,-0.96468994984769751
-3.9383232876712331e-05,-1.1174963023317577
-3.937323287671233e-05,-0.95723598143377697
-3.9363232876712328e-05,-1.1324042391594766
-3.9353232876712327e-05,-0.93487407619229324
-3.9343232876712332e-05,-1.143585191780266
-3.933323287671233e-05,-0.92742010777833872
-3.9323232876712329e-05,-1.143585191780266
-3.9313232876712327e-05,-0.93487407619228302
-3.9303232876712332e-05,-1.1212232865386025
-3.9293232876712331e-05,-0.96468994984763656
-3.9283232876712329e-05,-1.128677254952547
-3.9273232876712327e-05,-0.95723598143383626
-3.9263232876712333e-05,-1.08768042867626
-3.9253232876712331e-05,-0.97587090246842589
-3.9243232876712329e-05,-1.0951343970901788
-3.9233232876712328e-05,-0.99450582350307482
-3.9223232876712333e-05,-1.0839534444693488
-3.9213232876712331e-05,-1.0168677287446535
-3.920323287671233e-05,-1.0541375708139513
-3.9193232876712328e-05,-1.0280486813654428
-3.9183232876712327e-05,-1.0466836024000865
-3.9173232876712332e-05,-1.0355026497793023
-3.916323287671233e-05,-1.0280486813654428
-3.9153232876712328e-05,-1.0578645550208812
-3.9143232876712327e-05,-1.0168677287446788
-3.9133232876712332e-05,-1.0727724918486001
-3.912323287671233e-05,-0.99823280771000455
-3.9113232876712329e-05,-1.0839534444693895
-3.9103232876712327e-05,-0.99450582350311045
-3.9093232876712332e-05,-1.0727724918485646
-3.9083232876712331e-05,-0.97959788667535563
-3.9073232876712329e-05,-1.07649947605553
-3.9063232876712328e-05,-1.0019597919169343
-3.9053232876712333e-05,-1.0988613812970647
-3.9043232876712331e-05,-1.0019597919169343
-3.903323287671233e-05,-1.0839534444693895
-3.9023232876712328e-05,-1.0019597919169343
-3.9013232876712326e-05,-1.0802264602624225
-3.9003232876712332e-05,-0.99823280771000455
-3.899323287671233e-05,-1.0578645550208812
-3.8983232876712328e-05,-1.0131407445377236
-3.8973232876712327e-05,-1.0429566181931518
-3.8963232876712332e-05,-1.0205947129515833
-3.895323287671233e-05,-1.0466836024000916
-3.8943232876712329e-05,-1.024321697158513
-3.8933232876712327e-05,-1.0615915392277955
-3.8923232876712332e-05,-1.0280486813654581
-3.8913232876712331e-05,-1.042956618193162
-3.8903232876712329e-05,-1.042956618193162
-3.8893232876712328e-05,-1.0392296339862321
-3.8883232876712333e-05,-1.0392296339862321
-3.8873232876712331e-05,-1.0317756655723727
-3.886323287671233e-05,-1.0578645550208812
-3.8853232876712328e-05,-1.0355026497793023
-3.8843232876712333e-05,-1.0541375708139429
-3.8833232876712332e-05,-1.0168677287446535
-3.882323287671233e-05,-1.0653185234347406
-3.8813232876712328e-05,-1.0168677287446535
-3.8803232876712327e-05,-1.0392296339862288
-3.8793232876712332e-05,-1.0317756655723727
-3.878323287671233e-05,-1.0578645550208812
-3.8773232876712329e-05,-1.024321697158513
-3.8763232876712327e-05,-1.0541375708139309
-3.8753232876712332e-05,-1.0094137603308144
-3.8743232876712331e-05,-1.042956618193162
-3.8733232876712329e-05,-1.0317756655723727
-3.8723232876712328e-05,-1.0429566181931551
-3.8713232876712333e-05,-1.0280486813654497
-3.8703232876712331e-05,-1.0541375708139513
-3.869323287671233e-05,-1.0205947129515833
-3.8683232876712328e-05,-1.0541375708139513
-3.8673232876712333e-05,-1.0317756655723829
-3.8663232876712331e-05,-1.0280486813654428
-3.865323287671233e-05,-1.0317756655723727
-3.8643232876712328e-05,-1.0355026497793023
-3.8633232876712327e-05,-1.0317756655723624
-3.8623232876712332e-05,-1.009413760330794
-3.861323287671233e-05,-1.0355026497793023
-3.8603232876712329e-05,-1.0392296339862321
-3.8593232876712327e-05,-1.028048681365475
-3.8583232876712332e-05,-1.0988613812970764
-3.8573232876712331e-05,2.8591958464623195
-3.8563232876712329e-05,5.4382689176577284
-3.8553232876712327e-05,2.9896402937054769
-3.8543232876712333e-05,4.3425355608197567
-3.8533232876712331e-05,3.6567704667452929
-3.8523232876712329e-05,3.7089482456423095
-3.8513232876712328e-05,4.1785482557154623
-3.8503232876712333e-05,3.2840720460527209
-3.8493232876712331e-05,4.5177038185460718
-3.848323287671233e-05,3.0157291831533701
-3.8473232876712328e-05,4.7413228709618593
-3.8463232876712327e-05,2.8293799728078062
-3.8453232876712332e-05,4.8643133497905415
-3.844323287671233e-05,2.6728466361158301
-3.8433232876712329e-05,4.9463070023429969
-3.8423232876712327e-05,2.6132148888060311
-3.8413232876712332e-05,4.9835768444112176
-3.8403232876712331e-05,2.6132148888049533
-3.8393232876712329e-05,4.916491128687559
-3.8383232876712327e-05,2.6877545729445051
-3.8373232876712333e-05,4.7897736656509906
-3.8363232876712331e-05,2.8442879096346001
-3.8353232876712329e-05,4.6146054079262466
-3.8343232876712328e-05,3.0343641041880192
-3.8333232876712333e-05,4.4394371501999075
-3.8323232876712331e-05,3.2281672829483679
-3.831323287671233e-05,4.21954508199169
-3.8303232876712328e-05,3.4331514143295054
-3.8293232876712327e-05,4.010833966403446
-3.8283232876712332e-05,3.6232276088829245
-3.827323287671233e-05,3.8170307876432732
-3.8263232876712329e-05,3.8058498350224834
-3.8253232876712327e-05,3.6306815772969414
-3.8243232876712332e-05,3.9772911085410958
-3.8233232876712331e-05,3.4778752248126628
-3.8223232876712329e-05,4.0816466663352875
-3.8213232876712327e-05,3.3735196670189831
-3.8203232876712333e-05,4.1524593662665996
-3.8193232876712331e-05,3.3101609355008232
-3.8183232876712329e-05,4.1710942873016021
-3.8173232876712328e-05,3.2691641092245955
-3.8163232876712333e-05,4.1897292083358328
-3.8153232876712331e-05,2.9225545779801259
-3.814323287671233e-05,-2.6977376060699854
-3.8133232876712328e-05,0.62673230651138012
-3.8123232876712326e-05,-2.6231979219298891
-3.8113232876712332e-05,0.6751831012014673
-3.810323287671233e-05,-2.7424614165531427
-3.8093232876712328e-05,0.80935453265093948
-3.8083232876712327e-05,-2.8319090375177898
-3.8073232876712332e-05,0.83544342209944789
-3.806323287671233e-05,-2.7760042744155102
-3.8053232876712329e-05,0.70127199064997581
-3.8043232876712327e-05,-2.5859280798606963
-3.8033232876712332e-05,0.48137992243972372
-3.8023232876712331e-05,-2.3138582327562176
-3.8013232876712329e-05,0.13477039119664902
-3.8003232876712328e-05,-2.0007915593741155
-3.7993232876712333e-05,-0.20065818742785013
-3.7983232876712331e-05,-1.672816949164295
-3.797323287671233e-05,-0.52490581342992226
-3.7963232876712328e-05,-1.3448423389544744
-3.7953232876712333e-05,-0.85288042363996686
-3.7943232876712332e-05,-1.0317756655723727
-3.793323287671233e-05,-1.143585191780266
-3.7923232876712328e-05,-0.76715978688035813
-3.7913232876712327e-05,-1.3932931336441732
-3.7903232876712332e-05,-0.53981375025764144
-3.789323287671233e-05,-1.58709631240491
-3.7883232876712329e-05,-0.37209946094580126
-3.7873232876712327e-05,-1.7175407596468066
-3.7863232876712332e-05,-0.29755977680785128
-3.7853232876712331e-05,-1.7622645701306097
-3.7843232876712329e-05,-0.25656295053097805
-3.7833232876712328e-05,-1.7846264753721885
-3.7823232876712333e-05,-0.26028993473860096
-3.7813232876712331e-05,-1.7659915543375395
-3.780323287671233e-05,-0.32737565046264389
-3.7793232876712328e-05,-1.6914518701989438
-3.7783232876712333e-05,-0.39818835039489797
-3.7773232876712332e-05,-1.5945502808187697
-3.776323287671233e-05,-0.50999787660220319
-3.7753232876712328e-05,-1.4939217072316655
-3.7743232876712327e-05,-0.64789629225891698
-3.7733232876712332e-05,-1.3336613863336848
-3.772323287671233e-05,-0.79697566053579638
-3.7713232876712329e-05,-1.2218518601257915
-3.7703232876712327e-05,-0.91251217095069759
-3.7693232876712332e-05,-1.0839534444693115
-3.7683232876712331e-05,-1.0466836024000916
-3.7673232876712329e-05,-0.9684169340545663
-3.7663232876712328e-05,-1.1547661444009316
-3.7653232876712333e-05,-0.88269629729530497
-3.7643232876712331e-05,-1.2404867811604403
-3.7633232876712329e-05,-0.80815661315658571
-3.7623232876712328e-05,-1.2852105916435976
-3.7613232876712333e-05,-0.7559788342598095
-3.7603232876712331e-05,-1.3373883705406147
-3.759323287671233e-05,-0.73361692901799014
-3.7583232876712328e-05,-1.3411153547475445
-3.7573232876712327e-05,-0.72616296060441188
-3.7563232876712332e-05,-1.3448423389544744
-3.755323287671233e-05,-0.74479788163877947
-3.7543232876712329e-05,-1.3001185284713168
-3.7533232876712327e-05,-0.79324867632908869
-3.7523232876712332e-05,-1.281483607436446
-3.7513232876712331e-05,-0.8156105815704453
-3.7503232876712329e-05,-1.2442137653673702
-3.7493232876712327e-05,-0.8752423288814557
-3.7483232876712333e-05,-1.1696740812286406
-3.7473232876712331e-05,-0.92369312357140898
-3.7463232876712329e-05,-1.1398582075733363
-3.7453232876712328e-05,-0.97959788667535563
-3.7443232876712333e-05,-1.0839534444693419
-3.7433232876712331e-05,-1.024321697158513
-3.742323287671233e-05,-1.0355026497793023
-3.7413232876712328e-05,-1.0541375708139513
-3.7403232876712327e-05,-0.99077883929618904
-3.7393232876712332e-05,-1.0876804286763193
-3.738323287671233e-05,-0.94605502881298764
-3.7373232876712329e-05,-1.1249502707456172
-3.7363232876712327e-05,-0.94978201302000209
-3.7353232876712332e-05,-1.1361312233663217
-3.7343232876712331e-05,-0.90505820253676006
-3.7333232876712329e-05,-1.1473121759871958
-3.7323232876712327e-05,-0.90878518674379827
-3.7313232876712333e-05,-1.1473121759870875
-3.7303232876712331e-05,-0.92742010777833872
-3.7293232876712329e-05,-1.1473121759871958
-3.7283232876712328e-05,-0.93114709198526846
-3.7273232876712333e-05,-1.124950270745529
-3.7263232876712331e-05,-0.95350899722684723
-3.725323287671233e-05,-1.128677254952547
-3.7243232876712328e-05,-0.9684169340545663
-3.7233232876712327e-05,-1.0839534444693455
-3.7223232876712332e-05,-0.98705185508921522
-3.721323287671233e-05,-1.0727724918486001
-3.7203232876712329e-05,-1.0056867761238641
-3.7193232876712327e-05,-1.0541375708139327
-3.7183232876712332e-05,-1.0131407445377423
-3.7173232876712331e-05,-1.0355026497793023
-3.7163232876712329e-05,-1.0466836024000916
-3.7153232876712327e-05,-1.0056867761238861
-3.7143232876712332e-05,-1.0541375708139293
-3.7133232876712331e-05,-1.0019597919169343
-3.7123232876712329e-05,-1.07649947605553
-3.7113232876712328e-05,-1.0205947129515833
-3.7103232876712333e-05,-1.0764994760555044
-3.7093232876712331e-05,-0.99823280771000455
-3.708323287671233e-05,-1.0802264602624598
-3.7073232876712328e-05,-1.0056867761238641
-3.7063232876712326e-05,-1.0839534444693522
-3.7053232876712332e-05,-1.0019597919169343
-3.704323287671233e-05,-1.0615915392278108
-3.7033232876712328e-05,-1.0019597919169343
-3.7023232876712327e-05,-1.0764994760554927
-3.7013232876712332e-05,-0.99450582350307482
-3.700323287671233e-05,-1.0578645550208812
-3.6993232876712329e-05,-1.0131407445377236
-3.6983232876712327e-05,-1.0615915392277955
-3.6973232876712332e-05,-1.0280486813654581
-3.6963232876712331e-05,-1.0541375708139513
-3.6953232876712329e-05,-1.0131407445377236
-3.6943232876712328e-05,-1.0466836024000916
-3.6933232876712333e-05,-1.054137570813948
-3.6923232876712331e-05,-1.0355026497793023
-3.691323287671233e-05,-1.0131407445377236
-3.6903232876712328e-05,-1.0317756655723727
-3.6893232876712333e-05,-1.0280486813654446
-3.6883232876712332e-05,-1.042956618193162
-3.687323287671233e-05,-1.042956618193162
-3.6863232876712328e-05,-1.0392296339862321
-3.6853232876712327e-05,-1.0317756655723676
-3.6843232876712332e-05,-1.0205947129515833
-3.683323287671233e-05,-1.0504105866070215
-3.6823232876712329e-05,-1.0056867761238641
-3.6813232876712327e-05,-1.0392296339862168
-3.6803232876712332e-05,-1.0056867761238795
-3.6793232876712331e-05,-1.0280486813654428
-3.6783232876712329e-05,-1.0056867761238641
-3.6773232876712328e-05,-1.042956618193162
-3.6763232876712333e-05,-1.0243216971585214
-3.6753232876712331e-05,-1.0317756655723727
-3.674323287671233e-05,-1.0131407445377236
-3.6733232876712328e-05,-1.0317756655723727
-3.6723232876712333e-05,-1.0094137603308042
-3.6713232876712332e-05,-1.0205947129515833
-3.670323287671233e-05,-1.0317756655723727
-3.6693232876712328e-05,-1.0205947129515833
-3.6683232876712327e-05,-1.0243216971585163
-3.6673232876712332e-05,-1.0317756655723727
-3.666323287671233e-05,-1.024321697158513
-3.6653232876712329e-05,-1.0168677287446535
-3.6643232876712327e-05,-1.0243216971585232
-3.6633232876712332e-05,-1.0466836024000814
-3.6623232876712331e-05,-1.0131407445377236
-3.6613232876712329e-05,-1.0168677287446535
-3.6603232876712327e-05,-1.0429566181931536
-3.6593232876712333e-05,-1.0243216971585214
-3.6583232876712331e-05,-1.0392296339862321
-3.6573232876712329e-05,-1.0168677287446535
-3.6563232876712328e-05,-1.024321697158513
-3.6553232876712333e-05,-1.0988613812970747
-3.6543232876712331e-05,3.8878434875749388
-3.653323287671233e-05,4.5885165184777383
-3.6523232876712328e-05,3.7387641192977474
-3.6513232876712327e-05,3.6530434825386591
-3.6503232876712332e-05,4.305265718751075
-3.649323287671233e-05,3.0865418830850357
-3.6483232876712329e-05,4.7525038235826482
-3.6473232876712327e-05,2.7473863202554414
-3.6463232876712332e-05,4.9798498602043502
-3.6453232876712331e-05,2.5833990151495154
-3.6443232876712329e-05,5.0730244653786096
-3.6433232876712327e-05,2.5163132994259421
-3.6423232876712333e-05,5.073024465377447
-3.6413232876712331e-05,2.5200402836317091
-3.6403232876712329e-05,5.0432085917231717
-3.6393232876712328e-05,2.5573101257010071
-3.6383232876712333e-05,4.9686689075834796
-3.6373232876712331e-05,2.6653926677019708
-3.636323287671233e-05,4.8382244603420332
-3.6353232876712328e-05,2.8256529885999511
-3.6343232876712327e-05,4.6332403289601736
-3.6333232876712332e-05,3.045545056808808
-3.632323287671233e-05,4.4021673081312489
-3.6313232876712329e-05,3.2915260144661742
-3.6303232876712327e-05,4.1524593662666627
-3.6293232876712332e-05,3.5114180826753225
-3.6283232876712331e-05,3.9176593612303776
-3.6273232876712329e-05,3.7313101508838882
-3.6263232876712327e-05,3.7164022140562585
-3.6253232876712333e-05,3.9139323770233574
-3.6243232876712331e-05,3.5337799879166099
-3.6233232876712329e-05,4.066738729507569
-3.6223232876712328e-05,3.3847006196394185
-3.6213232876712333e-05,4.1710942873012442
-3.6203232876712331e-05,3.2952529986731038
