Power_measurements/AES_csv/aes_active_l3_4.csv

#Digilent WaveForms Oscilloscope Acquisition
#Device Name: Discovery2
#Serial Number: SN:210321A1A9F5
#Date Time: 2018-06-28 02:53:51.242
#Sample rate: 1e+08Hz
#Samples: 8192
#Trigger: Source: Channel 1 Type: Edge Condition: Rising Level: 2 V Hyst.: Auto HoldOff: 0 s
#Channel 2: Range: 1 V/div Offset: 0 V

Time (s),Channel 2 (V)
-4.0693293768545993e-05,-1.0504105866070215
-4.0683293768545992e-05,-1.0056867761238641
-4.067329376854599e-05,-1.0355026497792938
-4.0663293768545995e-05,-1.0168677287446619
-4.0653293768545994e-05,-1.0280486813654428
-4.0643293768545992e-05,-1.0131407445377236
-4.063329376854599e-05,-1.0317756655723727
-4.0623293768545995e-05,-1.0205947129515884
-4.0613293768545994e-05,-1.07649947605553
-4.0603293768545992e-05,0.70499897485690555
-4.0593293768545991e-05,6.6383578322891177
-4.0583293768545989e-05,1.9237228105245761
-4.0573293768545994e-05,5.5128086017963236
-4.0563293768545993e-05,2.3262371048713604
-4.0553293768545991e-05,5.0804784337924689
-4.0543293768545989e-05,2.7436593360483941
-4.0533293768545995e-05,4.7189609657193827
-4.0523293768545993e-05,3.1014498199127551
-4.0513293768545991e-05,4.3574434976480916
-4.050329376854599e-05,3.4517863353643934
-4.0493293768545995e-05,3.9772911085410145
-4.0483293768545993e-05,3.8356657086779222
-4.0473293768545992e-05,3.6232276088829245
-4.046329376854599e-05,4.1822752399223919
-4.0453293768545995e-05,3.2989799828804349
-4.0443293768545994e-05,4.4357101659936173
-4.0433293768545992e-05,3.0604529936365275
-4.0423293768545991e-05,4.629513344753966
-4.0413293768545989e-05,2.9337355306017079
-4.0403293768545994e-05,4.677964139444053
-4.0393293768545993e-05,2.8517418780484594
-4.0383293768545991e-05,4.6816911236509826
-4.0373293768545989e-05,2.8554688622562154
-4.0363293768545995e-05,4.6705101710293686
-4.0353293768545993e-05,2.8815577517038982
-4.0343293768545991e-05,4.6034244553054569
-4.033329376854599e-05,2.9672783884639764
-4.0323293768545995e-05,4.4916149290968708
-4.0313293768545993e-05,3.0865418830850357
-4.0303293768545992e-05,4.353716513441162
-4.029329376854599e-05,3.2207133145345077
-4.0283293768545995e-05,4.1860022241288828
-4.0273293768545994e-05,3.4145164932948564
-4.0263293768545992e-05,4.0220149190244117
-4.0253293768545991e-05,3.5747768141928375
-4.0243293768545989e-05,3.8543006297125086
-4.0233293768545994e-05,3.7164022140561688
-4.0223293768545993e-05,3.7238561824700289
-4.0213293768545991e-05,3.8393926928848519
-4.0203293768545989e-05,3.6083196720553561
-4.0193293768545995e-05,3.9400212664719563
-4.0183293768545993e-05,3.4592403037780137
-4.0173293768545991e-05,-0.38328041356659059
-4.016329376854599e-05,-1.728721712267657
-4.0153293768545995e-05,-0.44291216087805174
-4.0143293768545993e-05,-1.2218518601257915
-4.0133293768545992e-05,-1.1510391601941257
-4.012329376854599e-05,-0.55099470287843078
-4.0113293768545995e-05,-1.7361756806815625
-4.0103293768545994e-05,-0.062759771770629413
-4.0093293768545992e-05,-2.0939661645473606
-4.0083293768545991e-05,0.19812912271445529
-4.0073293768545989e-05,-2.2803153748926612
-4.0063293768545994e-05,0.33230055416392745
-4.0053293768545992e-05,-2.377216964274024
-4.0043293768545991e-05,0.38820531726787416
-4.0033293768545989e-05,-2.4219407747559001
-4.0023293768545994e-05,0.3956592856817337
-4.0013293768545993e-05,-2.4033058537225322
-4.0003293768545991e-05,0.33230055416392745
-3.999329376854599e-05,-2.295223311720445
-3.9983293768545995e-05,0.17576721747175306
-3.9973293768545993e-05,-2.1126010855820097
-3.9963293768545992e-05,-0.032943898115191161
-3.995329376854599e-05,-1.8815280647523627
-3.9943293768545995e-05,-0.28637882418714167
-3.9933293768545994e-05,-1.6243661544742078
-3.9923293768545992e-05,-0.51745184501606278
-3.991329376854599e-05,-1.3858391652307018
-3.9903293768545996e-05,-0.78579470791527994
-3.9893293768545994e-05,-1.1361312233664065
-3.9883293768545992e-05,-1.0205947129515833
-3.9873293768545991e-05,-0.91996613936447913
-3.9863293768545989e-05,-1.2218518601255677
-3.9853293768545994e-05,-0.72988994481106029
-3.9843293768545993e-05,-1.3970201178514912
-3.9833293768545991e-05,-0.59571851336158821
-3.982329376854599e-05,-1.5200105966797079
-3.9813293768545995e-05,-0.49508993977495019
-3.9803293768545993e-05,-1.58709631240491
-3.9793293768545992e-05,-0.43918517667053736
-3.978329376854599e-05,-1.6131852018528796
-3.9773293768545995e-05,-0.42800422405028704
-3.9763293768545994e-05,-1.5982772650256993
-3.9753293768545992e-05,-0.48018200294676494
-3.974329376854599e-05,-1.5423725019217527
-3.9733293768545996e-05,-0.524905813430385
-3.9723293768545994e-05,-1.4939217072316655
-3.9713293768545992e-05,-0.61062645018930728
-3.9703293768545991e-05,-1.4119280546792103
-3.9693293768545989e-05,-0.69634708694897363
-3.9683293768545994e-05,-1.315026465299036
-3.9673293768545993e-05,-0.81188359736351545
-3.9663293768545991e-05,-1.2106709075050022
-3.965329376854599e-05,-0.90133121832992347
-3.9643293768545995e-05,-1.1063153497108751
-3.9633293768545993e-05,-1.0131407445377236
-3.9623293768545992e-05,-1.0205947129515833
-3.961329376854599e-05,-1.0839534444693302
-3.9603293768545995e-05,-0.95350899722690652
-3.9593293768545993e-05,-1.162220112814915
-3.9583293768545992e-05,-0.87896931308825155
-3.957329376854599e-05,-1.195762970677283
-3.9563293768545995e-05,-0.83424550260525865
-3.9553293768545994e-05,-1.2442137653673702
-3.9543293768545992e-05,-0.81188359736351545
-3.9533293768545991e-05,-1.2516677337812296
-3.9523293768545989e-05,-0.81933756577757166
-3.9513293768545994e-05,-1.2516677337812296
-3.9503293768545993e-05,-0.82306454998430478
-3.9493293768545991e-05,-1.2479407495743
-3.9483293768545989e-05,-0.83424550260527053
-3.9473293768545995e-05,-1.2218518601256152
-3.9463293768545993e-05,-0.85660740784667289
-3.9453293768545991e-05,-1.2069439232980723
-3.944329376854599e-05,-0.89015026570916123
-3.9433293768545995e-05,-1.1547661444009349
-3.9423293768545993e-05,-0.93114709198526846
-3.9413293768545992e-05,-1.1063153497109683
-3.940329376854599e-05,-0.97214391826149615
-3.9393293768545995e-05,-1.0727724918485544
-3.9383293768545994e-05,-1.009413760330794
-3.9373293768545992e-05,-1.0504105866070215
-3.9363293768545991e-05,-1.0392296339862321
-3.9353293768545989e-05,-1.0131407445377441
-3.9343293768545994e-05,-1.0578645550208812
-3.9333293768545993e-05,-0.99450582350307482
-3.9323293768545991e-05,-1.0951343970901788
-3.9313293768545989e-05,-0.97959788667541836
-3.9303293768545995e-05,-1.1174963023316951
-3.9293293768545993e-05,-0.95350899722684723
-3.9283293768545991e-05,-1.1174963023317577
-3.927329376854599e-05,-0.93860106039920432
-3.9263293768545995e-05,-1.1063153497108922
-3.9253293768545993e-05,-0.95723598143377697
-3.9243293768545992e-05,-1.1212232865386873
-3.923329376854599e-05,-0.95723598143377697
-3.9223293768545995e-05,-1.1249502707455408
-3.9213293768545994e-05,-0.96096296564070671
-3.9203293768545992e-05,-1.1137693181248278
-3.9193293768545991e-05,-0.97214391826149615
-3.9183293768545989e-05,-1.1025883655039859
-3.9173293768545994e-05,-0.98705185508921522
-3.9163293768545993e-05,-1.0690455076416705
-3.9153293768545991e-05,-1.0205947129515833
-3.9143293768545989e-05,-1.0653185234347187
-3.9133293768545995e-05,-1.0168677287446535
-3.9123293768545993e-05,-1.042956618193162
-3.9113293768545991e-05,-1.0392296339862321
-3.910329376854599e-05,-1.0355026497792972
-3.9093293768545995e-05,-1.0243216971585181
-3.9083293768545993e-05,-1.024321697158513
-3.9073293768545992e-05,-1.0653185234347406
-3.906329376854599e-05,-1.009413760330794
-3.9053293768545995e-05,-1.0541375708139309
-3.9043293768545994e-05,-1.0056867761238641
-3.9033293768545992e-05,-1.0690455076416705
-3.902329376854599e-05,-0.99077883929614496
-3.9013293768545989e-05,-1.0615915392277855
-3.9003293768545994e-05,-1.0056867761238641
-3.8993293768545992e-05,-1.0541375708139513
-3.8983293768545991e-05,-1.0056867761238641
-3.8973293768545989e-05,-1.0541375708139242
-3.8963293768545994e-05,-0.99450582350307482
-3.8953293768545993e-05,-1.0690455076416705
-3.8943293768545991e-05,-1.0056867761238641
-3.893329376854599e-05,-1.0615915392277837
-3.8923293768545995e-05,-1.0019597919169614
-3.8913293768545993e-05,-1.042956618193162
-3.8903293768545992e-05,-1.0131407445377236
-3.889329376854599e-05,-1.042956618193162
-3.8883293768545995e-05,-1.0205947129515935
-3.8873293768545994e-05,-1.0355026497793023
-3.8863293768545992e-05,-1.0280486813654428
-3.885329376854599e-05,-1.0578645550208812
-3.8843293768545996e-05,-1.0205947129516002
-3.8833293768545994e-05,-1.024321697158513
-3.8823293768545992e-05,-1.0355026497793023
-3.8813293768545991e-05,-1.042956618193162
-3.8803293768545989e-05,-1.0392296339862288
-3.8793293768545994e-05,-1.0317756655723727
-3.8783293768545993e-05,-1.0504105866070215
-3.8773293768545991e-05,-1.0056867761238641
-3.876329376854599e-05,-1.0355026497792905
-3.8753293768545995e-05,-1.0094137603308058
-3.8743293768545993e-05,-1.0504105866070215
-3.8733293768545992e-05,-1.009413760330794
-3.872329376854599e-05,-1.0578645550208592
-3.8713293768545995e-05,-1.009413760330816
-3.8703293768545994e-05,-1.0466836024000916
-3.8693293768545992e-05,-1.0131407445377236
-3.868329376854599e-05,-1.0280486813654428
-3.8673293768545996e-05,-1.0168677287446586
-3.8663293768545994e-05,-1.0392296339862321
-3.8653293768545992e-05,-1.0168677287446535
-3.8643293768545991e-05,-1.0205947129515833
-3.8633293768545989e-05,-1.0168677287446568
-3.8623293768545994e-05,-1.024321697158513
-3.8613293768545993e-05,-1.0168677287446535
-3.8603293768545991e-05,-1.0280486813654428
-3.859329376854599e-05,-1.0317756655724015
-3.8583293768545995e-05,-1.0951343970901499
-3.8573293768545993e-05,1.7187386791418062
-3.8563293768545992e-05,6.2395705221476314
-3.855329376854599e-05,2.3001482154241097
-3.8543293768545995e-05,5.0655704969634927
-3.8533293768545993e-05,2.8778307674969685
-3.8523293768545992e-05,4.4617990554421256
-3.851329376854599e-05,3.4107895090879268
-3.8503293768545995e-05,4.0033799979894935
-3.8493293768545994e-05,3.8058498350224834
-3.8483293768545992e-05,3.6530434825383624
-3.8473293768545991e-05,4.1487323820600235
-3.8463293768545989e-05,3.3399768091567492
-3.8453293768545994e-05,4.4133482607520387
-3.8443293768545993e-05,3.0790879146711765
-3.8433293768545991e-05,4.6556022342024743
-3.8423293768545989e-05,2.8517418780493475
-3.8413293768545995e-05,4.8046816024787775
-3.8403293768545993e-05,2.739932351840566
-3.8393293768545991e-05,4.849405412962823
-3.838329376854599e-05,2.7362053676345823
-3.8373293768545995e-05,4.8158625550995087
-3.8363293768545993e-05,2.7548402886682855
-3.8353293768545992e-05,4.7338689025479992
-3.834329376854599e-05,2.8591958464623195
-3.8333293768545995e-05,4.6220593763393047
-3.8323293768545994e-05,2.9710053726702128
-3.8313293768545992e-05,4.4729800080629145
-3.8303293768545991e-05,3.1424466461889828
-3.8293293768545989e-05,4.297811750336769
-3.8283293768545994e-05,3.3176149039146825
-3.8273293768545993e-05,4.1114625399907263
-3.8263293768545991e-05,3.503964114261171
-3.8253293768545989e-05,3.9288403138510479
-3.8243293768545995e-05,3.6679514193662004
-3.8233293768545993e-05,3.7424911035046771
-3.8223293768545991e-05,3.8393926928848519
-3.821329376854599e-05,3.5934117352276593
-3.8203293768545995e-05,3.9735641243341511
-3.8193293768545993e-05,3.4927831616403822
-3.8183293768545992e-05,4.0257419032313413
-3.817329376854599e-05,3.4033355406740675
-3.8163293768545995e-05,4.0965546031626916
-3.8153293768545994e-05,3.0418180726018784
-3.8143293768545992e-05,-2.5971090324828809
-3.8133293768545991e-05,0.51864976451041644
-3.8123293768545989e-05,-2.5188423641359434
-3.8113293768545994e-05,0.58573548023515254
-3.8103293768545993e-05,-2.6492868113798975
-3.8093293768545991e-05,0.71245294327076514
-3.8083293768545989e-05,-2.7610963375861841
-3.8073293768545995e-05,0.77208469058164164
-3.8063293768545993e-05,-2.7387344323462122
-3.8053293768545991e-05,0.65282119595988863
-3.804329376854599e-05,-2.5672931588260863
-3.8033293768545995e-05,0.41429420671502681
-3.8023293768545993e-05,-2.3026772801354278
-3.8013293768545992e-05,0.10495451754121075
-3.800329376854599e-05,-1.9896106067533263
-3.7993293768545995e-05,-0.18947723480706058
-3.7983293768545994e-05,-1.6765439333712249
-3.7973293768545992e-05,-0.53235978184378185
-3.796329376854599e-05,-1.3858391652307018
-3.7953293768545996e-05,-0.83051851839841695
-3.7943293768545994e-05,-1.0839534444693895
-3.7933293768545992e-05,-1.1137693181248278
-3.7923293768545991e-05,-0.80815661315658571
-3.7913293768545989e-05,-1.3597502757818476
-3.7903293768545994e-05,-0.59944549756851795
-3.7893293768545993e-05,-1.5572804387494719
-3.7883293768545991e-05,-0.44663914508439689
-3.787329376854599e-05,-1.6765439333706114
-3.7863293768545995e-05,-0.32737565046325745
-3.7853293768545993e-05,-1.7361756806821014
-3.7843293768545992e-05,-0.2901058083933461
-3.783329376854599e-05,-1.7548106017167502
-3.7823293768545995e-05,-0.30128676101479646
-3.7813293768545994e-05,-1.7324486964751715
-3.7803293768545992e-05,-0.36464549253194173
-3.779329376854599e-05,-1.6877248859920142
-3.7783293768545996e-05,-0.41309628722260827
-3.7773293768545994e-05,-1.5945502808187697
-3.7763293768545992e-05,-0.51745184501606278
-3.7753293768545991e-05,-1.4827407546108762
-3.7743293768545989e-05,-0.64416930805200234
-3.7733293768545994e-05,-1.3634772599891232
-3.7723293768545993e-05,-0.78579470791500705
-3.7713293768545991e-05,-1.2367597969535107
-3.770329376854599e-05,-0.90878518674377962
-3.7693293768545995e-05,-1.1063153497108784
-3.7683293768545993e-05,-1.024321697158513
-3.7673293768545992e-05,-0.99823280771000455
-3.766329376854599e-05,-1.13240423915938
-3.7653293768545995e-05,-0.91996613936457572
-3.7643293768545994e-05,-1.2143978917119318
-3.7633293768545992e-05,-0.83424550260509422
-3.762329376854599e-05,-1.2777566232297382
-3.7613293768545996e-05,-0.78579470791523076
-3.7603293768545994e-05,-1.3187534495059658
-3.7593293768545992e-05,-0.75225185005263895
-3.7583293768545991e-05,-1.3299344021267552
-3.7573293768545989e-05,-0.76343280267368763
-3.7563293768545994e-05,-1.3336613863336848
-3.7553293768545993e-05,-0.7820677237080772
-3.7543293768545991e-05,-1.2963915442643872
-3.753329376854599e-05,-0.79324867632908702
-3.7523293768545995e-05,-1.2777566232295179
-3.7513293768545993e-05,-0.83797248681202396
-3.7503293768545991e-05,-1.2330328127465808
-3.749329376854599e-05,-0.89015026570917477
-3.7483293768545995e-05,-1.1845820180563598
-3.7473293768545993e-05,-0.92369312357140898
-3.7463293768545992e-05,-1.1324042391594766
-3.745329376854599e-05,-0.98705185508921522
-3.7443293768545995e-05,-1.0690455076416332
-3.7433293768545994e-05,-1.0056867761238641
-3.7423293768545992e-05,-1.0541375708139513
-3.7413293768545991e-05,-1.0466836024000916
-3.7403293768545989e-05,-0.99823280771004697
-3.7393293768545994e-05,-1.0914074128832492
-3.7383293768545993e-05,-0.98705185508921522
-3.7373293768545991e-05,-1.128677254952547
-3.7363293768545989e-05,-0.93114709198536671
-3.7353293768545995e-05,-1.1473121759870974
-3.7343293768545993e-05,-0.94232804460605779
-3.7333293768545991e-05,-1.1584931286079851
-3.732329376854599e-05,-0.93114709198536505
-3.7313293768545995e-05,-1.1435851917801694
-3.7303293768545993e-05,-0.91623915515754939
-3.7293293768545992e-05,-1.1473121759871958
-3.728329376854599e-05,-0.94232804460605779
-3.7273293768545995e-05,-1.1361312233663183
-3.7263293768545994e-05,-0.96468994984763656
-3.7253293768545992e-05,-1.1212232865386873
-3.7243293768545991e-05,-0.9684169340545663
-3.7233293768545989e-05,-1.1174963023316966
-3.7223293768545994e-05,-0.98332487088228548
-3.7213293768545993e-05,-1.0839534444693895
-3.7203293768545991e-05,-1.024321697158513
-3.7193293768545989e-05,-1.0615915392277973
-3.7183293768545995e-05,-1.0317756655723862
-3.7173293768545993e-05,-1.0317756655723727
-3.7163293768545991e-05,-1.0504105866070215
-3.715329376854599e-05,-1.0317756655723778
-3.7143293768545995e-05,-1.0429566181931569
-3.7133293768545993e-05,-1.0280486813654428
-3.7123293768545992e-05,-1.0690455076416705
-3.711329376854599e-05,-1.0168677287446535
-3.7103293768545995e-05,-1.0764994760555029
-3.7093293768545994e-05,-1.009413760330794
-3.7083293768545992e-05,-1.07649947605553
-3.7073293768545991e-05,-0.99450582350307482
-3.7063293768545989e-05,-1.0727724918485697
-3.7053293768545994e-05,-1.0056867761238641
-3.7043293768545993e-05,-1.07649947605553
-3.7033293768545991e-05,-0.97959788667535563
-3.7023293768545989e-05,-1.0578645550208523
-3.7013293768545994e-05,-0.99450582350307482
-3.7003293768545993e-05,-1.0653185234347406
-3.6993293768545991e-05,-1.0355026497793023
-3.698329376854599e-05,-1.0615915392277921
-3.6973293768545995e-05,-1.020594712951602
-3.6963293768545993e-05,-1.0504105866070215
-3.6953293768545992e-05,-1.0355026497793023
-3.694329376854599e-05,-1.0280486813654428
-3.6933293768545995e-05,-1.0243216971585147
-3.6923293768545994e-05,-1.0541375708139513
-3.6913293768545992e-05,-1.0355026497793023
-3.690329376854599e-05,-1.0355026497793023
-3.6893293768545996e-05,-1.0168677287446619
-3.6883293768545994e-05,-1.0280486813654428
-3.6873293768545992e-05,-1.0466836024000916
-3.6863293768545991e-05,-1.0317756655723727
-3.6853293768545989e-05,-1.0317756655723658
-3.6843293768545994e-05,-1.0168677287446535
-3.6833293768545993e-05,-1.0317756655723727
-3.6823293768545991e-05,-1.0205947129515833
-3.681329376854599e-05,-1.0429566181931451
-3.6803293768545995e-05,-1.005686776123881
-3.6793293768545993e-05,-1.0541375708139513
-3.6783293768545992e-05,-1.0168677287446535
-3.677329376854599e-05,-1.0317756655723727
-3.6763293768545995e-05,-1.0056867761238759
-3.6753293768545994e-05,-1.0280486813654428
-3.6743293768545992e-05,-1.0131407445377236
-3.673329376854599e-05,-1.042956618193162
-3.6723293768545996e-05,-1.005686776123881
-3.6713293768545994e-05,-1.042956618193162
-3.6703293768545992e-05,-1.0168677287446535
-3.6693293768545991e-05,-1.042956618193162
-3.6683293768545989e-05,-1.0168677287446568
-3.6673293768545994e-05,-1.024321697158513
-3.6663293768545993e-05,-1.0466836024000916
-3.6653293768545991e-05,-1.0317756655723727
-3.664329376854599e-05,-1.0392296339862321
-3.6633293768545995e-05,-1.0392296339862321
-3.6623293768545993e-05,-1.0355026497793023
-3.6613293768545992e-05,-1.0317756655723727
-3.660329376854599e-05,-1.0280486813654428
-3.6593293768545995e-05,-1.0280486813654428
-3.6583293768545994e-05,-1.0466836024000916
-3.6573293768545992e-05,-1.0205947129515833
-3.656329376854599e-05,-1.0317756655723727
-3.6553293768545996e-05,-1.128677254952503
-3.6543293768545994e-05,3.0082752147395109
-3.6533293768545992e-05,5.3376403440706239
-3.6523293768545991e-05,3.0902688672919654
-3.6513293768545989e-05,4.2679958766815291
-3.6503293768545994e-05,3.7238561824700289
-3.6493293768545993e-05,3.6269545930898541
-3.6483293768545991e-05,4.2568149240609872
-3.6473293768545989e-05,3.205805377707406
-3.6463293768545995e-05,4.5624276290286137
-3.6453293768545993e-05,2.9337355306009147
-3.6443293768545991e-05,4.763684776203438
-3.643329376854599e-05,2.766021241290042
-3.6423293768545995e-05,4.8941292234450131
-3.6413293768545993e-05,2.6579386992881107
-3.6403293768545992e-05,4.9612149391707163
-3.639329376854599e-05,2.6057609203910941
-3.6383293768545995e-05,4.9723958917904287
-3.6373293768545994e-05,2.6020339361841645
-3.6363293768545992e-05,4.9053101760667692
-3.6353293768545991e-05,2.7101164781851281
-3.6343293768545989e-05,4.7748657288233609
-3.6333293768545994e-05,2.8703767990831084
-3.6323293768545993e-05,4.5959704868915976
-3.6313293768545991e-05,3.0529990252226682
-3.6303293768545989e-05,4.4021673081307284
-3.6293293768545995e-05,3.2579831566043262
-3.6283293768545993e-05,4.1860022241293215
-3.6273293768545991e-05,3.4778752248126628
-3.626329376854599e-05,3.9847450769549626
-3.6253293768545995e-05,3.6530434825385134
-3.6243293768545993e-05,3.7760339613670455
-3.6233293768545992e-05,3.8505736455056407
-3.622329376854599e-05,3.5934117352274866
-3.6213293768545995e-05,4.0033799979895761
-3.6203293768545994e-05,3.4704212563988035
