Power_measurements/AES_csv/aes_act_1.csv

#Digilent WaveForms Oscilloscope Acquisition
#Device Name: Discovery2
#Serial Number: SN:210321A1A9F5
#Date Time: 2018-06-28 03:51:38.964
#Sample rate: 1e+08Hz
#Samples: 8192
#Trigger: Source: Channel 1 Type: Edge Condition: Rising Level: 2 V Hyst.: Auto HoldOff: 0 s
#Channel 2: Range: 1 V/div Offset: 0 V

Time (s),Channel 2 (V)
-4.069612244897959e-05,0.97334183775584981
-4.0686122448979589e-05,0.98079580616970941
-4.0676122448979587e-05,0.98079580616971451
-4.0666122448979592e-05,0.99197675879049363
-4.0656122448979591e-05,0.96216088513506048
-4.0646122448979589e-05,0.97706882196277967
-4.0636122448979587e-05,0.98079580616970941
-4.0626122448979593e-05,0.9957037429974217
-4.0616122448979591e-05,0.99570374299742848
-4.0606122448979589e-05,0.97334183775584981
-4.0596122448979588e-05,0.96588786934199033
-4.0586122448979586e-05,0.98079580616971618
-4.0576122448979591e-05,0.99570374299742848
-4.056612244897959e-05,1.0068846956182178
-4.0556122448979588e-05,0.97706882196277967
-4.0546122448979587e-05,0.98824977458356056
-4.0536122448979592e-05,0.96961485354892851
-4.052612244897959e-05,0.97706882196277967
-4.0516122448979589e-05,0.96961485354892007
-4.0506122448979587e-05,0.98452279037663071
-4.0496122448979592e-05,0.96588786934199877
-4.0486122448979591e-05,0.97706882196277967
-4.0476122448979589e-05,0.97706882196277967
-4.0466122448979587e-05,0.98452279037663915
-4.0456122448979593e-05,0.98079580616971107
-4.0446122448979591e-05,0.988249774583569
-4.0436122448979589e-05,0.99197675879049874
-4.0426122448979588e-05,0.98079580616970941
-4.0416122448979586e-05,0.99197675879049529
-4.0406122448979591e-05,0.98452279037663915
-4.039612244897959e-05,0.99197675879049874
-4.0386122448979588e-05,0.96961485354892007
-4.0376122448979586e-05,0.98824977458356733
-4.0366122448979592e-05,0.98452279037664081
-4.035612244897959e-05,0.98079580616970941
-4.0346122448979588e-05,0.97706882196277967
-4.0336122448979587e-05,0.97334183775584637
-4.0326122448979592e-05,0.96588786934199378
-4.031612244897959e-05,0.96216088513506048
-4.0306122448979589e-05,0.99197675879049874
-4.0296122448979587e-05,0.97334183775584981
-4.0286122448979592e-05,0.977068821962778
-4.0276122448979591e-05,0.98079580616970941
-4.0266122448979589e-05,0.98452279037663915
-4.0256122448979588e-05,0.96216088513506048
-4.0246122448979586e-05,0.9733418377558396
-4.0236122448979591e-05,0.95097993251427115
-4.022612244897959e-05,0.98079580616970941
-4.0216122448979588e-05,1.0068846956182178
-4.0206122448979586e-05,0.97334183775585326
-4.0196122448979592e-05,0.98079580616970941
-4.018612244897959e-05,0.988249774583569
-4.0176122448979588e-05,0.98079580616970941
-4.0166122448979587e-05,0.98824977458357244
-4.0156122448979592e-05,0.99570374299742503
-4.014612244897959e-05,0.988249774583569
-4.0136122448979589e-05,0.96961485354892007
-4.0126122448979587e-05,0.988249774583569
-4.0116122448979592e-05,0.96588786934200055
-4.0106122448979591e-05,0.99570374299742848
-4.0096122448979589e-05,0.98079580616970941
-4.0086122448979588e-05,0.96961485354892007
-4.0076122448979586e-05,0.99197675879049363
-4.0066122448979591e-05,0.98079580616970941
-4.005612244897959e-05,0.96961485354892007
-4.0046122448979588e-05,0.97706882196277967
-4.0036122448979586e-05,0.98452279037664425
-4.0026122448979592e-05,0.99570374299742848
-4.001612244897959e-05,0.99570374299742848
-4.0006122448979588e-05,0.96588786934199033
-3.9996122448979587e-05,0.96588786934199544
-3.9986122448979592e-05,0.97706882196277456
-3.997612244897959e-05,0.97706882196277967
-3.9966122448979589e-05,0.98079580616970941
-3.9956122448979587e-05,1.0031577114112882
-3.9946122448979592e-05,0.99570374299743192
-3.9936122448979591e-05,0.98079580616970941
-3.9926122448979589e-05,0.99570374299742848
-3.9916122448979588e-05,0.98079580616970941
-3.9906122448979593e-05,1.006884695618206
-3.9896122448979591e-05,0.96961485354892007
-3.9886122448979589e-05,0.98452279037663915
-3.9876122448979588e-05,0.96588786934199033
-3.9866122448979586e-05,0.96588786934199711
-3.9856122448979591e-05,0.98079580616970941
-3.984612244897959e-05,0.97334183775584981
-3.9836122448979588e-05,0.97706882196277967
-3.9826122448979587e-05,0.98452279037663071
-3.9816122448979592e-05,0.96588786934199877
-3.980612244897959e-05,0.96961485354892007
-3.9796122448979589e-05,0.99197675879049874
-3.9786122448979587e-05,0.98824977458355712
-3.9776122448979592e-05,0.96216088513507236
-3.9766122448979591e-05,0.98079580616970941
-3.9756122448979589e-05,0.99197675879049874
-3.9746122448979587e-05,0.96588786934199033
-3.9736122448979593e-05,0.97334183775584637
-3.9726122448979591e-05,0.97706882196277967
-3.9716122448979589e-05,0.97334183775584981
-3.9706122448979588e-05,0.96216088513506048
-3.9696122448979586e-05,0.96588786934199877
-3.9686122448979591e-05,0.98452279037663915
-3.967612244897959e-05,0.97334183775584981
-3.9666122448979588e-05,0.98452279037663915
-3.9656122448979587e-05,0.98452279037663915
-3.9646122448979592e-05,0.98452279037663915
-3.963612244897959e-05,0.97334183775584981
-3.9626122448979589e-05,0.988249774583569
-3.9616122448979587e-05,0.97334183775585326
-3.9606122448979592e-05,0.98079580616970596
-3.9596122448979591e-05,0.99197675879049874
-3.9586122448979589e-05,0.97706882196277967
-3.9576122448979587e-05,0.98452279037663915
-3.9566122448979593e-05,0.98452279037663915
-3.9556122448979591e-05,0.97706882196277967
-3.9546122448979589e-05,0.96588786934199033
-3.9536122448979588e-05,0.99197675879049874
-3.9526122448979586e-05,0.9957037429974217
-3.9516122448979591e-05,0.98079580616970941
-3.950612244897959e-05,0.96588786934199033
-3.9496122448979588e-05,0.988249774583569
-3.9486122448979587e-05,0.9807958061697043
-3.9476122448979592e-05,0.96961485354892518
-3.946612244897959e-05,0.96588786934199033
-3.9456122448979589e-05,0.97706882196277967
-3.9446122448979587e-05,0.97706882196278311
-3.9436122448979592e-05,0.9845227903766357
-3.9426122448979591e-05,0.97706882196277967
-3.9416122448979589e-05,0.98452279037663915
-3.9406122448979587e-05,0.98452279037663915
-3.9396122448979592e-05,0.99197675879049529
-3.9386122448979591e-05,0.96961485354892007
-3.9376122448979589e-05,0.988249774583569
-3.9366122448979588e-05,0.97334183775584981
-3.9356122448979586e-05,0.98452279037663404
-3.9346122448979591e-05,0.97334183775584981
-3.933612244897959e-05,0.97706882196277967
-3.9326122448979588e-05,0.96588786934199033
-3.9316122448979586e-05,0.98824977458356056
-3.9306122448979592e-05,0.96961485354892851
-3.929612244897959e-05,0.988249774583569
-3.9286122448979588e-05,0.98079580616970941
-3.9276122448979587e-05,0.96588786934199877
-3.9266122448979592e-05,0.98452279037663071
-3.925612244897959e-05,0.99197675879049874
-3.9246122448979589e-05,0.96588786934199033
-3.9236122448979587e-05,0.96588786934199033
-3.9226122448979592e-05,0.98079580616970263
-3.9216122448979591e-05,0.98079580616970941
-3.9206122448979589e-05,0.96961485354892007
-3.9196122448979588e-05,0.98452279037663915
-3.9186122448979586e-05,0.97706882196278133
-3.9176122448979591e-05,0.98079580616970941
-3.916612244897959e-05,0.97706882196277967
-3.9156122448979588e-05,0.97706882196277967
-3.9146122448979586e-05,0.98079580616971618
-3.9136122448979592e-05,0.99570374299742848
-3.912612244897959e-05,0.97706882196277967
-3.9116122448979588e-05,0.96588786934199033
-3.9106122448979587e-05,0.98452279037664425
-3.9096122448979592e-05,0.99570374299742337
-3.908612244897959e-05,0.97334183775584981
-3.9076122448979589e-05,0.95470691672120089
-3.9066122448979587e-05,0.97334183775584981
-3.9056122448979592e-05,0.98824977458356222
-3.9046122448979591e-05,0.97706882196277967
-3.9036122448979589e-05,0.98079580616970941
-3.9026122448979588e-05,0.96961485354892007
-3.9016122448979586e-05,0.98452279037663748
-3.9006122448979591e-05,0.98079580616970941
-3.899612244897959e-05,0.95843390092813074
-3.8986122448979588e-05,0.96216088513506048
-3.8976122448979586e-05,0.96961485354893029
-3.8966122448979592e-05,0.99197675879049874
-3.895612244897959e-05,0.97706882196277967
-3.8946122448979588e-05,0.98452279037663915
-3.8936122448979587e-05,0.96961485354891663
-3.8926122448979592e-05,0.96216088513506393
-3.891612244897959e-05,0.98079580616970941
-3.8906122448979589e-05,0.99943072720435833
-3.8896122448979587e-05,0.96961485354892007
-3.8886122448979592e-05,0.9807958061697043
-3.8876122448979591e-05,0.96588786934199033
-3.8866122448979589e-05,0.96216088513506048
-3.8856122448979587e-05,0.98079580616970941
-3.8846122448979593e-05,0.96961485354892518
-3.8836122448979591e-05,0.97334183775584981
-3.8826122448979589e-05,0.98079580616970941
-3.8816122448979588e-05,0.988249774583569
-3.8806122448979586e-05,0.9807958061697043
-3.8796122448979591e-05,0.96961485354892007
-3.878612244897959e-05,0.99197675879049874
-3.8776122448979588e-05,0.98452279037663915
-3.8766122448979587e-05,0.98452279037663915
-3.8756122448979592e-05,0.98452279037663915
-3.874612244897959e-05,1.0068846956182178
-3.8736122448979589e-05,0.98079580616970941
-3.8726122448979587e-05,0.977068821962778
-3.8716122448979592e-05,0.97334183775585148
-3.8706122448979591e-05,0.96961485354892007
-3.8696122448979589e-05,0.98079580616970941
-3.8686122448979587e-05,0.99197675879049874
-3.8676122448979593e-05,0.96961485354893029
-3.8666122448979591e-05,0.99943072720435833
-3.8656122448979589e-05,0.988249774583569
-3.8646122448979588e-05,0.98079580616970941
-3.8636122448979586e-05,0.97706882196278477
-3.8626122448979591e-05,0.988249774583569
-3.861612244897959e-05,0.99943072720435833
-3.8606122448979588e-05,0.98079580616970941
-3.8596122448979587e-05,0.97706882196277622
-3.8586122448979592e-05,0.96961485354892352
-3.857612244897959e-05,0.99197675879049874
-3.8566122448979589e-05,0.988249774583569
-3.8556122448979587e-05,0.99197675879049874
-3.8546122448979592e-05,0.99197675879049874
-3.8536122448979591e-05,0.98452279037663915
-3.8526122448979589e-05,0.98452279037663915
-3.8516122448979587e-05,0.99570374299742848
-3.8506122448979593e-05,0.99570374299742848
-3.8496122448979591e-05,0.97706882196277967
-3.8486122448979589e-05,0.97706882196277967
-3.8476122448979588e-05,0.988249774583569
-3.8466122448979586e-05,0.988249774583569
-3.8456122448979591e-05,0.988249774583569
-3.844612244897959e-05,0.98079580616970941
-3.8436122448979588e-05,0.98079580616970941
-3.8426122448979587e-05,0.98824977458357244
-3.8416122448979592e-05,0.99570374299742503
-3.840612244897959e-05,0.99197675879049874
-3.8396122448979589e-05,0.99570374299742848
-3.8386122448979587e-05,0.97706882196277456
-3.8376122448979592e-05,0.96588786934199544
-3.836612244897959e-05,0.98079580616970941
-3.8356122448979589e-05,0.97706882196277967
-3.8346122448979587e-05,0.98452279037663915
-3.8336122448979592e-05,0.98452279037663915
-3.8326122448979591e-05,0.99197675879049874
-3.8316122448979589e-05,0.97334183775584981
-3.8306122448979588e-05,0.98452279037663915
-3.8296122448979586e-05,0.98824977458357066
-3.8286122448979591e-05,0.99197675879049874
-3.827612244897959e-05,0.97334183775584981
-3.8266122448979588e-05,0.98452279037663915
-3.8256122448979586e-05,0.98079580616971285
-3.8246122448979592e-05,0.98824977458356555
-3.823612244897959e-05,0.96588786934199033
-3.8226122448979588e-05,0.96961485354892007
-3.8216122448979587e-05,0.9919767587904903
-3.8206122448979592e-05,0.97334183775585825
-3.819612244897959e-05,0.99570374299742848
-3.8186122448979589e-05,0.98079580616970941
-3.8176122448979587e-05,0.97334183775584981
-3.8166122448979592e-05,0.99570374299741826
-3.8156122448979591e-05,1.0031577114112882
-3.8146122448979589e-05,0.98079580616970941
-3.8136122448979588e-05,0.988249774583569
-3.8126122448979586e-05,0.97334183775585148
-3.8116122448979591e-05,0.97706882196277967
-3.810612244897959e-05,0.96588786934199033
-3.8096122448979588e-05,0.97706882196277967
-3.8086122448979586e-05,0.98452279037664081
-3.8076122448979592e-05,0.988249774583569
-3.806612244897959e-05,0.99197675879049874
-3.8056122448979588e-05,0.988249774583569
-3.8046122448979587e-05,0.97706882196277967
-3.8036122448979592e-05,0.97706882196277967
-3.802612244897959e-05,0.95470691672120089
-3.8016122448979589e-05,0.98452279037663915
-3.8006122448979587e-05,0.99570374299742848
-3.7996122448979592e-05,0.99570374299742848
-3.7986122448979591e-05,0.98079580616970941
-3.7976122448979589e-05,0.988249774583569
-3.7966122448979588e-05,0.98452279037663915
-3.7956122448979593e-05,0.98824977458356733
-3.7946122448979591e-05,0.96961485354892007
-3.793612244897959e-05,0.96216088513506048
-3.7926122448979588e-05,0.98079580616970941
-3.7916122448979586e-05,0.97334183775584981
-3.7906122448979592e-05,0.97334183775584981
-3.789612244897959e-05,0.98452279037663915
-3.7886122448979588e-05,0.98079580616970941
-3.7876122448979587e-05,0.98452279037664758
-3.7866122448979592e-05,1.0031577114112797
-3.785612244897959e-05,0.98079580616970941
-3.7846122448979589e-05,0.98452279037663915
-3.7836122448979587e-05,0.96216088513506048
-3.7826122448979592e-05,0.98452279037662893
-3.7816122448979591e-05,0.96588786934199033
-3.7806122448979589e-05,0.98452279037663915
-3.7796122448979587e-05,0.96961485354892007
-3.7786122448979593e-05,0.97706882196277622
-3.7776122448979591e-05,1.0031577114112882
-3.7766122448979589e-05,0.988249774583569
-3.7756122448979588e-05,0.988249774583569
-3.7746122448979586e-05,0.99570374299741826
-3.7736122448979591e-05,0.97334183775584981
-3.772612244897959e-05,0.98079580616970941
-3.7716122448979588e-05,0.97334183775584981
-3.7706122448979587e-05,0.98452279037663404
-3.7696122448979592e-05,0.97334183775585492
-3.768612244897959e-05,0.98452279037663915
-3.7676122448979589e-05,0.988249774583569
-3.7666122448979587e-05,0.97334183775585492
-3.7656122448979592e-05,0.98452279037663404
-3.7646122448979591e-05,0.97334183775584981
-3.7636122448979589e-05,0.988249774583569
-3.7626122448979587e-05,0.99197675879049874
-3.7616122448979593e-05,0.99570374299742681
-3.7606122448979591e-05,0.96216088513506048
-3.7596122448979589e-05,0.99570374299742848
-3.7586122448979588e-05,0.98079580616970941
-3.7576122448979586e-05,0.99943072720435489
-3.7566122448979591e-05,0.99197675879049874
-3.755612244897959e-05,0.99943072720435833
-3.7546122448979588e-05,0.96961485354892007
-3.7536122448979587e-05,0.98824977458356555
-3.7526122448979592e-05,0.98079580616971285
-3.751612244897959e-05,0.98452279037663915
-3.7506122448979589e-05,0.98452279037663915
-3.7496122448979587e-05,0.99943072720435322
-3.7486122448979592e-05,0.9882497745835741
-3.7476122448979591e-05,0.98452279037663915
-3.7466122448979589e-05,0.97334183775584981
-3.7456122448979587e-05,0.98079580616970941
-3.7446122448979593e-05,0.97706882196278133
-3.7436122448979591e-05,0.96588786934199033
-3.7426122448979589e-05,0.99943072720435833
-3.7416122448979588e-05,0.99943072720435833
-3.7406122448979586e-05,0.97334183775585825
-3.7396122448979591e-05,0.99197675879049874
-3.738612244897959e-05,0.98452279037663915
-3.7376122448979588e-05,0.97334183775584981
-3.7366122448979587e-05,0.98452279037664425
-3.7356122448979592e-05,0.99570374299742337
-3.734612244897959e-05,0.98079580616970941
-3.7336122448979588e-05,0.988249774583569
-3.7326122448979587e-05,0.99197675879049363
-3.7316122448979592e-05,0.98079580616971451
-3.730612244897959e-05,0.97334183775584981
-3.7296122448979589e-05,0.98452279037663915
-3.7286122448979587e-05,0.98452279037663915
-3.7276122448979592e-05,0.98452279037663915
-3.7266122448979591e-05,0.97334183775584981
-3.7256122448979589e-05,0.99570374299742848
-3.7246122448979588e-05,0.99197675879049874
-3.7236122448979586e-05,0.97334183775584637
-3.7226122448979591e-05,0.96588786934199033
-3.721612244897959e-05,0.99197675879049874
-3.7206122448979588e-05,0.988249774583569
-3.7196122448979586e-05,0.98824977458356389
-3.7186122448979592e-05,0.97706882196278477
-3.717612244897959e-05,1.0031577114112882
-3.7166122448979588e-05,0.96961485354892007
-3.7156122448979587e-05,0.98824977458355712
-3.7146122448979592e-05,0.96216088513507236
-3.713612244897959e-05,0.98079580616970941
-3.7126122448979589e-05,0.97334183775584981
-3.7116122448979587e-05,0.99197675879049874
-3.7106122448979592e-05,0.97334183775585825
-3.7096122448979591e-05,0.99197675879049874
-3.7086122448979589e-05,0.97706882196277967
-3.7076122448979588e-05,0.96961485354892007
-3.7066122448979586e-05,0.98079580616971618
-3.7056122448979591e-05,0.99570374299742848
-3.704612244897959e-05,0.97334183775584981
-3.7036122448979588e-05,0.99197675879049874
-3.7026122448979586e-05,0.98079580616971107
-3.7016122448979592e-05,0.98452279037663915
-3.700612244897959e-05,0.98079580616970941
-3.6996122448979588e-05,0.97334183775584981
-3.6986122448979587e-05,0.95843390092814429
-3.6976122448979592e-05,0.98824977458355545
-3.696612244897959e-05,0.98079580616970941
-3.6956122448979589e-05,0.96961485354892007
-3.6946122448979587e-05,0.97706882196277967
-3.6936122448979592e-05,0.99197675879049196
-3.6926122448979591e-05,0.96961485354892007
-3.6916122448979589e-05,0.988249774583569
-3.6906122448979588e-05,0.988249774583569
-3.6896122448979593e-05,0.99570374299742503
-3.6886122448979591e-05,0.97334183775584981
-3.687612244897959e-05,0.988249774583569
-3.6866122448979588e-05,0.98079580616970941
-3.6856122448979586e-05,0.96961485354892518
-3.6846122448979591e-05,0.98079580616970941
-3.683612244897959e-05,0.97334183775584981
-3.6826122448979588e-05,0.98079580616970941
-3.6816122448979587e-05,0.98452279037663748
-3.6806122448979592e-05,0.98079580616971107
-3.679612244897959e-05,0.97334183775584981
-3.6786122448979589e-05,0.96588786934199033
-3.6776122448979587e-05,0.988249774583569
-3.6766122448979592e-05,0.97706882196278477
-3.6756122448979591e-05,0.97334183775584981
-3.6746122448979589e-05,0.99197675879049874
-3.6736122448979587e-05,0.98079580616970941
-3.6726122448979593e-05,0.99197675879049363
-3.6716122448979591e-05,0.97706882196277967
-3.6706122448979589e-05,0.97334183775584981
-3.6696122448979588e-05,0.98079580616970941
-3.6686122448979586e-05,0.98824977458356222
-3.6676122448979591e-05,0.97334183775584981
-3.666612244897959e-05,0.97334183775584981
-3.6656122448979588e-05,0.97706882196277967
-3.6646122448979587e-05,0.97706882196278311
-3.6636122448979592e-05,0.9845227903766357
-3.662612244897959e-05,0.97706882196277967
-3.6616122448979589e-05,0.97334183775584981
-3.6606122448979587e-05,0.96961485354892851
-3.6596122448979592e-05,0.98824977458356056
-3.6586122448979591e-05,0.96961485354892007
-3.6576122448979589e-05,0.96961485354892007
-3.6566122448979587e-05,0.96588786934199033
-3.6556122448979593e-05,0.98452279037663071
-3.6546122448979591e-05,0.99197675879049874
-3.6536122448979589e-05,0.96961485354892007
-3.6526122448979588e-05,0.98079580616970941
-3.6516122448979586e-05,0.97706882196278311
-3.6506122448979591e-05,0.98452279037663915
-3.649612244897959e-05,0.98452279037663915
-3.6486122448979588e-05,0.99197675879049874
-3.6476122448979587e-05,0.98452279037663748
-3.6466122448979592e-05,0.98079580616971107
-3.645612244897959e-05,0.96961485354892007
-3.6446122448979589e-05,0.98079580616970941
-3.6436122448979587e-05,0.97334183775585148
-3.6426122448979592e-05,0.977068821962778
-3.6416122448979591e-05,0.99197675879049874
-3.6406122448979589e-05,0.97334183775584981
-3.6396122448979587e-05,0.96961485354892007
-3.6386122448979593e-05,0.96216088513506393
-3.6376122448979591e-05,0.99943072720435833
-3.6366122448979589e-05,0.988249774583569
-3.6356122448979588e-05,0.96961485354892007
-3.6346122448979586e-05,0.97334183775585326
-3.6336122448979591e-05,0.98079580616970941
-3.632612244897959e-05,0.98452279037663915
-3.6316122448979588e-05,0.988249774583569
-3.6306122448979586e-05,0.97334183775585148
-3.6296122448979592e-05,0.977068821962778
-3.628612244897959e-05,0.99197675879049874
-3.6276122448979588e-05,0.97334183775584981
-3.6266122448979587e-05,0.97334183775584981
-3.6256122448979592e-05,0.97334183775584981
-3.624612244897959e-05,0.98079580616970941
-3.6236122448979589e-05,0.96961485354892007
-3.6226122448979587e-05,0.988249774583569
-3.6216122448979592e-05,0.97334183775585659
-3.6206122448979591e-05,0.96961485354892007
