Power_measurements/AES_csv/aes_active_l3_8.csv

#Digilent WaveForms Oscilloscope Acquisition
#Device Name: Discovery2
#Serial Number: SN:210321A1A9F5
#Date Time: 2018-06-28 02:53:51.306
#Sample rate: 1e+08Hz
#Samples: 8192
#Trigger: Source: Channel 1 Type: Edge Condition: Rising Level: 2 V Hyst.: Auto HoldOff: 0 s
#Channel 2: Range: 1 V/div Offset: 0 V

Time (s),Channel 2 (V)
-4.0693050000000002e-05,-1.0280486813654428
-4.068305e-05,-1.0168677287446535
-4.0673049999999998e-05,-1.0168677287446484
-4.0663050000000004e-05,-1.0056867761238693
-4.0653050000000002e-05,-1.0205947129515833
-4.064305e-05,-1.0168677287446535
-4.0633049999999999e-05,-1.0168677287446535
-4.0623050000000004e-05,-1.0168677287446535
-4.0613050000000002e-05,-1.0727724918486001
-4.0603050000000001e-05,1.4727577214844405
-4.0593049999999999e-05,6.3849229062178932
-4.0583049999999998e-05,2.1734307523886121
-4.0573050000000003e-05,5.1922879600003631
-4.0563050000000001e-05,2.7362053676336364
-4.055305e-05,4.6183323921331763
-4.0543049999999998e-05,3.272891093431944
-4.0533050000000003e-05,4.1934561925427634
-4.0523050000000002e-05,3.6791323719868716
-4.051305e-05,3.8244847560571325
-4.0503049999999998e-05,4.0033799979895353
-4.0493050000000004e-05,3.503964114261398
-4.0483050000000002e-05,4.305265718751075
-4.047305e-05,3.2169863303275781
-4.0463049999999999e-05,4.5773355658569486
-4.0453050000000004e-05,2.967278388464015
-4.0443050000000002e-05,4.7226879499272103
-4.0433050000000001e-05,2.8219260043930214
-4.0423049999999999e-05,4.8270435077212444
-4.0413049999999998e-05,2.7548402886692211
-4.0403050000000003e-05,4.8121355708935249
-4.0393050000000001e-05,2.7772021939098641
-4.038305e-05,4.7413228709618593
-4.0373049999999998e-05,2.859195846463138
-4.0363050000000003e-05,4.659329218408585
-4.0353050000000002e-05,2.9784593410840721
-4.034305e-05,4.5288847711668616
-4.0333049999999998e-05,3.1051768041202528
-4.0323050000000004e-05,4.3537165134405944
-4.0313050000000002e-05,3.2468022039830169
-4.030305e-05,4.1934561925431817
-4.0293049999999999e-05,3.4406053827433656
-4.0283050000000004e-05,4.0033799979895068
-4.0273050000000002e-05,3.6008657036413458
-4.0263050000000001e-05,3.8282117402640621
-4.0253049999999999e-05,3.7573990403323965
-4.0243049999999997e-05,3.6716784035731282
-4.0233050000000003e-05,3.9288403138511665
-4.0223050000000001e-05,3.5710498299859079
-4.0213049999999999e-05,4.0145609506105515
-4.0203049999999998e-05,3.4704212563990797
-4.0193050000000003e-05,4.0779196821283579
-4.0183050000000001e-05,3.2244402987414382
-4.017305e-05,-1.8479852068899947
-4.0163049999999998e-05,-0.25283596632477195
-4.0153050000000003e-05,-1.8442582226823414
-4.0143050000000002e-05,0.041595786023404469
-4.013305e-05,-2.2281375959968326
-4.0123049999999999e-05,0.42547515933717195
-4.0113050000000004e-05,-2.567293158826081
-4.0103050000000002e-05,0.65282119595988863
-4.0093050000000001e-05,-2.6716487166214762
-4.0083049999999999e-05,0.6751831012014673
-4.0073049999999997e-05,-2.6492868113784316
-4.0063050000000003e-05,0.57455452761436321
-4.0053050000000001e-05,-2.5113883957234959
-4.0043049999999999e-05,0.44038309616489107
-4.0033049999999998e-05,-2.3287661695827784
-4.0023050000000003e-05,0.21676404374910418
-4.0013050000000001e-05,-2.1088741013750791
-4.000305e-05,-0.02921691390826138
-3.9993049999999998e-05,-1.8405312384754386
-3.9983050000000003e-05,-0.30874072942869168
-3.9973050000000002e-05,-1.5647344071633313
-3.996305e-05,-0.60689946598237754
-3.9953049999999999e-05,-1.2777566232297382
-3.9943050000000004e-05,-0.90505820253692959
-3.9933050000000002e-05,-0.98332487088228548
-3.9923050000000001e-05,-1.162220112814915
-3.9913049999999999e-05,-0.75225185005263895
-3.9903050000000004e-05,-1.3746582126096296
-3.9893050000000003e-05,-0.58453756074079877
-3.9883050000000001e-05,-1.5162836124732442
-3.9873049999999999e-05,-0.47272803453290535
-3.9863049999999998e-05,-1.6243661544736401
-3.9853050000000003e-05,-0.37582644515273106
-3.9843050000000001e-05,-1.6653629807504355
-3.983305e-05,-0.34601057149729281
-3.9823049999999998e-05,-1.687724885991404
-3.9813050000000003e-05,-0.34601057149790293
-3.9803050000000002e-05,-1.6616359965435057
-3.979305e-05,-0.40191533460123952
-3.9783049999999999e-05,-1.5870963124044066
-3.9773050000000004e-05,-0.48018200294726832
-3.9763050000000002e-05,-1.5051026598524548
-3.975305e-05,-0.59571851336158821
-3.9743049999999999e-05,-1.3932931336445613
-3.9733050000000004e-05,-0.72243597639750579
-3.9723050000000002e-05,-1.2777566232297382
-3.9713050000000001e-05,-0.82679153419123463
-3.9703049999999999e-05,-1.162220112814915
-3.9693049999999998e-05,-0.94605502881303338
-3.9683050000000003e-05,-1.0466836024000916
-3.9673050000000001e-05,-1.0541375708139513
-3.966305e-05,-0.97214391826149615
-3.9653049999999998e-05,-1.1324042391593614
-3.9643050000000003e-05,-0.87896931308836679
-3.9633050000000002e-05,-1.2069439232980723
-3.962305e-05,-0.81933756577737504
-3.9613049999999998e-05,-1.2703026548156617
-3.9603050000000004e-05,-0.79324867632908358
-3.9593050000000002e-05,-1.2852105916435976
-3.958305e-05,-0.76715978688035813
-3.9573049999999999e-05,-1.3112994810921061
-3.9563050000000004e-05,-0.77461375529446175
-3.9553050000000002e-05,-1.2926645600574573
-3.9543050000000001e-05,-0.78952169212193679
-3.9533049999999999e-05,-1.2777566232297382
-3.9523049999999998e-05,-0.81933756577756311
-3.9513050000000003e-05,-1.2330328127465808
-3.9503050000000001e-05,-0.83797248681202396
-3.949305e-05,-1.1808550338495638
-3.9483049999999998e-05,-0.90133121832993701
-3.9473050000000003e-05,-1.1361312233662997
-3.9463050000000002e-05,-0.91996613936447913
-3.945305e-05,-1.0988613812971086
-3.9443049999999998e-05,-0.96841693405460527
-3.9433050000000004e-05,-1.0541375708139122
-3.9423050000000002e-05,-1.0131407445377236
-3.941305e-05,-1.009413760330794
-3.9403049999999999e-05,-1.0504105866070215
-3.9393050000000004e-05,-0.99823280771002831
-3.9383050000000002e-05,-1.0802264602624598
-3.9373050000000001e-05,-0.97214391826149615
-3.9363049999999999e-05,-1.1137693181248278
-3.9353049999999998e-05,-0.95350899722693028
-3.9343050000000003e-05,-1.1361312233664065
-3.9333050000000001e-05,-0.93487407619219831
-3.932305e-05,-1.1174963023317577
-3.9313049999999998e-05,-0.95350899722693028
-3.9303050000000003e-05,-1.1361312233663234
-3.9293050000000002e-05,-0.93487407619219831
-3.928305e-05,-1.1137693181248278
-3.9273049999999998e-05,-0.94978201301999021
-3.9263050000000003e-05,-1.1100423339178251
-3.9253050000000002e-05,-0.94978201301991738
-3.924305e-05,-1.0914074128832492
-3.9233049999999999e-05,-0.97587090246842589
-3.9223050000000004e-05,-1.0802264602624123
-3.9213050000000002e-05,-0.98332487088228548
-3.9203050000000001e-05,-1.0615915392278108
-3.9193049999999999e-05,-0.99450582350307482
-3.9183049999999997e-05,-1.0355026497793005
-3.9173050000000003e-05,-1.0317756655723727
-3.9163050000000001e-05,-1.0168677287446535
-3.9153049999999999e-05,-1.0392296339862321
-3.9143049999999998e-05,-1.0168677287446619
-3.9133050000000003e-05,-1.0355026497793023
-3.9123050000000001e-05,-1.0131407445377236
-3.911305e-05,-1.0578645550208812
-3.9103049999999998e-05,-1.0094137603308178
-3.9093050000000003e-05,-1.061591539227787
-3.9083050000000002e-05,-0.98705185508921522
-3.907305e-05,-1.0727724918486001
-3.9063049999999999e-05,-1.0019597919169343
-3.9053050000000004e-05,-1.0578645550208559
-3.9043050000000002e-05,-1.009413760330794
-3.9033050000000001e-05,-1.0653185234347406
-3.9023049999999999e-05,-0.98705185508921522
-3.9013049999999997e-05,-1.0578645550208592
-3.9003050000000003e-05,-1.009413760330794
-3.8993050000000001e-05,-1.0615915392278108
-3.8983049999999999e-05,-1.0056867761238641
-3.8973049999999998e-05,-1.0317756655723591
-3.8963050000000003e-05,-1.0019597919169343
-3.8953050000000001e-05,-1.042956618193162
-3.894305e-05,-1.0168677287446535
-3.8933049999999998e-05,-1.0355026497792921
-3.8923050000000003e-05,-1.0131407445377338
-3.8913050000000002e-05,-1.0205947129515833
-3.890305e-05,-1.0317756655723727
-3.8893049999999999e-05,-1.0355026497793023
-3.8883050000000004e-05,-1.0355026497793023
-3.8873050000000002e-05,-1.024321697158513
-3.8863050000000001e-05,-1.042956618193162
-3.8853049999999999e-05,-1.0205947129515833
-3.8843050000000004e-05,-1.0466836024000798
-3.8833050000000003e-05,-1.0205947129515833
-3.8823050000000001e-05,-1.0317756655723727
-3.8813049999999999e-05,-1.0205947129515833
-3.8803049999999998e-05,-1.0392296339862219
-3.8793050000000003e-05,-1.0168677287446535
-3.8783050000000001e-05,-1.0355026497793023
-3.877305e-05,-1.0131407445377236
-3.8763049999999998e-05,-1.0429566181931451
-3.8753050000000003e-05,-1.005686776123881
-3.8743050000000002e-05,-1.0578645550208812
-3.873305e-05,-1.0168677287446535
-3.8723049999999998e-05,-1.0466836024000814
-3.8713050000000004e-05,-1.0243216971585232
-3.8703050000000002e-05,-1.0317756655723727
-3.869305e-05,-1.0168677287446535
-3.8683049999999999e-05,-1.0466836024000916
-3.8673050000000004e-05,-1.0392296339862355
-3.8663050000000002e-05,-1.0355026497793023
-3.8653050000000001e-05,-1.0131407445377236
-3.8643049999999999e-05,-1.0168677287446535
-3.8633049999999998e-05,-1.0280486813654395
-3.8623050000000003e-05,-1.0205947129515833
-3.8613050000000001e-05,-1.0317756655723727
-3.860305e-05,-1.0317756655723727
-3.8593049999999998e-05,-1.0056867761239132
-3.8583050000000003e-05,-1.1137693181247788
-3.8573050000000002e-05,2.6765736203227597
-3.856305e-05,5.5724403491072003
-3.8553049999999998e-05,2.8741037832907583
-3.8543050000000004e-05,4.4580720712344757
-3.8533050000000002e-05,3.5225990352958201
-3.852305e-05,3.8393926928848519
-3.8513049999999999e-05,4.0592847610937088
-3.8503050000000004e-05,3.3921545880535811
-3.8493050000000002e-05,4.409621276545109
-3.8483050000000001e-05,3.0977228357058255
-3.8473049999999999e-05,4.6444212815816845
-3.8463049999999998e-05,2.8778307674978514
-3.8453050000000003e-05,4.8195895393073842
-3.8443050000000001e-05,2.7473863202544262
-3.843305e-05,4.916491128687559
-3.8423049999999998e-05,2.6430307624614482
-3.8413050000000003e-05,4.9649419233765899
-3.8403050000000002e-05,2.6169418730118839
-3.839305e-05,4.9127641444806294
-3.8383049999999998e-05,2.6989355255653114
-3.8373050000000004e-05,4.8382244603410598
-3.8363050000000002e-05,2.8107450517722326
-3.835305e-05,4.6593292184094039
-3.8343049999999999e-05,2.9859133094979322
-3.8333050000000004e-05,4.4767069922691674
-3.8323050000000002e-05,3.1908974408790698
-3.8313050000000001e-05,4.2679958766817769
-3.8303049999999999e-05,3.3548847459839806
-3.8293049999999998e-05,4.0555577768865607
-3.8283050000000003e-05,3.5747768141928375
-3.8273050000000001e-05,3.8729355507472203
-3.826305e-05,3.7611260245393261
-3.8253049999999998e-05,3.6940403088146918
-3.8243050000000003e-05,3.9176593612302759
-3.8233050000000001e-05,3.5263260195027506
-3.822305e-05,4.0294688874382709
-3.8213049999999998e-05,3.3958815722605404
-3.8203050000000003e-05,4.1263704768181126
-3.8193050000000002e-05,3.3362498249493315
-3.818305e-05,4.1636403188877429
-3.8173049999999999e-05,3.2915260144661742
-3.8163050000000004e-05,4.1785482557150591
-3.8153050000000002e-05,3.0082752147395109
-3.8143050000000001e-05,-2.4443026799987599
-3.8133049999999999e-05,0.36584341202629544
-3.8123049999999997e-05,-2.3809439484796484
-3.8113050000000003e-05,0.48883389085497825
-3.8103050000000001e-05,-2.6082899851036698
-3.8093049999999999e-05,0.71990691168462473
-3.8083049999999998e-05,-2.7760042744138813
-3.8073050000000003e-05,0.80562754844400963
-3.8063050000000001e-05,-2.7983661796570889
-3.805305e-05,0.74599580113313313
-3.8043049999999998e-05,-2.6567407797922966
-3.8033050000000003e-05,0.55591960657825323
-3.8023050000000002e-05,-2.4405756957918303
-3.801305e-05,0.29130372788769981
-3.8003049999999999e-05,-2.1610518802720966
-3.7993050000000004e-05,-0.01430897708151857
-3.7983050000000002e-05,-1.8442582226830651
-3.7973050000000001e-05,-0.34228358729036301
-3.7963049999999999e-05,-1.5498264703356122
-3.7953050000000004e-05,-0.64789629225901524
-3.7943050000000003e-05,-1.2367597969535107
-3.7933050000000001e-05,-0.95350899722684723
-3.7923049999999999e-05,-0.94605502881298764
-3.7913049999999998e-05,-1.2330328127463386
-3.7903050000000003e-05,-0.70007407115562204
-3.7893050000000001e-05,-1.4454709125415783
-3.788305e-05,-0.50999787660220319
-3.7873049999999998e-05,-1.5833693281974262
-3.7863050000000003e-05,-0.36464549253249601
-3.7853050000000002e-05,-1.706359807026663
-3.784305e-05,-0.30874072942799502
-3.7833049999999999e-05,-1.7548106017167502
-3.7823050000000004e-05,-0.29755977680786816
-3.7813050000000002e-05,-1.7510836175098203
-3.7803050000000001e-05,-0.31246771363492476
-3.7793049999999999e-05,-1.7138137754405227
-3.7783050000000004e-05,-0.35346453991177085
-3.7773050000000003e-05,-1.6467280597157865
-3.7763050000000001e-05,-0.45409311349825648
-3.7753049999999999e-05,-1.5386455177148228
-3.7743049999999998e-05,-0.5808105765342555
-3.7733050000000003e-05,-1.4305629757138592
-3.7723050000000001e-05,-0.71498200798334122
-3.771305e-05,-1.2926645600574573
-3.7703049999999998e-05,-0.82306454998445733
-3.7693050000000003e-05,-1.1584931286078326
-3.7683050000000002e-05,-0.96096296564070671
-3.767305e-05,-1.0466836024000916
-3.7663049999999998e-05,-1.0876804286762531
-3.7653050000000004e-05,-0.94232804460612385
-3.7643050000000002e-05,-1.1734010654357043
-3.763305e-05,-0.86778836046746222
-3.7623049999999999e-05,-1.2442137653673702
-3.7613050000000004e-05,-0.808156613156784
-3.7603050000000002e-05,-1.3075724968851765
-3.7593050000000001e-05,-0.75970581846649854
-3.7583049999999999e-05,-1.3262074179198253
-3.7573049999999998e-05,-0.72988994481134162
-3.7563050000000003e-05,-1.348569323161404
-3.7553050000000001e-05,-0.74852486584570921
-3.754305e-05,-1.3262074179198253
-3.7533049999999998e-05,-0.77461375529445664
-3.7523050000000003e-05,-1.3001185284710779
-3.7513050000000002e-05,-0.80442962894965597
-3.750305e-05,-1.2479407495743
-3.7493049999999998e-05,-0.83797248681218495
-3.7483050000000004e-05,-1.1920359864701922
-3.7473050000000002e-05,-0.89760423412290047
-3.746305e-05,-1.1473121759871958
-3.7453049999999999e-05,-0.94978201301991738
-3.7443050000000004e-05,-1.1174963023316815
-3.7433050000000002e-05,-0.98332487088228548
-3.7423050000000001e-05,-1.0653185234347406
-3.7413049999999999e-05,-1.042956618193162
-3.7403049999999998e-05,-1.0131407445377507
-3.7393050000000003e-05,-1.0727724918486001
-3.7383050000000001e-05,-0.99077883929614496
-3.737305e-05,-1.1025883655040385
-3.7363049999999998e-05,-0.9572359814338498
-3.7353050000000003e-05,-1.1174963023316848
-3.7343050000000002e-05,-0.93487407619219831
-3.733305e-05,-1.143585191780266
-3.7323049999999998e-05,-0.9348740761922848
-3.7313050000000004e-05,-1.1249502707455308
-3.7303050000000002e-05,-0.93487407619219831
-3.729305e-05,-1.1361312233664065
-3.7283049999999999e-05,-0.93860106039912805
-3.7273050000000004e-05,-1.1398582075732449
-3.7263050000000002e-05,-0.95723598143377697
-3.7253050000000001e-05,-1.1212232865386873
-3.7243049999999999e-05,-0.96468994984763656
-3.7233049999999998e-05,-1.098861381297056
-3.7223050000000003e-05,-0.98332487088228548
-3.7213050000000001e-05,-1.1025883655040385
-3.7203049999999999e-05,-0.99077883929614496
-3.7193049999999998e-05,-1.0727724918485764
-3.7183050000000003e-05,-1.0205947129516071
-3.7173050000000001e-05,-1.0653185234347406
-3.716305e-05,-1.0355026497793023
-3.7153049999999998e-05,-1.0355026497793074
-3.7143050000000003e-05,-1.0466836024000865
-3.7133050000000002e-05,-1.0168677287446535
-3.712305e-05,-1.0466836024000916
-3.7113049999999999e-05,-1.0168677287446535
-3.7103050000000004e-05,-1.083953444469359
-3.7093050000000002e-05,-1.0205947129515833
-3.7083050000000001e-05,-1.0727724918486001
-3.7073049999999999e-05,-1.0168677287446535
-3.7063049999999997e-05,-1.0839534444693555
-3.7053050000000003e-05,-1.009413760330794
-3.7043050000000001e-05,-1.0951343970901788
-3.7033049999999999e-05,-1.0019597919169343
-3.7023049999999998e-05,-1.076499476055486
-3.7013050000000003e-05,-0.97959788667535563
-3.7003050000000001e-05,-1.07649947605553
-3.699305e-05,-1.0019597919169343
-3.6983049999999998e-05,-1.050410586607001
-3.6973050000000003e-05,-1.0056867761238846
-3.6963050000000002e-05,-1.0690455076416705
-3.695305e-05,-1.0355026497793023
-3.6943049999999999e-05,-1.0653185234347406
-3.6933050000000004e-05,-1.0168677287446755
-3.6923050000000002e-05,-1.0653185234347406
-3.6913050000000001e-05,-1.042956618193162
-3.6903049999999999e-05,-1.0355026497793023
-3.6893050000000004e-05,-1.0429566181931587
-3.6883050000000003e-05,-1.0317756655723727
-3.6873050000000001e-05,-1.0466836024000916
-3.6863049999999999e-05,-1.0317756655723727
-3.6853049999999998e-05,-1.054137570813936
-3.6843050000000003e-05,-1.0205947129515833
-3.6833050000000001e-05,-1.0615915392278108
-3.682305e-05,-1.024321697158513
-3.6813049999999998e-05,-1.0578645550208607
-3.6803050000000003e-05,-1.0131407445377441
-3.6793050000000002e-05,-1.0727724918486001
-3.678305e-05,-1.0019597919169343
-3.6773049999999999e-05,-1.07649947605553
-3.6763050000000004e-05,-1.0317756655723931
-3.6753050000000002e-05,-1.0653185234347406
-3.6743050000000001e-05,-1.0355026497793023
-3.6733049999999999e-05,-1.0504105866070215
-3.6723050000000004e-05,-1.028048681365453
-3.6713050000000002e-05,-1.0504105866070215
-3.6703050000000001e-05,-1.009413760330794
-3.6693049999999999e-05,-1.0504105866070215
-3.6683049999999998e-05,-1.0355026497793005
-3.6673050000000003e-05,-1.0317756655723727
-3.6663050000000001e-05,-1.0205947129515833
-3.665305e-05,-1.0317756655723727
-3.6643049999999998e-05,-1.0355026497792954
-3.6633050000000003e-05,-1.0205947129515902
-3.6623050000000002e-05,-1.042956618193162
-3.661305e-05,-1.0168677287446535
-3.6603049999999998e-05,-1.0355026497793005
-3.6593050000000004e-05,-1.0317756655723744
-3.6583050000000002e-05,-1.0392296339862321
-3.657305e-05,-1.0131407445377236
-3.6563049999999999e-05,-1.0504105866070215
-3.6553050000000004e-05,-1.0914074128832305
-3.6543050000000002e-05,4.2120911135778298
-3.6533050000000001e-05,4.2791768293025658
-3.6523049999999999e-05,3.9586561875066044
-3.6513049999999998e-05,3.4182434775022803
-3.6503050000000003e-05,4.5027958817183533
-3.6493050000000001e-05,2.9151006095662657
-3.648305e-05,4.89785620765291
-3.6473049999999998e-05,2.5871259993575872
-3.6463050000000003e-05,5.0991133548259757
-3.6453050000000002e-05,2.4864974257693415
-3.644305e-05,5.1401101811033456
-3.6433049999999998e-05,2.4753164731497468
-3.6423050000000004e-05,5.1028403390328521
-3.6413050000000002e-05,2.4902244099762711
-3.640305e-05,5.050662560137031
-3.6393049999999999e-05,2.5610371099079368
-3.6383050000000004e-05,4.9425800181349846
-3.6373050000000002e-05,2.7101164781851281
-3.6363050000000001e-05,4.7562308077895779
-3.6353049999999999e-05,2.8890117201177574
-3.6343049999999998e-05,4.5698815974424303
-3.6333050000000003e-05,3.1200847409474042
-3.6323050000000001e-05,4.305265718751075
-3.631305e-05,3.3921545880532777
-3.6303049999999998e-05,4.0481038084727201
-3.6293050000000003e-05,3.6083196720554049
-3.6283050000000002e-05,3.8356657086779222
-3.627305e-05,3.8095768192294139
-3.6263049999999998e-05,3.6306815772969463
-3.6253050000000004e-05,3.9884720611618807
-3.6243050000000002e-05,3.4480593511572248
-3.623305e-05,4.133824445232305
-3.6223049999999999e-05,3.3399768091562612
-3.6213050000000004e-05,4.2195450819912903
-3.6203050000000002e-05,3.2505291881899465
-3.6193050000000001e-05,4.2679958766817769
-3.6183049999999999e-05,3.1871704566721402
-3.6173049999999998e-05,4.2679958766813009
-3.6163050000000003e-05,3.2207133145345077
-3.6153050000000001e-05,4.2456339714401983
-3.6143049999999999e-05,3.2430752197760864
-3.6133049999999998e-05,4.1897292083355051
-3.6123050000000003e-05,2.549856157287147
-3.6113050000000001e-05,-3.2679661897302417
-3.610305e-05,1.1634180323092687
-3.6093049999999998e-05,-3.029439200484922
-3.6083050000000003e-05,0.95843390092631697
-3.6073050000000002e-05,-2.9064487216580526
-3.606305e-05,0.83171643789251815
-3.6053049999999999e-05,-2.7648233217947213
