Power_measurements/AES_csv/aes_active_l3_7.csv

#Digilent WaveForms Oscilloscope Acquisition
#Device Name: Discovery2
#Serial Number: SN:210321A1A9F5
#Date Time: 2018-06-28 02:53:51.287
#Sample rate: 1e+08Hz
#Samples: 8192
#Trigger: Source: Channel 1 Type: Edge Condition: Rising Level: 2 V Hyst.: Auto HoldOff: 0 s
#Channel 2: Range: 1 V/div Offset: 0 V

Time (s),Channel 2 (V)
-4.0693274336283187e-05,-1.024321697158513
-4.0683274336283186e-05,-1.0205947129515833
-4.0673274336283184e-05,-1.0056867761238693
-4.0663274336283189e-05,-1.0168677287446484
-4.0653274336283188e-05,-1.024321697158513
-4.0643274336283186e-05,-1.0317756655723727
-4.0633274336283185e-05,-1.0355026497793023
-4.062327433628319e-05,-1.0466836024000865
-4.0613274336283188e-05,-0.96096296564070671
-4.0603274336283187e-05,5.4009990755884303
-4.0593274336283185e-05,3.1834434724652105
-4.0583274336283183e-05,4.8494054129618176
-4.0573274336283189e-05,2.6393037782534625
-4.0563274336283187e-05,5.1438371653102752
-4.0553274336283185e-05,2.3560529785267992
-4.0543274336283184e-05,5.3450943124830568
-4.0533274336283189e-05,2.2069736102510347
-4.0523274336283187e-05,5.3674562177260627
-4.0513274336283186e-05,2.2554244049396948
-4.0503274336283184e-05,5.2742816125515022
-4.0493274336283189e-05,2.3821418679766229
-4.0483274336283188e-05,5.1028403390340475
-4.0473274336283186e-05,2.5945799677703052
-4.0463274336283185e-05,4.8866752550321211
-4.045327433628319e-05,2.8293799728078164
-4.0443274336283188e-05,4.6518752499955447
-4.0433274336283187e-05,3.045545056808808
-4.0423274336283185e-05,4.4021673081312489
-4.0413274336283183e-05,3.3287958565358307
-4.0403274336283189e-05,4.1189165084045856
-4.0393274336283187e-05,3.6045926878482755
-4.0383274336283185e-05,3.8543006297125713
-4.0373274336283184e-05,3.8468466612985992
-4.0363274336283189e-05,3.6008657036414577
-4.0353274336283187e-05,4.0555577768867792
-4.0343274336283186e-05,3.3958815722602083
-4.0333274336283184e-05,4.2083641293704801
-4.0323274336283189e-05,3.2840720460527342
-4.0313274336283188e-05,4.3015387345441454
-4.0303274336283186e-05,3.1797164882582809
-4.0293274336283184e-05,4.3611704818550212
-4.028327433628319e-05,3.1349926777756805
-4.0273274336283188e-05,4.3686244502688814
-4.0263274336283186e-05,3.112630772533544
-4.0253274336283185e-05,4.3276276239926537
-4.0243274336283183e-05,3.1722625198449257
-4.0233274336283188e-05,4.2829038135094963
-4.0223274336283187e-05,3.2356212513622271
-4.0213274336283185e-05,4.200910160957041
-4.0203274336283184e-05,3.3101609355011825
-4.0193274336283189e-05,4.1002815873699365
-4.0183274336283187e-05,2.1287069419040821
-4.0173274336283186e-05,-3.4095915895935729
-4.0163274336283184e-05,1.2975894637567393
-4.0153274336283189e-05,-3.1039788846233289
-4.0143274336283188e-05,0.90625612203111383
-4.0133274336283186e-05,-2.7350074481392825
-4.0123274336283184e-05,0.55964659078664414
-4.011327433628319e-05,-2.377216964272689
-4.0103274336283188e-05,0.18322118588673617
-4.0093274336283186e-05,-2.0268804488226246
-4.0083274336283185e-05,-0.19320421901317175
-4.0073274336283183e-05,-1.6243661544737484
-4.0063274336283188e-05,-0.61435343439623713
-4.0053274336283187e-05,-1.1920359864703531
-4.0043274336283185e-05,-1.0653185234347406
-4.0033274336283184e-05,-0.78952169212222489
-4.0023274336283189e-05,-1.4231090072999997
-4.0013274336283187e-05,-0.48390898715369474
-4.0003274336283186e-05,-1.6839979017850844
-3.9993274336283184e-05,-0.25656295053170686
-3.9983274336283189e-05,-1.8591661595100553
-3.9973274336283188e-05,-0.12239151908150592
-3.9963274336283186e-05,-1.9635217173048181
-3.9953274336283184e-05,-0.040397866529050724
-3.994327433628319e-05,-1.9970645751662963
-3.9933274336283188e-05,-0.036670882322120943
-3.9923274336283186e-05,-1.9858836225463967
-3.9913274336283185e-05,-0.073940724391418758
-3.990327433628319e-05,-1.9001629857861813
-3.9893274336283188e-05,-0.17829628218545263
-3.9883274336283187e-05,-1.8181693332345565
-3.9873274336283185e-05,-0.27519787156562697
-3.9863274336283184e-05,-1.6579090123360352
-3.9853274336283189e-05,-0.46900105032597561
-3.9843274336283187e-05,-1.4901947230247357
-3.9833274336283185e-05,-0.62553438701702646
-3.9823274336283184e-05,-1.3112994810918739
-3.9813274336283189e-05,-0.80070264474295827
-3.9803274336283187e-05,-1.1734010654357043
-3.9793274336283186e-05,-0.9684169340545663
-3.9783274336283184e-05,-1.0019597919169885
-3.9773274336283189e-05,-1.1212232865386331
-3.9763274336283188e-05,-0.86033439205360263
-3.9753274336283186e-05,-1.2479407495743
-3.9743274336283185e-05,-0.76343280267342828
-3.973327433628319e-05,-1.3373883705403538
-3.9723274336283188e-05,-0.68143915012097311
-3.9713274336283187e-05,-1.4156550388861402
-3.9703274336283185e-05,-0.64416930805167527
-3.9693274336283183e-05,-1.4380169441273578
-3.9683274336283189e-05,-0.64416930805167527
-3.9673274336283187e-05,-1.4454709125415783
-3.9663274336283185e-05,-0.64044232384474553
-3.9653274336283184e-05,-1.4082010704719516
-3.9643274336283189e-05,-0.68516613432823181
-3.9633274336283187e-05,-1.3709312284029826
-3.9623274336283186e-05,-0.72988994481106029
-3.9613274336283184e-05,-1.3112994810918672
-3.9603274336283189e-05,-0.78579470791524597
-3.9593274336283188e-05,-1.2553947179881595
-3.9583274336283186e-05,-0.83797248681202396
-3.9573274336283185e-05,-1.1994899548842128
-3.956327433628319e-05,-0.90133121832996577
-3.9553274336283188e-05,-1.1324042391594766
-3.9543274336283187e-05,-0.97587090246842589
-3.9533274336283185e-05,-1.0541375708139513
-3.9523274336283183e-05,-1.0429566181931433
-3.9513274336283189e-05,-1.0019597919169343
-3.9503274336283187e-05,-1.0914074128832492
-3.9493274336283185e-05,-0.9684169340545663
-3.9483274336283184e-05,-1.1398582075732346
-3.9473274336283189e-05,-0.91623915515765109
-3.9463274336283187e-05,-1.1398582075733363
-3.9453274336283186e-05,-0.87151534467439196
-3.9443274336283184e-05,-1.1808550338494299
-3.9433274336283189e-05,-0.88642328150224503
-3.9423274336283188e-05,-1.1808550338495638
-3.9413274336283186e-05,-0.88269629729518129
-3.9403274336283185e-05,-1.1734010654357043
-3.939327433628319e-05,-0.89760423412302592
-3.9383274336283188e-05,-1.1696740812287745
-3.9373274336283187e-05,-0.88642328150211114
-3.9363274336283185e-05,-1.143585191780266
-3.9353274336283183e-05,-0.94605502881306724
-3.9343274336283188e-05,-1.1212232865386873
-3.9333274336283187e-05,-0.94232804460605779
-3.9323274336283185e-05,-1.1063153497109683
-3.9313274336283184e-05,-0.9795978866753946
-3.9303274336283189e-05,-1.0653185234347016
-3.9293274336283187e-05,-0.99823280771000455
-3.9283274336283186e-05,-1.0392296339862321
-3.9273274336283184e-05,-1.0168677287446586
-3.9263274336283189e-05,-1.0280486813654377
-3.9253274336283188e-05,-1.0355026497793023
-3.9243274336283186e-05,-1.0131407445377236
-3.9233274336283184e-05,-1.0690455076416705
-3.922327433628319e-05,-0.99823280771003675
-3.9213274336283188e-05,-1.0876804286763193
-3.9203274336283186e-05,-0.99077883929614496
-3.9193274336283185e-05,-1.0839534444693895
-3.9183274336283183e-05,-0.97959788667540815
-3.9173274336283188e-05,-1.0951343970901788
-3.9163274336283187e-05,-0.98705185508921522
-3.9153274336283185e-05,-1.0727724918486001
-3.9143274336283184e-05,-0.96096296564075412
-3.9133274336283189e-05,-1.0653185234347406
-3.9123274336283187e-05,-0.97959788667535563
-3.9113274336283186e-05,-1.0839534444693895
-3.9103274336283184e-05,-0.99077883929617716
-3.9093274336283189e-05,-1.0615915392277786
-3.9083274336283188e-05,-1.009413760330794
-3.9073274336283186e-05,-1.0615915392278108
-3.9063274336283184e-05,-0.99823280771000455
-3.905327433628319e-05,-1.0466836024000696
-3.9043274336283188e-05,-1.009413760330794
-3.9033274336283186e-05,-1.0317756655723727
-3.9023274336283185e-05,-1.0317756655723727
-3.9013274336283183e-05,-1.0205947129515851
-3.9003274336283188e-05,-1.024321697158513
-3.8993274336283187e-05,-1.0317756655723727
-3.8983274336283185e-05,-1.0392296339862321
-3.8973274336283184e-05,-1.0243216971585181
-3.8963274336283189e-05,-1.0355026497793023
-3.8953274336283187e-05,-1.0019597919169343
-3.8943274336283186e-05,-1.0466836024000916
-3.8933274336283184e-05,-1.0094137603308042
-3.8923274336283189e-05,-1.0317756655723624
-3.8913274336283188e-05,-1.0131407445377236
-3.8903274336283186e-05,-1.0578645550208812
-3.8893274336283184e-05,-1.009413760330794
-3.888327433628319e-05,-1.0541375708139309
-3.8873274336283188e-05,-1.0056867761238641
-3.8863274336283186e-05,-1.042956618193162
-3.8853274336283185e-05,-1.009413760330794
-3.884327433628319e-05,-1.0541375708139309
-3.8833274336283188e-05,-0.99823280771000455
-3.8823274336283187e-05,-1.0541375708139513
-3.8813274336283185e-05,-1.0131407445377236
-3.8803274336283183e-05,-1.0355026497792905
-3.8793274336283189e-05,-1.009413760330794
-3.8783274336283187e-05,-1.042956618193162
-3.8773274336283185e-05,-1.0205947129515833
-3.8763274336283184e-05,-1.0317756655723676
-3.8753274336283189e-05,-1.0205947129515884
-3.8743274336283187e-05,-1.0317756655723727
-3.8733274336283186e-05,-1.0392296339862321
-3.8723274336283184e-05,-1.0205947129515782
-3.8713274336283189e-05,-1.0094137603307991
-3.8703274336283188e-05,-1.024321697158513
-3.8693274336283186e-05,-1.0504105866070215
-3.8683274336283185e-05,-1.0019597919169343
-3.867327433628319e-05,-1.0205947129515749
-3.8663274336283188e-05,-1.0280486813654428
-3.8653274336283187e-05,-1.0317756655723727
-3.8643274336283185e-05,-1.0131407445377236
-3.8633274336283183e-05,-1.0466836024000781
-3.8623274336283189e-05,-1.0168677287446535
-3.8613274336283187e-05,-1.0317756655723727
-3.8603274336283185e-05,-1.0131407445377236
-3.8593274336283184e-05,-1.0317756655722743
-3.8583274336283189e-05,-0.81561058157054367
-3.8573274336283187e-05,5.9973165486971958
-3.8563274336283186e-05,2.6169418730118839
-3.8553274336283184e-05,5.2519197073099013
-3.8543274336283189e-05,2.3113291680449781
-3.8533274336283188e-05,5.3637292335191331
-3.8523274336283186e-05,2.177157736594169
-3.8513274336283185e-05,5.4569038386923774
-3.850327433628319e-05,2.1547958313540918
-3.8493274336283188e-05,5.4009990755884303
-3.8483274336283187e-05,2.2852402785951327
-3.8473274336283185e-05,5.1960149442072927
-3.8463274336283183e-05,2.5014053625981649
-3.8453274336283189e-05,4.9313990655152784
-3.8443274336283187e-05,2.7995640991514428
-3.8433274336283185e-05,4.6406942973747549
-3.8423274336283184e-05,3.0939958514994621
-3.8413274336283189e-05,4.3388085766128768
-3.8403274336283187e-05,3.3996085564671379
-3.8393274336283186e-05,4.0592847610937088
-3.8383274336283184e-05,3.671678403573059
-3.8373274336283189e-05,3.776033961366998
-3.8363274336283188e-05,3.9251133296442369
-3.8353274336283186e-05,3.5710498299859079
-3.8343274336283185e-05,4.1450053978530939
-3.833327433628319e-05,3.3399768091566271
-3.8323274336283188e-05,4.2791768293025658
-3.8313274336283186e-05,3.1946244250859994
-3.8303274336283185e-05,4.3835323870965999
-3.8293274336283183e-05,3.1238117251549236
-3.8283274336283188e-05,4.4208022291658979
-3.8273274336283187e-05,3.0641799778434571
-3.8263274336283185e-05,4.4319831817866877
-3.8253274336283184e-05,3.0977228357064068
-3.8243274336283189e-05,4.3760784186821589
-3.8233274336283187e-05,3.1238117251543338
-3.8223274336283186e-05,4.2978117503372149
-3.8213274336283184e-05,3.1908974408795392
-3.8203274336283189e-05,4.2232720661981507
-3.8193274336283188e-05,3.2877990302592446
-3.8183274336283186e-05,4.1226434926115152
-3.8173274336283184e-05,3.4070625248809971
-3.816327433628319e-05,3.9772911085409941
-3.8153274336283188e-05,0.63418627492523971
-3.8143274336283186e-05,-2.6679217324145466
-3.8133274336283185e-05,0.51864976451041644
-3.8123274336283183e-05,-2.1796868013058321
-3.8113274336283188e-05,-0.17084231377159309
-3.8103274336283187e-05,-1.5274645650940335
-3.8093274336283185e-05,-0.77461375529421772
-3.8083274336283184e-05,-0.98705185508933047
-3.8073274336283189e-05,-1.2404867811604403
-3.8063274336283187e-05,-0.62553438701702646
-3.8053274336283186e-05,-1.5572804387494719
-3.8043274336283184e-05,-0.33110263467025669
-3.8033274336283189e-05,-1.8330772700615929
-3.8023274336283188e-05,-0.10748358225378679
-3.8013274336283186e-05,-2.0455153698572728
-3.8003274336283184e-05,0.090046580713491628
-3.799327433628319e-05,-2.1759598170987848
-3.7983274336283188e-05,0.16831324905901704
-3.7973274336283186e-05,-2.2057756907552539
-3.7963274336283185e-05,0.16085928064515748
-3.795327433628319e-05,-2.1610518802710406
-3.7943274336283188e-05,0.082592612299632065
-3.7933274336283187e-05,-2.071604259305782
-3.7923274336283185e-05,-0.032943898115191161
-3.7913274336283184e-05,-1.9150709226139564
-3.7903274336283189e-05,-0.21183914004782067
-3.7893274336283187e-05,-1.724994728061312
-3.7883274336283186e-05,-0.40564231880816931
-3.7873274336283184e-05,-1.5349185335074746
-3.7863274336283189e-05,-0.6143534343966558
-3.7853274336283188e-05,-1.3336613863336848
-3.7843274336283186e-05,-0.82679153419123463
-3.7833274336283184e-05,-1.1361312233664065
-3.7823274336283189e-05,-1.035502649779348
-3.7813274336283188e-05,-0.96096296564070671
-3.7803274336283186e-05,-1.1994899548842128
-3.7793274336283185e-05,-0.80070264474272612
-3.778327433628319e-05,-1.3336613863334423
-3.7773274336283188e-05,-0.67398518170711363
-3.7763274336283187e-05,-1.434289959920789
-3.7753274336283185e-05,-0.60317248177544769
-3.7743274336283183e-05,-1.4827407546104627
-3.7733274336283189e-05,-0.57335660812000944
-3.7723274336283187e-05,-1.5311915493009634
-3.7713274336283185e-05,-0.56590263970614996
-3.7703274336283184e-05,-1.5162836124728238
-3.7693274336283189e-05,-0.59199152915507869
-3.7683274336283187e-05,-1.4901947230247357
-3.7673274336283186e-05,-0.61435343439623713
-3.7663274336283184e-05,-1.4044740862650338
-3.7653274336283189e-05,-0.70752803956979859
-3.7643274336283188e-05,-1.3522963073683338
-3.7633274336283186e-05,-0.76715978688035813
-3.7623274336283185e-05,-1.2889375758505275
-3.761327433628319e-05,-0.86406137626072566
-3.7603274336283188e-05,-1.1771280496426342
-3.7593274336283187e-05,-0.93487407619219831
-3.7583274336283185e-05,-1.0951343970901788
-3.7573274336283183e-05,-1.0280486813654497
-3.7563274336283189e-05,-1.042956618193162
-3.7553274336283187e-05,-1.0839534444693895
-3.7543274336283185e-05,-0.97959788667535563
-3.7533274336283184e-05,-1.1174963023316764
-3.7523274336283189e-05,-0.93860106039920943
-3.7513274336283187e-05,-1.1696740812287745
-3.7503274336283186e-05,-0.89760423412290047
-3.7493274336283184e-05,-1.1994899548840603
-3.7483274336283189e-05,-0.86406137626068502
-3.7473274336283188e-05,-1.2106709075050022
-3.7463274336283186e-05,-0.86033439205360263
-3.7453274336283185e-05,-1.2181248759188616
-3.744327433628319e-05,-0.85660740784683731
-3.7433274336283188e-05,-1.2106709075050022
-3.7423274336283187e-05,-0.86778836046746222
-3.7413274336283185e-05,-1.2032169390911425
-3.7403274336283183e-05,-0.88642328150223992
-3.7393274336283189e-05,-1.1696740812287745
-3.7383274336283187e-05,-0.93860106039912805
-3.7373274336283185e-05,-1.1324042391594766
-3.7363274336283184e-05,-0.96468994984770096
-3.7353274336283189e-05,-1.106315349710904
-3.7343274336283187e-05,-0.99450582350307482
-3.7333274336283186e-05,-1.0727724918486001
-3.7323274336283184e-05,-1.005686776123881
-3.7313274336283189e-05,-1.0429566181931451
-3.7303274336283188e-05,-1.0392296339862321
-3.7293274336283186e-05,-1.024321697158513
-3.7283274336283184e-05,-1.0541375708139513
-3.727327433628319e-05,-1.0056867761238861
-3.7263274336283188e-05,-1.0914074128832492
-3.7253274336283186e-05,-0.98705185508921522
-3.7243274336283185e-05,-1.0914074128832492
-3.7233274336283183e-05,-0.99450582350312222
-3.7223274336283188e-05,-1.0988613812971086
-3.7213274336283187e-05,-0.97214391826149615
-3.7203274336283185e-05,-1.0951343970901788
-3.7193274336283184e-05,-0.97214391826155377
-3.7183274336283189e-05,-1.0988613812970511
-3.7173274336283187e-05,-0.99077883929614496
-3.7163274336283186e-05,-1.1063153497109683
-3.7153274336283184e-05,-1.0131407445377627
-3.7143274336283189e-05,-1.0988613812970696
-3.7133274336283188e-05,-1.0056867761238641
-3.7123274336283186e-05,-1.0653185234347406
-3.7113274336283184e-05,-1.009413760330794
-3.710327433628319e-05,-1.0727724918485713
-3.7093274336283188e-05,-1.0317756655723727
-3.7083274336283186e-05,-1.042956618193162
-3.7073274336283185e-05,-1.024321697158513
-3.7063274336283183e-05,-1.035502649779299
-3.7053274336283188e-05,-1.0280486813654428
-3.7043274336283187e-05,-1.0355026497793023
-3.7033274336283185e-05,-1.0541375708139513
-3.7023274336283184e-05,-1.0168677287446739
-3.7013274336283189e-05,-1.0615915392278108
-3.7003274336283187e-05,-1.0168677287446535
-3.6993274336283186e-05,-1.0504105866070215
-3.6983274336283184e-05,-1.0205947129516053
-3.6973274336283189e-05,-1.0690455076416485
-3.6963274336283188e-05,-1.0131407445377236
-3.6953274336283186e-05,-1.0541375708139513
-3.6943274336283184e-05,-0.99823280771000455
-3.693327433628319e-05,-1.0504105866069977
-3.6923274336283188e-05,-1.009413760330794
-3.6913274336283186e-05,-1.0690455076416705
-3.6903274336283185e-05,-1.0056867761238641
-3.689327433628319e-05,-1.0355026497792887
-3.6883274336283188e-05,-1.0205947129515833
-3.6873274336283187e-05,-1.0653185234347406
-3.6863274336283185e-05,-1.0317756655723727
-3.6853274336283184e-05,-1.0429566181931451
-3.6843274336283189e-05,-1.0056867761238641
-3.6833274336283187e-05,-1.0615915392278108
-3.6823274336283186e-05,-1.0317756655723727
-3.6813274336283184e-05,-1.0392296339862339
-3.6803274336283189e-05,-1.0429566181931602
-3.6793274336283187e-05,-1.0355026497793023
-3.6783274336283186e-05,-1.0317756655723727
-3.6773274336283184e-05,-1.0392296339862321
-3.6763274336283189e-05,-1.031775665572376
-3.6753274336283188e-05,-1.0355026497793023
-3.6743274336283186e-05,-1.0466836024000916
-3.6733274336283185e-05,-1.0317756655723727
-3.672327433628319e-05,-1.0205947129515884
-3.6713274336283188e-05,-1.024321697158513
-3.6703274336283187e-05,-1.0392296339862321
-3.6693274336283185e-05,-1.0205947129515833
-3.6683274336283183e-05,-1.0392296339862339
-3.6673274336283189e-05,-1.042956618193162
-3.6663274336283187e-05,-1.0578645550208812
-3.6653274336283185e-05,-1.0392296339862321
-3.6643274336283184e-05,-1.0355026497792921
-3.6633274336283189e-05,-1.0131407445377338
-3.6623274336283187e-05,-1.0280486813654428
-3.6613274336283186e-05,-1.0578645550208812
-3.6603274336283184e-05,-1.0056867761238641
-3.6593274336283189e-05,-1.0056867761238641
-3.6583274336283188e-05,-1.024321697158513
-3.6573274336283186e-05,-1.024321697158513
-3.6563274336283185e-05,-1.0355026497793023
-3.655327433628319e-05,-0.67398518170727806
-3.6543274336283188e-05,6.310383222079297
-3.6533274336283187e-05,2.311329168043641
-3.6523274336283185e-05,5.4494498702785172
-3.6513274336283183e-05,2.1473418629402445
-3.6503274336283189e-05,5.4755387597270264
-3.6493274336283187e-05,2.1212529734902228
-3.6483274336283185e-05,5.4494498702785172
-3.6473274336283184e-05,2.1697037681817353
-3.6463274336283189e-05,5.3040974862068309
-3.6453274336283187e-05,2.3523259943198687
-3.6443274336283186e-05,5.0804784337924689
-3.6433274336283184e-05,2.6691196519098495
-3.6423274336283189e-05,4.7562308077886293
-3.6413274336283188e-05,3.0008212463256507
-3.6403274336283186e-05,4.4208022291658979
-3.6393274336283185e-05,3.3325228407424019
-3.638327433628319e-05,4.1114625399903719
-3.6373274336283188e-05,3.6195006246759949
-3.6363274336283187e-05,3.8431196770917815
-3.6353274336283185e-05,3.9027514244026582
-3.6343274336283183e-05,3.563595861572312
-3.6333274336283189e-05,4.1450053978530939
-3.6323274336283187e-05,3.3399768091562612
-3.6313274336283185e-05,4.2978117503372149
-3.6303274336283184e-05,3.1946244250865603
-3.6293274336283189e-05,4.4282561975791968
-3.6283274336283187e-05,3.0716339462573172
-3.6273274336283186e-05,4.4916149290975635
-3.6263274336283184e-05,3.0306371199817437
-3.6253274336283189e-05,4.4692530238553303
-3.6243274336283188e-05,3.0306371199810895
-3.6233274336283186e-05,4.4468911186144062
-3.6223274336283184e-05,3.0753609304642469
-3.621327433628319e-05,4.3537165134405811
