Power_measurements/AES_csv/aes_idle_6.csv

#Digilent WaveForms Oscilloscope Acquisition
#Device Name: Discovery2
#Serial Number: SN:210321A1A9F5
#Date Time: 2018-06-28 03:54:03.959
#Sample rate: 1e+08Hz
#Samples: 8192
#Trigger: Source: Channel 1 Type: Edge Condition: Rising Level: 2 V Hyst.: Auto HoldOff: 0 s
#Channel 2: Range: 1 V/div Offset: 0 V

Time (s),Channel 2 (V)
-4.0696553672316387e-05,0.98452279037663915
-4.0686553672316385e-05,0.96216088513506048
-4.0676553672316384e-05,0.97706882196278477
-4.0666553672316389e-05,0.98824977458356389
-4.0656553672316387e-05,0.96588786934199033
-4.0646553672316386e-05,0.97334183775584981
-4.0636553672316384e-05,0.98452279037663915
-4.0626553672316389e-05,0.97706882196278311
-4.0616553672316388e-05,0.96588786934199033
-4.0606553672316386e-05,0.96216088513506048
-4.0596553672316384e-05,0.97334183775584981
-4.0586553672316383e-05,0.965887869341992
-4.0576553672316388e-05,0.96961485354892007
-4.0566553672316386e-05,0.96961485354892007
-4.0556553672316385e-05,0.98079580616970941
-4.0546553672316383e-05,0.9621608851350707
-4.0536553672316388e-05,0.98452279037662893
-4.0526553672316387e-05,0.97334183775584981
-4.0516553672316385e-05,0.97334183775584981
-4.0506553672316384e-05,0.977068821962778
-4.0496553672316389e-05,0.97334183775585148
-4.0486553672316387e-05,0.97706882196277967
-4.0476553672316386e-05,0.98452279037663915
-4.0466553672316384e-05,0.96961485354892007
-4.0456553672316389e-05,0.96216088513506393
-4.0446553672316388e-05,0.97334183775584981
-4.0436553672316386e-05,0.97334183775584981
-4.0426553672316384e-05,0.97334183775584981
-4.0416553672316383e-05,0.98079580616970774
-4.0406553672316388e-05,0.97706882196277967
-4.0396553672316386e-05,0.98452279037663915
-4.0386553672316385e-05,0.988249774583569
-4.0376553672316383e-05,0.95843390092813752
-4.0366553672316388e-05,0.97334183775584304
-4.0356553672316387e-05,0.96961485354892007
-4.0346553672316385e-05,0.98452279037663915
-4.0336553672316384e-05,0.99197675879049363
-4.0326553672316389e-05,0.98079580616971451
-4.0316553672316387e-05,0.96588786934199033
-4.0306553672316386e-05,0.99570374299742848
-4.0296553672316384e-05,0.96216088513506048
-4.0286553672316389e-05,0.99197675879048519
-4.0276553672316388e-05,0.97334183775584981
-4.0266553672316386e-05,0.96588786934199033
-4.0256553672316384e-05,0.98079580616970941
-4.0246553672316383e-05,0.96961485354892685
-4.0236553672316388e-05,0.98452279037663915
-4.0226553672316386e-05,0.97334183775584981
-4.0216553672316385e-05,0.95843390092813074
-4.0206553672316383e-05,0.98079580616970596
-4.0196553672316388e-05,0.97334183775584981
-4.0186553672316387e-05,0.96961485354892007
-4.0176553672316385e-05,0.96961485354892007
-4.0166553672316384e-05,0.98824977458356555
-4.0156553672316389e-05,0.98079580616971285
-4.0146553672316387e-05,0.99197675879049874
-4.0136553672316386e-05,0.99197675879049874
-4.0126553672316384e-05,0.98079580616970941
-4.0116553672316389e-05,0.98824977458356555
-4.0106553672316387e-05,0.988249774583569
-4.0096553672316386e-05,0.96588786934199033
-4.0086553672316384e-05,0.97706882196277967
-4.0076553672316383e-05,0.98452279037664081
-4.0066553672316388e-05,0.988249774583569
-4.0056553672316386e-05,0.97706882196277967
-4.0046553672316385e-05,0.988249774583569
-4.0036553672316383e-05,0.96961485354892518
-4.0026553672316388e-05,0.98079580616970941
-4.0016553672316387e-05,0.97706882196277967
-4.0006553672316385e-05,0.97706882196277967
-3.9996553672316383e-05,0.97334183775585492
-3.9986553672316389e-05,0.98452279037663404
-3.9976553672316387e-05,0.95097993251427115
-3.9966553672316385e-05,0.97706882196277967
-3.9956553672316384e-05,0.97334183775584981
-3.9946553672316389e-05,0.96961485354892174
-3.9936553672316387e-05,0.98079580616970941
-3.9926553672316386e-05,0.97706882196277967
-3.9916553672316384e-05,0.96588786934199033
-3.9906553672316389e-05,0.97334183775584637
-3.9896553672316388e-05,0.97334183775584981
-3.9886553672316386e-05,0.98079580616970941
-3.9876553672316385e-05,0.97706882196277967
-3.9866553672316383e-05,0.97334183775585659
-3.9856553672316388e-05,0.988249774583569
-3.9846553672316387e-05,0.97334183775584981
-3.9836553672316385e-05,0.97334183775584981
-3.9826553672316383e-05,0.96961485354892352
-3.9816553672316389e-05,0.97706882196277622
-3.9806553672316387e-05,0.97706882196277967
-3.9796553672316385e-05,0.98079580616970941
-3.9786553672316384e-05,0.96588786934199711
-3.9776553672316389e-05,0.98079580616970263
-3.9766553672316387e-05,0.96588786934199033
-3.9756553672316386e-05,0.96961485354892007
-3.9746553672316384e-05,0.97334183775584981
-3.9736553672316389e-05,0.977068821962778
-3.9726553672316388e-05,0.98452279037663915
-3.9716553672316386e-05,0.95843390092813074
-3.9706553672316385e-05,0.97334183775584981
-3.9696553672316383e-05,0.96961485354891841
-3.9686553672316388e-05,0.96588786934199033
-3.9676553672316387e-05,0.99197675879049874
-3.9666553672316385e-05,0.97706882196277967
-3.9656553672316383e-05,0.97706882196277967
-3.9646553672316389e-05,0.97706882196277967
-3.9636553672316387e-05,0.98079580616970941
-3.9626553672316385e-05,0.98079580616970941
-3.9616553672316384e-05,0.9845227903766357
-3.9606553672316389e-05,0.97706882196278311
-3.9596553672316387e-05,0.99570374299742848
-3.9586553672316386e-05,0.97706882196277967
-3.9576553672316384e-05,0.99197675879049874
-3.9566553672316389e-05,0.98079580616971451
-3.9556553672316388e-05,0.98452279037663915
-3.9546553672316386e-05,0.96588786934199033
-3.9536553672316384e-05,0.97706882196277967
-3.9526553672316383e-05,0.98824977458356389
-3.9516553672316388e-05,0.97706882196277967
-3.9506553672316386e-05,0.97706882196277967
-3.9496553672316385e-05,0.96588786934199033
-3.9486553672316383e-05,0.9919767587904903
-3.9476553672316388e-05,0.97334183775585825
-3.9466553672316387e-05,0.99197675879049874
-3.9456553672316385e-05,0.98079580616970941
-3.9446553672316384e-05,0.9845227903766357
-3.9436553672316389e-05,0.97706882196278311
-3.9426553672316387e-05,0.98079580616970941
-3.9416553672316386e-05,0.99197675879049874
-3.9406553672316384e-05,0.99197675879049874
-3.9396553672316389e-05,0.97706882196278644
-3.9386553672316388e-05,0.97706882196277967
-3.9376553672316386e-05,0.98079580616970941
-3.9366553672316384e-05,0.96216088513506048
-3.9356553672316383e-05,0.96216088513506726
-3.9346553672316388e-05,0.97706882196277967
-3.9336553672316386e-05,0.99197675879049874
-3.9326553672316385e-05,1.0143386640320775
-3.9316553672316383e-05,0.965887869341992
-3.9306553672316388e-05,0.96961485354891841
-3.9296553672316387e-05,0.97706882196277967
-3.9286553672316385e-05,0.96961485354892007
-3.9276553672316384e-05,0.98079580616971107
-3.9266553672316389e-05,0.98452279037663748
-3.9256553672316387e-05,0.97706882196277967
-3.9246553672316386e-05,0.96216088513506048
-3.9236553672316384e-05,0.97334183775584981
-3.9226553672316389e-05,0.97334183775584981
-3.9216553672316388e-05,0.97706882196277967
-3.9206553672316386e-05,0.96588786934199033
-3.9196553672316384e-05,0.99943072720435833
-3.9186553672316383e-05,0.97334183775585326
-3.9176553672316388e-05,0.98079580616970941
-3.9166553672316386e-05,0.99197675879049874
-3.9156553672316385e-05,0.98452279037663915
-3.9146553672316383e-05,0.965887869341992
-3.9136553672316388e-05,0.96961485354892007
-3.9126553672316387e-05,0.96216088513506048
-3.9116553672316385e-05,0.97334183775584981
-3.9106553672316384e-05,0.9696148535489133
-3.9096553672316389e-05,0.95470691672120767
-3.9086553672316387e-05,0.98452279037663915
-3.9076553672316385e-05,0.98079580616970941
-3.9066553672316384e-05,0.97334183775584981
-3.9056553672316389e-05,0.98452279037663404
-3.9046553672316387e-05,0.97706882196277967
-3.9036553672316386e-05,0.988249774583569
-3.9026553672316384e-05,0.96961485354892007
-3.9016553672316383e-05,0.95470691672121444
-3.9006553672316388e-05,0.98452279037663915
-3.8996553672316386e-05,0.98452279037663915
-3.8986553672316385e-05,0.98079580616970941
-3.8976553672316383e-05,0.97706882196278133
-3.8966553672316388e-05,0.98079580616970941
-3.8956553672316387e-05,0.97706882196277967
-3.8946553672316385e-05,0.97334183775584981
-3.8936553672316383e-05,0.97706882196278311
-3.8926553672316389e-05,0.9845227903766357
-3.8916553672316387e-05,0.97334183775584981
-3.8906553672316385e-05,0.95470691672120089
-3.8896553672316384e-05,0.98452279037663915
-3.8886553672316389e-05,0.95470691672121444
-3.8876553672316387e-05,0.96961485354892007
-3.8866553672316386e-05,0.97706882196277967
-3.8856553672316384e-05,0.96588786934199033
-3.8846553672316389e-05,0.97334183775584637
-3.8836553672316388e-05,0.97706882196277967
-3.8826553672316386e-05,0.96961485354892007
-3.8816553672316385e-05,0.97334183775584981
-3.8806553672316383e-05,0.96588786934200055
-3.8796553672316388e-05,0.988249774583569
-3.8786553672316387e-05,0.97706882196277967
-3.8776553672316385e-05,0.99197675879049874
-3.8766553672316383e-05,0.98824977458356056
-3.8756553672316389e-05,0.96961485354892851
-3.8746553672316387e-05,0.98452279037663915
-3.8736553672316385e-05,0.97706882196277967
-3.8726553672316384e-05,0.95843390092814773
-3.8716553672316389e-05,0.99570374299741149
-3.8706553672316387e-05,0.98452279037663915
-3.8696553672316386e-05,0.98452279037663915
-3.8686553672316384e-05,0.97334183775584981
-3.8676553672316389e-05,0.98824977458356222
-3.8666553672316388e-05,0.98079580616970941
-3.8656553672316386e-05,0.988249774583569
-3.8646553672316385e-05,0.97334183775584981
-3.8636553672316383e-05,0.99197675879049529
-3.8626553672316388e-05,0.98452279037663915
-3.8616553672316387e-05,0.97334183775584981
-3.8606553672316385e-05,0.98079580616970941
-3.8596553672316383e-05,0.99943072720434811
-3.8586553672316388e-05,0.97706882196278988
-3.8576553672316387e-05,0.96588786934199033
-3.8566553672316385e-05,0.97706882196277967
-3.8556553672316384e-05,0.96961485354892007
-3.8546553672316389e-05,0.96961485354892007
-3.8536553672316387e-05,0.99197675879049874
-3.8526553672316386e-05,0.98079580616970941
-3.8516553672316384e-05,0.96961485354892007
-3.8506553672316389e-05,0.97334183775584815
-3.8496553672316388e-05,0.98079580616970941
-3.8486553672316386e-05,0.95843390092813074
-3.8476553672316384e-05,0.988249774583569
-3.8466553672316383e-05,0.98452279037663748
-3.8456553672316388e-05,0.98079580616970941
-3.8446553672316386e-05,0.99570374299742848
-3.8436553672316385e-05,0.98079580616970941
-3.8426553672316383e-05,0.98452279037663748
-3.8416553672316388e-05,0.98079580616971107
-3.8406553672316387e-05,0.97334183775584981
-3.8396553672316385e-05,0.97706882196277967
-3.8386553672316384e-05,0.98452279037663071
-3.8376553672316389e-05,0.96588786934199877
-3.8366553672316387e-05,0.96961485354892007
-3.8356553672316386e-05,0.96588786934199033
-3.8346553672316384e-05,0.96961485354892007
-3.8336553672316389e-05,0.98824977458356056
-3.8326553672316388e-05,0.96961485354892007
-3.8316553672316386e-05,0.97334183775584981
-3.8306553672316384e-05,0.95470691672120089
-3.8296553672316383e-05,0.95843390092813918
-3.8286553672316388e-05,0.97706882196277967
-3.8276553672316386e-05,0.988249774583569
-3.8266553672316385e-05,0.98079580616970941
-3.8256553672316383e-05,0.9807958061697043
-3.8246553672316388e-05,0.96961485354892518
-3.8236553672316387e-05,0.98452279037663915
-3.8226553672316385e-05,0.988249774583569
-3.8216553672316384e-05,0.95843390092813241
-3.8206553672316389e-05,0.96216088513505882
-3.8196553672316387e-05,0.99570374299742848
-3.8186553672316386e-05,0.96961485354892007
-3.8176553672316384e-05,0.988249774583569
-3.8166553672316389e-05,0.98079580616971285
-3.8156553672316388e-05,0.98079580616970941
-3.8146553672316386e-05,0.98452279037663915
-3.8136553672316384e-05,0.99197675879049874
-3.8126553672316383e-05,0.98824977458356222
-3.8116553672316388e-05,0.97334183775584981
-3.8106553672316386e-05,0.97334183775584981
-3.8096553672316385e-05,0.96588786934199033
-3.8086553672316383e-05,0.98452279037663404
-3.8076553672316388e-05,0.97334183775584981
-3.8066553672316387e-05,0.98079580616970941
-3.8056553672316385e-05,0.97706882196277967
-3.8046553672316383e-05,0.98452279037663915
-3.8036553672316389e-05,0.98452279037663915
-3.8026553672316387e-05,0.96961485354892007
-3.8016553672316385e-05,0.988249774583569
-3.8006553672316384e-05,0.97334183775584981
-3.7996553672316389e-05,0.96961485354892174
-3.7986553672316387e-05,0.98452279037663915
-3.7976553672316386e-05,0.97334183775584981
-3.7966553672316384e-05,0.99197675879049874
-3.7956553672316389e-05,0.96961485354893029
-3.7946553672316388e-05,0.98079580616970941
-3.7936553672316386e-05,0.988249774583569
-3.7926553672316385e-05,1.0068846956182178
-3.7916553672316383e-05,0.988249774583569
-3.7906553672316388e-05,0.988249774583569
-3.7896553672316387e-05,0.96588786934199033
-3.7886553672316385e-05,0.95470691672120089
-3.7876553672316383e-05,0.98824977458356056
-3.7866553672316389e-05,0.96961485354892851
-3.7856553672316387e-05,0.988249774583569
-3.7846553672316385e-05,0.988249774583569
-3.7836553672316384e-05,0.99943072720435833
-3.7826553672316389e-05,0.9584339009281494
-3.7816553672316387e-05,0.98452279037663915
-3.7806553672316386e-05,0.97334183775584981
-3.7796553672316384e-05,0.98079580616970941
-3.7786553672316389e-05,0.96216088513506892
-3.7776553672316388e-05,0.97706882196277967
-3.7766553672316386e-05,0.98079580616970941
-3.7756553672316385e-05,0.96961485354892007
-3.7746553672316383e-05,0.97334183775585148
-3.7736553672316388e-05,0.97706882196277967
-3.7726553672316387e-05,0.96588786934199033
-3.7716553672316385e-05,0.98452279037663915
-3.7706553672316383e-05,0.98452279037664081
-3.7696553672316389e-05,0.98824977458356733
-3.7686553672316387e-05,0.97706882196277967
-3.7676553672316385e-05,0.98452279037663915
-3.7666553672316384e-05,0.9845227903766357
-3.7656553672316389e-05,0.97706882196278311
-3.7646553672316387e-05,0.97706882196277967
-3.7636553672316386e-05,0.96588786934199033
-3.7626553672316384e-05,0.98079580616970941
-3.7616553672316389e-05,0.98079580616970941
-3.7606553672316388e-05,0.97334183775584981
-3.7596553672316386e-05,0.99197675879049874
-3.7586553672316385e-05,0.98452279037663915
-3.7576553672316383e-05,0.97334183775584981
-3.7566553672316388e-05,0.97334183775584981
-3.7556553672316386e-05,0.96961485354892007
-3.7546553672316385e-05,0.97706882196277967
-3.7536553672316383e-05,1.0068846956182009
-3.7526553672316388e-05,0.96961485354893706
-3.7516553672316387e-05,0.97334183775584981
-3.7506553672316385e-05,0.98079580616970941
-3.7496553672316384e-05,0.99197675879049874
-3.7486553672316389e-05,0.99197675879049874
-3.7476553672316387e-05,0.98079580616970941
-3.7466553672316386e-05,0.988249774583569
-3.7456553672316384e-05,0.97334183775584981
-3.7446553672316389e-05,1.0068846956182025
-3.7436553672316388e-05,0.97706882196277967
-3.7426553672316386e-05,0.97334183775584981
-3.7416553672316384e-05,0.97334183775584981
-3.7406553672316383e-05,0.96961485354893195
-3.7396553672316388e-05,0.99570374299742848
-3.7386553672316386e-05,0.98452279037663915
-3.7376553672316385e-05,0.96961485354892007
-3.7366553672316383e-05,0.99197675879049529
-3.7356553672316388e-05,0.98452279037664259
-3.7346553672316387e-05,0.97706882196277967
-3.7336553672316385e-05,0.98079580616970941
-3.7326553672316384e-05,0.98824977458356222
-3.7316553672316389e-05,0.97334183775585659
-3.7306553672316387e-05,0.97706882196277967
-3.7296553672316386e-05,0.988249774583569
-3.7286553672316384e-05,0.97334183775584981
-3.7276553672316389e-05,0.98824977458356222
-3.7266553672316388e-05,0.97706882196277967
-3.7256553672316386e-05,0.96961485354892007
-3.7246553672316384e-05,0.96588786934199033
-3.7236553672316383e-05,0.97334183775585148
-3.7226553672316388e-05,0.97706882196277967
-3.7216553672316386e-05,0.98079580616970941
-3.7206553672316385e-05,0.97334183775584981
-3.7196553672316383e-05,0.98079580616969919
-3.7186553672316388e-05,0.95843390092814096
-3.7176553672316387e-05,0.96216088513506048
-3.7166553672316385e-05,0.97706882196277967
-3.7156553672316384e-05,0.98452279037663748
-3.7146553672316389e-05,0.98079580616971107
-3.7136553672316387e-05,0.97334183775584981
-3.7126553672316386e-05,0.96216088513506048
-3.7116553672316384e-05,0.988249774583569
-3.7106553672316389e-05,0.97706882196278477
-3.7096553672316388e-05,0.98079580616970941
-3.7086553672316386e-05,0.97706882196277967
-3.7076553672316384e-05,0.98079580616970941
-3.7066553672316383e-05,0.98079580616969586
-3.7056553672316388e-05,0.95097993251427115
-3.7046553672316386e-05,0.96961485354892007
-3.7036553672316385e-05,0.96588786934199033
-3.7026553672316383e-05,0.98079580616970596
-3.7016553672316388e-05,0.97334183775584981
-3.7006553672316387e-05,0.96588786934199033
-3.6996553672316385e-05,0.988249774583569
-3.6986553672316383e-05,0.98824977458356222
-3.6976553672316389e-05,0.97334183775585659
-3.6966553672316387e-05,0.98452279037663915
-3.6956553672316385e-05,0.96961485354892007
-3.6946553672316384e-05,0.97334183775584981
-3.6936553672316389e-05,0.97334183775584981
-3.6926553672316387e-05,0.97334183775584981
-3.6916553672316386e-05,0.95843390092813074
-3.6906553672316384e-05,0.97706882196277967
-3.6896553672316389e-05,0.99570374299742004
-3.6886553672316388e-05,0.97706882196277967
-3.6876553672316386e-05,0.98452279037663915
-3.6866553672316385e-05,0.988249774583569
-3.6856553672316383e-05,0.96588786934199378
-3.6846553672316388e-05,0.97334183775584981
-3.6836553672316387e-05,0.97706882196277967
-3.6826553672316385e-05,0.97334183775584981
-3.6816553672316383e-05,0.97334183775584637
-3.6806553672316389e-05,0.96588786934199378
-3.6796553672316387e-05,0.98079580616970941
-3.6786553672316385e-05,0.97334183775584981
-3.6776553672316384e-05,0.97706882196277967
-3.6766553672316389e-05,0.96961485354892352
-3.6756553672316387e-05,0.98079580616970941
-3.6746553672316386e-05,0.99197675879049874
-3.6736553672316384e-05,0.95470691672120089
-3.6726553672316389e-05,0.99197675879048175
-3.6716553672316388e-05,0.96961485354892007
-3.6706553672316386e-05,0.97706882196277967
-3.6696553672316385e-05,0.96588786934199033
-3.6686553672316383e-05,0.97706882196278311
-3.6676553672316388e-05,0.98452279037663915
-3.6666553672316387e-05,0.97706882196277967
-3.6656553672316385e-05,0.96588786934199033
-3.6646553672316383e-05,0.97706882196277967
-3.6636553672316389e-05,0.97706882196277967
-3.6626553672316387e-05,0.98079580616970941
-3.6616553672316385e-05,0.97334183775584981
-3.6606553672316384e-05,0.97706882196277289
-3.6596553672316389e-05,0.96216088513506726
-3.6586553672316387e-05,0.98452279037663915
-3.6576553672316386e-05,0.96961485354892007
-3.6566553672316384e-05,0.97334183775584981
-3.6556553672316389e-05,0.98824977458356222
-3.6546553672316388e-05,0.97334183775584981
-3.6536553672316386e-05,0.96961485354892007
-3.6526553672316384e-05,0.97334183775584981
-3.6516553672316383e-05,0.97706882196278133
-3.6506553672316388e-05,0.98079580616970941
-3.6496553672316386e-05,0.97706882196277967
-3.6486553672316385e-05,0.96216088513506048
-3.6476553672316383e-05,0.96216088513506559
-3.6466553672316388e-05,0.97334183775584471
-3.6456553672316387e-05,0.98079580616970941
-3.6446553672316385e-05,0.97706882196277967
-3.6436553672316384e-05,0.97706882196278477
-3.6426553672316389e-05,0.98824977458356389
-3.6416553672316387e-05,0.98452279037663915
-3.6406553672316386e-05,0.98452279037663915
-3.6396553672316384e-05,0.98079580616970941
-3.6386553672316389e-05,0.98452279037663748
-3.6376553672316388e-05,0.97334183775584981
-3.6366553672316386e-05,0.95843390092813074
-3.6356553672316384e-05,0.96961485354892007
-3.6346553672316383e-05,0.9807958061697043
-3.6336553672316388e-05,0.96961485354892007
-3.6326553672316386e-05,0.97706882196277967
-3.6316553672316385e-05,0.96588786934199033
-3.6306553672316383e-05,0.9845227903766357
-3.6296553672316388e-05,0.97706882196278311
-3.6286553672316387e-05,0.99197675879049874
-3.6276553672316385e-05,0.988249774583569
-3.6266553672316384e-05,0.96588786934199033
-3.6256553672316389e-05,0.96588786934199033
-3.6246553672316387e-05,0.97706882196277967
-3.6236553672316386e-05,0.96961485354892007
-3.6226553672316384e-05,0.99197675879049874
