Power_measurements/AES_csv/aes_idle_l3_9.csv

#Digilent WaveForms Oscilloscope Acquisition
#Device Name: Discovery2
#Serial Number: SN:210321A1A9F5
#Date Time: 2018-06-28 03:28:19.972
#Sample rate: 1e+08Hz
#Samples: 8192
#Trigger: Source: Channel 1 Type: Edge Condition: Rising Level: 2 V Hyst.: Auto HoldOff: 0 s
#Channel 2: Range: 1 V/div Offset: 0 V

Time (s),Channel 2 (V)
-4.0693703703703705e-05,-1.0019597919169343
-4.0683703703703703e-05,-1.0355026497793023
-4.0673703703703702e-05,-1.0056867761238759
-4.0663703703703707e-05,-1.0317756655723609
-4.0653703703703705e-05,-1.0131407445377236
-4.0643703703703704e-05,-1.0317756655723727
-4.0633703703703702e-05,-1.0168677287446535
-4.0623703703703707e-05,-1.0504105866070061
-4.0613703703703706e-05,-0.80815661315658571
-4.0603703703703704e-05,6.0681292486288614
-4.0593703703703702e-05,2.6057609203910941
-4.0583703703703701e-05,5.3003705019999403
-4.0573703703703706e-05,2.2516974207327651
-4.0563703703703704e-05,5.4569038386923774
-4.0553703703703703e-05,2.0951640840417145
-4.0543703703703701e-05,5.5351705070363399
-4.0533703703703706e-05,2.0988910682502069
-4.0523703703703705e-05,5.4643578071062366
-4.0513703703703703e-05,2.2293355154911865
-4.0503703703703702e-05,5.289189549379242
-4.0493703703703707e-05,2.4417736152874792
-4.0483703703703705e-05,5.0096657338608033
-4.0473703703703704e-05,2.721297430805917
-4.0463703703703702e-05,4.7375958867549297
-4.0453703703703707e-05,3.0380910883957215
-4.0443703703703706e-05,4.4319831817866877
-4.0433703703703704e-05,3.3586117301909102
-4.0423703703703702e-05,4.1002815873699365
-4.0413703703703701e-05,3.6493164983315074
-4.0403703703703706e-05,3.8133038034363436
-4.0393703703703704e-05,3.9288403138511665
-4.0383703703703703e-05,3.5412339563304691
-4.0373703703703701e-05,4.1673673030942826
-4.0363703703703706e-05,3.3101609355012132
-4.0353703703703705e-05,4.3760784186827406
-4.0343703703703703e-05,3.1536275988097717
-4.0333703703703702e-05,4.4767069922691807
-4.0323703703703707e-05,3.0157291831540345
-4.0313703703703705e-05,4.5363387395807209
-4.0303703703703704e-05,2.9672783884632832
-4.0293703703703702e-05,4.5698815974430893
-4.0283703703703707e-05,2.9747323568778681
-4.0273703703703706e-05,4.5177038185460718
-4.0263703703703704e-05,2.9970942621187211
-4.0253703703703702e-05,4.4655260396490553
-4.0243703703703701e-05,3.0753609304648348
-4.0233703703703706e-05,4.3686244502688814
-4.0223703703703704e-05,3.2020783934998596
-4.0213703703703703e-05,4.2158180977847604
-4.0203703703703701e-05,3.3027069670873206
-4.0193703703703706e-05,4.0891006347491476
-4.0183703703703705e-05,1.5100275635537384
-4.0173703703703703e-05,-3.2008804740055057
-4.0163703703703702e-05,1.0776973955481142
-4.0153703703703707e-05,-2.813274116483039
-4.0143703703703705e-05,0.56337357499357388
-4.0133703703703703e-05,-2.3436741064116555
-4.0123703703703702e-05,0.13849737540357879
-4.0113703703703707e-05,-1.9225248910276533
-4.0103703703703705e-05,-0.27892485577255677
-4.0093703703703704e-05,-1.5237375808871036
-4.0083703703703702e-05,-0.69262010274176244
-4.0073703703703701e-05,-1.1025883655040571
-4.0063703703703706e-05,-1.143585191780266
-4.0053703703703704e-05,-0.70007407115562204
-4.0043703703703703e-05,-1.5051026598524548
-4.0033703703703701e-05,-0.37955342936030656
-4.0023703703703706e-05,-1.7995344121999075
-4.0013703703703705e-05,-0.12611850328843571
-4.0003703703703703e-05,-2.004518543581046
-3.9993703703703701e-05,0.019233880780856333
-3.9983703703703707e-05,-2.1126010855810402
-3.9973703703703705e-05,0.10868150174814054
-3.9963703703703703e-05,-2.1647788644790262
-3.9953703703703702e-05,0.11240848595507032
-3.9943703703703707e-05,-2.1200550539948537
-3.9933703703703705e-05,0.067684675471912939
-3.9923703703703704e-05,-2.0529693382711329
-3.9913703703703702e-05,-0.021762945494401817
-3.9903703703703707e-05,-1.9448867962692944
-3.9893703703703706e-05,-0.1633883453577335
-3.9883703703703704e-05,-1.7659915543375395
-3.9873703703703703e-05,-0.33855660308343327
-3.9863703703703701e-05,-1.5833693281975125
-3.9853703703703706e-05,-0.55472168708536063
-3.9843703703703705e-05,-1.3709312284029826
-3.9833703703703703e-05,-0.75970581846649854
-3.9823703703703701e-05,-1.1584931286078937
-3.9813703703703707e-05,-0.95723598143386845
-3.9803703703703705e-05,-0.98705185508921522
-3.9793703703703703e-05,-1.1361312233664065
-3.9783703703703702e-05,-0.83424550260530606
-3.9773703703703707e-05,-1.300118528471105
-3.9763703703703705e-05,-0.70007407115562204
-3.9753703703703704e-05,-1.4193820230930698
-3.9743703703703702e-05,-0.59944549756851795
-3.9733703703703707e-05,-1.4790137704035464
-3.9723703703703706e-05,-0.54354073446457118
-3.9713703703703704e-05,-1.5349185335078932
-3.9703703703703703e-05,-0.5025439081883436
-3.9693703703703701e-05,-1.5423725019212815
-3.9683703703703706e-05,-0.50627089239527345
-3.9673703703703705e-05,-1.5423725019217527
-3.9663703703703703e-05,-0.55844867129229037
-3.9653703703703701e-05,-1.4827407546104763
-3.9643703703703706e-05,-0.6031724817758477
-3.9633703703703705e-05,-1.4156550388861402
-3.9623703703703703e-05,-0.68143915012097311
-3.9613703703703702e-05,-1.3262074179195762
-3.9603703703703707e-05,-0.77834073950139659
-3.9593703703703705e-05,-1.2740296390228083
-3.9583703703703704e-05,-0.85288042363974315
-3.9573703703703702e-05,-1.1473121759871958
-3.9563703703703707e-05,-0.96096296564079142
-3.9553703703703706e-05,-1.0727724918486001
-3.9543703703703704e-05,-1.0205947129515833
-3.9533703703703702e-05,-1.0056867761238641
-3.9523703703703701e-05,-1.1137693181247379
-3.9513703703703706e-05,-0.91623915515754939
-3.9503703703703704e-05,-1.1547661444010553
-3.9493703703703703e-05,-0.86033439205360263
-3.9483703703703701e-05,-1.2069439232978993
-3.9473703703703706e-05,-0.8267915341914075
-3.9463703703703705e-05,-1.2479407495743
-3.9453703703703703e-05,-0.81933756577737504
-3.9443703703703702e-05,-1.2516677337810245
-3.9433703703703707e-05,-0.80070264474293118
-3.9423703703703705e-05,-1.2703026548158787
-3.9413703703703704e-05,-0.80442962894965597
-3.9403703703703702e-05,-1.2479407495743
-3.9393703703703707e-05,-0.81188359736371374
-3.9383703703703706e-05,-1.2143978917119318
-3.9373703703703704e-05,-0.86778836046746222
-3.9363703703703702e-05,-1.1883090022634235
-3.9353703703703701e-05,-0.90133121832994034
-3.9343703703703706e-05,-1.143585191780266
-3.9333703703703704e-05,-0.91623915515754939
-3.9323703703703703e-05,-1.1174963023317577
-3.9313703703703701e-05,-0.96841693405461371
-3.9303703703703706e-05,-1.0727724918485526
-3.9293703703703705e-05,-1.0168677287446535
-3.9283703703703703e-05,-1.024321697158513
-3.9273703703703702e-05,-1.0392296339862153
-3.9263703703703707e-05,-1.0019597919169512
-3.9253703703703705e-05,-1.07649947605553
-3.9243703703703704e-05,-0.97959788667535563
-3.9233703703703702e-05,-1.1025883655040385
-3.9223703703703707e-05,-0.96468994984769929
-3.9213703703703706e-05,-1.1137693181248278
-3.9203703703703704e-05,-0.94232804460605779
-3.9193703703703702e-05,-1.1249502707456172
-3.9183703703703701e-05,-0.9348740761922848
-3.9173703703703706e-05,-1.1249502707456172
-3.9163703703703704e-05,-0.92369312357140898
-3.9153703703703703e-05,-1.1249502707456172
-3.9143703703703701e-05,-0.9311470919853464
-3.9133703703703706e-05,-1.1025883655040385
-3.9123703703703705e-05,-0.93860106039912805
-3.9113703703703703e-05,-1.110042333917898
-3.9103703703703702e-05,-0.960962965640766
-3.9093703703703707e-05,-1.0914074128831899
-3.9083703703703705e-05,-0.97587090246842589
-3.9073703703703703e-05,-1.0839534444693895
-3.9063703703703702e-05,-0.97587090246842589
-3.9053703703703707e-05,-1.0615915392277717
-3.9043703703703705e-05,-0.99823280771000455
-3.9033703703703704e-05,-1.042956618193162
-3.9023703703703702e-05,-1.0355026497793023
-3.9013703703703701e-05,-1.016867728744667
-3.9003703703703706e-05,-1.0466836024000916
-3.8993703703703704e-05,-1.0019597919169343
-3.8983703703703703e-05,-1.0541375708139513
-3.8973703703703701e-05,-1.0019597919169614
-3.8963703703703706e-05,-1.0615915392278108
-3.8953703703703705e-05,-0.97214391826149615
-3.8943703703703703e-05,-1.0541375708139513
-3.8933703703703701e-05,-0.972143918261547
-3.8923703703703707e-05,-1.0839534444693386
-3.8913703703703705e-05,-0.98332487088228548
-3.8903703703703703e-05,-1.07649947605553
-3.8893703703703702e-05,-0.98705185508921522
-3.8883703703703707e-05,-1.0615915392277768
-3.8873703703703705e-05,-0.99823280771000455
-3.8863703703703704e-05,-1.0653185234347406
-3.8853703703703702e-05,-0.99077883929614496
-3.8843703703703707e-05,-1.0429566181931382
-3.8833703703703706e-05,-0.99450582350307482
-3.8823703703703704e-05,-1.0317756655723727
-3.8813703703703703e-05,-0.99450582350307482
-3.8803703703703701e-05,-1.0205947129515867
-3.8793703703703706e-05,-1.0280486813654428
-3.8783703703703705e-05,-1.0317756655723727
-3.8773703703703703e-05,-1.0131407445377236
-3.8763703703703701e-05,-1.0019597919169394
-3.8753703703703707e-05,-1.0131407445377185
-3.8743703703703705e-05,-1.0205947129515833
-3.8733703703703703e-05,-1.0317756655723727
-3.8723703703703702e-05,-1.0056867761238759
-3.8713703703703707e-05,-1.0317756655723609
-3.8703703703703705e-05,-1.0168677287446535
-3.8693703703703704e-05,-1.0355026497793023
-3.8683703703703702e-05,-1.0056867761238641
-3.8673703703703707e-05,-1.0317756655723609
-3.8663703703703706e-05,-1.0056867761238641
-3.8653703703703704e-05,-1.042956618193162
-3.8643703703703703e-05,-1.0019597919169343
-3.8633703703703701e-05,-1.0578645550208541
-3.8623703703703706e-05,-0.99823280771000455
-3.8613703703703705e-05,-1.0355026497793023
-3.8603703703703703e-05,-1.0019597919169343
-3.8593703703703701e-05,-1.0541375708137091
-3.8583703703703706e-05,-0.52117882922323489
-3.8573703703703705e-05,6.4706435429772782
-3.8563703703703703e-05,2.2256085312842568
-3.8553703703703702e-05,5.5314435228293997
-3.8543703703703707e-05,2.0728021788017079
-3.8533703703703705e-05,5.546351459658692
-3.8523703703703704e-05,2.0541672577654868
-3.8513703703703702e-05,5.5239895544171134
-3.8503703703703707e-05,2.1920656734234036
-3.8493703703703706e-05,5.326459391449835
-3.8483703703703704e-05,2.434319646872324
-3.8473703703703702e-05,5.0618435127578207
-3.8463703703703701e-05,2.7473863202553228
-3.8453703703703706e-05,4.7189609657202807
-3.8443703703703704e-05,3.0828148988781061
-3.8433703703703703e-05,4.3947133397173896
-3.8423703703703701e-05,3.4480593511574975
-3.8413703703703706e-05,4.0481038084726473
-3.8403703703703705e-05,3.7350371350908178
-3.8393703703703703e-05,3.7313101508838882
-3.8383703703703702e-05,4.0331958716449394
-3.8373703703703707e-05,3.4592403037782748
-3.8363703703703705e-05,4.2679958766817769
-3.8353703703703704e-05,3.2244402987414382
-3.8343703703703702e-05,4.4468911186144062
-3.8333703703703707e-05,3.0790879146717982
-3.8323703703703706e-05,4.543792707994581
-3.8313703703703704e-05,2.959824420049423
-3.8303703703703702e-05,4.610878423719317
-3.8293703703703701e-05,2.9188275937739707
-3.8283703703703706e-05,4.6220593763401059
-3.8273703703703704e-05,2.9225545779801259
-3.8263703703703703e-05,4.5512466764084403
-3.8253703703703701e-05,2.9747323568778357
-3.8243703703703706e-05,4.49906889751073
-3.8233703703703705e-05,3.0604529936365275
-3.8223703703703703e-05,4.3835323870965999
-3.8213703703703702e-05,3.1797164882587725
-3.8203703703703707e-05,4.2605419082674256
-3.8193703703703705e-05,3.3064339512938927
-3.8183703703703704e-05,4.1077355557837967
-3.8173703703703702e-05,3.4517863353641545
-3.8163703703703707e-05,3.8952974559885973
-3.8153703703703706e-05,-1.1734010654357043
-3.8143703703703704e-05,-0.96096296564070671
-3.8133703703703702e-05,-1.1734010654357043
-3.8123703703703701e-05,-0.53981375025818379
-3.8113703703703706e-05,-1.7324486964751715
-3.8103703703703704e-05,-0.047851834942910287
-3.8093703703703703e-05,-2.1386899750305179
-3.8083703703703701e-05,0.24285293319644663
-3.8073703703703706e-05,-2.3213122011700769
-3.8063703703703705e-05,0.38447833306094437
-3.8053703703703703e-05,-2.4219407747571813
-3.8043703703703701e-05,0.42174817512893209
-3.8033703703703707e-05,-2.4592106168251693
-3.8023703703703705e-05,0.40311325409559329
-3.8013703703703703e-05,-2.395851885308673
-3.8003703703703702e-05,0.34720849099164652
-3.7993703703703707e-05,-2.2840423590995824
-3.7983703703703705e-05,0.17204023326594681
-3.7973703703703704e-05,-2.1163280697889393
-3.7963703703703702e-05,-0.025489929701331598
-3.7953703703703707e-05,-1.8889820331653751
-3.7943703703703706e-05,-0.26774390315176738
-3.7933703703703704e-05,-1.6430010755088567
-3.7923703703703703e-05,-0.51372486080913293
-3.7913703703703701e-05,-1.3634772599888707
-3.7903703703703706e-05,-0.80815661315658571
-3.7893703703703705e-05,-1.1063153497109683
-3.7883703703703703e-05,-1.0355026497793023
-3.7873703703703701e-05,-0.87896931308842274
-3.7863703703703707e-05,-1.2553947179879883
-3.7853703703703705e-05,-0.6888931185348327
-3.7843703703703703e-05,-1.4305629757138592
-3.7833703703703702e-05,-0.52863279763685211
-3.7823703703703707e-05,-1.5647344071628602
-3.7813703703703705e-05,-0.42427723984281823
-3.7803703703703704e-05,-1.6579090123365758
-3.7793703703703702e-05,-0.36464549253194173
-3.7783703703703707e-05,-1.702632822819125
-3.7773703703703706e-05,-0.3497375557042226
-3.7763703703703704e-05,-1.6951788544058737
-3.7753703703703703e-05,-0.37582644515273106
-3.7743703703703701e-05,-1.6541820281290902
-3.7733703703703706e-05,-0.43173120825667777
-3.7723703703703705e-05,-1.5908232966118399
-3.7713703703703703e-05,-0.51745184501606278
-3.7703703703703701e-05,-1.4901947230243322
-3.7693703703703707e-05,-0.60317248177585103
-3.7683703703703705e-05,-1.3932931336445613
-3.7673703703703703e-05,-0.71870899219027096
-3.7663703703703702e-05,-1.2628486864018273
-3.7653703703703707e-05,-0.84169947101914522
-3.7643703703703705e-05,-1.1473121759871958
-3.7633703703703704e-05,-0.9684169340545663
-3.7623703703703702e-05,-1.0317756655723727
-3.7613703703703707e-05,-1.0914074128832221
-3.7603703703703706e-05,-0.94232804460605779
-3.7593703703703704e-05,-1.1771280496426342
-3.7583703703703703e-05,-0.85660740784667289
-3.7573703703703701e-05,-1.2628486864018071
-3.7563703703703706e-05,-0.79697566053579638
-3.7553703703703704e-05,-1.2926645600574573
-3.7543703703703703e-05,-0.76343280267342828
-3.7533703703703701e-05,-1.3187534495057049
-3.7523703703703706e-05,-0.74479788163904048
-3.7513703703703705e-05,-1.3262074179198253
-3.7503703703703703e-05,-0.73734391322491988
-3.7493703703703702e-05,-1.3299344021264958
-3.7483703703703707e-05,-0.75970581846675789
-3.7473703703703705e-05,-1.3038455126782467
-3.7463703703703704e-05,-0.77461375529421772
-3.7453703703703702e-05,-1.2591217021950893
-3.7443703703703707e-05,-0.82679153419143125
-3.7433703703703706e-05,-1.2181248759188616
-3.7423703703703704e-05,-0.87896931308825155
-3.7413703703703702e-05,-1.1696740812287745
-3.7403703703703701e-05,-0.92742010777842521
-3.7393703703703706e-05,-1.1174963023317577
-3.7383703703703704e-05,-0.97587090246842589
-3.7373703703703703e-05,-1.0839534444693895
-3.7363703703703701e-05,-1.0243216971585112
-3.7353703703703706e-05,-1.0205947129515851
-3.7343703703703705e-05,-1.0653185234347406
-3.7333703703703703e-05,-0.96468994984763656
-3.7323703703703702e-05,-1.1063153497108955
-3.7313703703703707e-05,-0.94605502881306047
-3.7303703703703705e-05,-1.128677254952547
-3.7293703703703704e-05,-0.93860106039912805
-3.7283703703703702e-05,-1.1584931286079851
-3.7273703703703707e-05,-0.89760423412301904
-3.7263703703703706e-05,-1.162220112814915
-3.7253703703703704e-05,-0.91623915515754939
-3.7243703703703702e-05,-1.1659470970218446
-3.7233703703703701e-05,-0.90878518674378639
-3.7223703703703706e-05,-1.1212232865386873
-3.7213703703703704e-05,-0.91623915515754939
-3.7203703703703703e-05,-1.1324042391594766
-3.7193703703703701e-05,-0.95350899722692861
-3.7183703703703706e-05,-1.1324042391593954
-3.7173703703703705e-05,-0.96468994984763656
-3.7163703703703703e-05,-1.0951343970901788
-3.7153703703703702e-05,-0.97959788667540648
-3.7143703703703707e-05,-1.0914074128831983
-3.7133703703703705e-05,-0.99077883929614496
-3.7123703703703704e-05,-1.0541375708139513
-3.7113703703703702e-05,-1.0168677287446535
-3.7103703703703707e-05,-1.0205947129515816
-3.7093703703703706e-05,-1.042956618193162
-3.7083703703703704e-05,-1.0205947129515833
-3.7073703703703702e-05,-1.0615915392278108
-3.7063703703703701e-05,-1.0056867761238946
-3.7053703703703706e-05,-1.0727724918486001
-3.7043703703703704e-05,-0.97587090246842589
-3.7033703703703703e-05,-1.0951343970901788
-3.7023703703703701e-05,-0.97959788667539804
-3.7013703703703706e-05,-1.0727724918486001
-3.7003703703703705e-05,-0.97214391826149615
-3.6993703703703703e-05,-1.0802264602624598
-3.6983703703703701e-05,-0.96841693405461549
-3.6973703703703707e-05,-1.0764994760554809
-3.6963703703703705e-05,-0.9684169340545663
-3.6953703703703703e-05,-1.0802264602624598
-3.6943703703703702e-05,-0.97587090246842589
-3.6933703703703707e-05,-1.0802264602624123
-3.6923703703703705e-05,-0.98705185508921522
-3.6913703703703704e-05,-1.0727724918486001
-3.6903703703703702e-05,-1.009413760330794
-3.6893703703703707e-05,-1.0504105866070028
-3.6883703703703706e-05,-1.009413760330794
-3.6873703703703704e-05,-1.0504105866070215
-3.6863703703703703e-05,-1.0131407445377236
-3.6853703703703701e-05,-1.0317756655723744
-3.6843703703703706e-05,-1.0355026497793023
-3.6833703703703705e-05,-1.024321697158513
-3.6823703703703703e-05,-1.0168677287446535
-3.6813703703703701e-05,-1.0205947129515951
-3.6803703703703707e-05,-1.0466836024000798
-3.6793703703703705e-05,-0.99450582350307482
-3.6783703703703703e-05,-1.0541375708139513
-3.6773703703703702e-05,-1.0019597919169343
-3.6763703703703707e-05,-1.035502649779287
-3.6753703703703705e-05,-1.0056867761238641
-3.6743703703703704e-05,-1.0578645550208812
-3.6733703703703702e-05,-0.99450582350307482
-3.6723703703703707e-05,-1.0504105866069962
-3.6713703703703706e-05,-0.99450582350307482
-3.6703703703703704e-05,-1.0504105866070215
-3.6693703703703703e-05,-0.97587090246842589
-3.6683703703703701e-05,-1.0504105866069977
-3.6673703703703706e-05,-0.99823280771000455
-3.6663703703703705e-05,-1.0466836024000916
-3.6653703703703703e-05,-0.99450582350307482
-3.6643703703703701e-05,-1.0392296339862168
-3.6633703703703707e-05,-1.0056867761238795
-3.6623703703703705e-05,-1.0466836024000916
-3.6613703703703703e-05,-1.0168677287446535
-3.6603703703703702e-05,-1.0317756655723609
-3.6593703703703707e-05,-1.0056867761238759
-3.6583703703703705e-05,-1.0392296339862321
-3.6573703703703704e-05,-1.0280486813654428
-3.6563703703703702e-05,-1.042956618193162
-3.6553703703703707e-05,-0.14475342432349303
-3.6543703703703706e-05,6.7240784690485027
-3.6533703703703704e-05,1.9684466210061016
-3.6523703703703702e-05,5.661887970073515
-3.6513703703703701e-05,2.0392593209393404
-3.6503703703703706e-05,5.4979006649686051
-3.6493703703703704e-05,2.1734307523872394
-3.6483703703703703e-05,5.3227324072429054
-3.6473703703703701e-05,2.4119577416319404
-3.6463703703703706e-05,5.0394816075150466
-3.6453703703703705e-05,2.7473863202544262
-3.6443703703703703e-05,4.696599060478702
-3.6433703703703702e-05,3.127538709361799
-3.6423703703703707e-05,4.3052657187505394
-3.6413703703703705e-05,3.5188720510888905
-3.6403703703703704e-05,3.9288403138511665
-3.6393703703703702e-05,3.8803895191610795
-3.6383703703703707e-05,3.597138719434545
-3.6373703703703706e-05,4.152459366266954
-3.6363703703703704e-05,3.3437037933631908
-3.6353703703703702e-05,4.4058942923381785
-3.6343703703703701e-05,3.1051768041203456
-3.6333703703703706e-05,4.5587006448222995
-3.6323703703703704e-05,2.9747323568771424
-3.6313703703703703e-05,4.6518752499955447
-3.6303703703703701e-05,2.862922830670088
-3.6293703703703706e-05,4.7077800130986525
-3.6283703703703705e-05,2.8368339412207408
-3.6273703703703703e-05,4.7040530288925613
-3.6263703703703702e-05,2.8554688622562034
-3.6253703703703707e-05,4.644421281580871
-3.6243703703703705e-05,2.9262815621870555
-3.6233703703703704e-05,4.5475196922015106
-3.6223703703703702e-05,3.0418180726018784
