Power_measurements/SKINNY_128_csv/skinny_c160_idle_7.csv

#Digilent WaveForms Oscilloscope Acquisition
#Device Name: Discovery2
#Serial Number: SN:210321A1A9F5
#Date Time: 2018-06-28 17:06:10.360
#Sample rate: 1e+08Hz
#Samples: 8192
#Trigger: Source: Channel 1 Type: Edge Condition: Rising Level: 2 V Hyst.: Auto HoldOff: 0 s
#Channel 2: Range: 1 V/div Offset: 0 V

Time (s),Channel 2 (V)
-4.0698387799564273e-05,0.96588786934199033
-4.0688387799564272e-05,0.98079580616970941
-4.067838779956427e-05,0.97334183775585148
-4.0668387799564275e-05,0.977068821962778
-4.0658387799564274e-05,0.99197675879049874
-4.0648387799564272e-05,0.988249774583569
-4.063838779956427e-05,0.96216088513506048
-4.0628387799564276e-05,0.96588786934198867
-4.0618387799564274e-05,0.96588786934199033
-4.0608387799564272e-05,0.97706882196277967
-4.0598387799564271e-05,0.97334183775584981
-4.0588387799564269e-05,0.96961485354892352
-4.0578387799564274e-05,0.97706882196277967
-4.0568387799564273e-05,0.96961485354892007
-4.0558387799564271e-05,0.96961485354892007
-4.054838779956427e-05,0.97706882196278133
-4.0538387799564275e-05,0.98079580616970774
-4.0528387799564273e-05,0.96961485354892007
-4.0518387799564272e-05,0.988249774583569
-4.050838779956427e-05,0.97706882196278133
-4.0498387799564275e-05,0.98079580616970774
-4.0488387799564273e-05,0.97706882196277967
-4.0478387799564272e-05,0.97706882196277967
-4.046838779956427e-05,0.98452279037663915
-4.0458387799564275e-05,0.96588786934199877
-4.0448387799564274e-05,0.96961485354892007
-4.0438387799564272e-05,0.988249774583569
-4.0428387799564271e-05,0.97334183775584981
-4.0418387799564269e-05,0.98079580616970774
-4.0408387799564274e-05,0.97706882196277967
-4.0398387799564273e-05,0.95097993251427115
-4.0388387799564271e-05,0.97334183775584981
-4.0378387799564269e-05,0.97706882196277967
-4.0368387799564275e-05,0.97706882196277967
-4.0358387799564273e-05,0.96588786934199033
-4.0348387799564271e-05,0.96588786934199033
-4.033838779956427e-05,0.96961485354892685
-4.0328387799564275e-05,0.98452279037663237
-4.0318387799564273e-05,0.988249774583569
-4.0308387799564272e-05,0.97706882196277967
-4.029838779956427e-05,0.96588786934199033
-4.0288387799564275e-05,0.96961485354891841
-4.0278387799564274e-05,0.96961485354892007
-4.0268387799564272e-05,0.96216088513506048
-4.0258387799564271e-05,0.96216088513506048
-4.0248387799564269e-05,0.97334183775585492
-4.0238387799564274e-05,0.98452279037663915
-4.0228387799564273e-05,0.97334183775584981
-4.0218387799564271e-05,0.97334183775584981
-4.0208387799564269e-05,0.98452279037663915
-4.0198387799564275e-05,0.98452279037663915
-4.0188387799564273e-05,0.97334183775584981
-4.0178387799564271e-05,0.96961485354892007
-4.016838779956427e-05,0.96216088513506393
-4.0158387799564275e-05,0.96961485354891663
-4.0148387799564273e-05,0.97334183775584981
-4.0138387799564272e-05,0.98079580616970941
-4.012838779956427e-05,0.98079580616970941
-4.0118387799564275e-05,0.96961485354892518
-4.0108387799564274e-05,0.97334183775584981
-4.0098387799564272e-05,0.96961485354892007
-4.0088387799564271e-05,0.98452279037663915
-4.0078387799564269e-05,0.97706882196278133
-4.0068387799564274e-05,0.98079580616970941
-4.0058387799564273e-05,0.96588786934199033
-4.0048387799564271e-05,0.98452279037663915
-4.0038387799564269e-05,0.96961485354892352
-4.0028387799564275e-05,0.97706882196277967
-4.0018387799564273e-05,0.95843390092813074
-4.0008387799564271e-05,0.96216088513506048
-3.999838779956427e-05,0.97334183775584981
-3.9988387799564275e-05,0.97334183775584981
-3.9978387799564273e-05,0.96961485354892007
-3.9968387799564272e-05,0.97334183775584981
-3.995838779956427e-05,0.96216088513506048
-3.9948387799564275e-05,0.96961485354891663
-3.9938387799564274e-05,0.97706882196277967
-3.9928387799564272e-05,0.95843390092813074
-3.991838779956427e-05,0.96216088513506048
-3.9908387799564276e-05,0.96216088513506048
-3.9898387799564274e-05,0.98079580616970941
-3.9888387799564272e-05,0.95470691672120089
-3.9878387799564271e-05,0.98079580616970941
-3.9868387799564269e-05,0.95470691672120434
-3.9858387799564274e-05,0.96216088513506048
-3.9848387799564273e-05,0.94725294830734141
-3.9838387799564271e-05,0.98452279037663915
-3.982838779956427e-05,0.94352596410041834
-3.9818387799564275e-05,0.95843390092812397
-3.9808387799564273e-05,0.96216088513506048
-3.9798387799564272e-05,0.96216088513506048
-3.978838779956427e-05,0.97706882196278311
-3.9778387799564275e-05,0.9845227903766357
-3.9768387799564274e-05,0.95843390092813074
-3.9758387799564272e-05,0.96216088513506048
-3.974838779956427e-05,0.98079580616970941
-3.9738387799564276e-05,0.98079580616970941
-3.9728387799564274e-05,0.95470691672120089
-3.9718387799564272e-05,0.96588786934199033
-3.9708387799564271e-05,0.97334183775584981
-3.9698387799564269e-05,0.95097993251427959
-3.9688387799564274e-05,0.96961485354892007
-3.9678387799564273e-05,0.95843390092813074
-3.9668387799564271e-05,0.96588786934199033
-3.965838779956427e-05,0.96216088513505882
-3.9648387799564275e-05,0.95843390092813241
-3.9638387799564273e-05,0.95097993251427115
-3.9628387799564272e-05,0.988249774583569
-3.961838779956427e-05,0.97334183775584304
-3.9608387799564275e-05,0.95843390092813752
-3.9598387799564274e-05,0.98079580616970941
-3.9588387799564272e-05,0.95097993251427115
-3.957838779956427e-05,0.97706882196277967
-3.9568387799564276e-05,0.96588786934199544
-3.9558387799564274e-05,0.97334183775584981
-3.9548387799564272e-05,0.95470691672120089
-3.9538387799564271e-05,0.96588786934199033
-3.9528387799564269e-05,0.98824977458355712
-3.9518387799564274e-05,0.96216088513506048
-3.9508387799564273e-05,0.97706882196277967
-3.9498387799564271e-05,0.98079580616970941
-3.948838779956427e-05,0.96216088513506393
-3.9478387799564275e-05,0.96961485354891663
-3.9468387799564273e-05,0.98452279037663915
-3.9458387799564271e-05,0.95470691672120089
-3.944838779956427e-05,0.95843390092814262
-3.9438387799564275e-05,0.98452279037662727
-3.9428387799564273e-05,0.97706882196277967
-3.9418387799564272e-05,0.97706882196277967
-3.940838779956427e-05,0.96961485354892007
-3.9398387799564275e-05,0.96216088513506393
-3.9388387799564274e-05,0.96961485354892007
-3.9378387799564272e-05,0.95843390092813074
-3.9368387799564271e-05,0.97334183775584981
-3.9358387799564269e-05,0.96588786934199544
-3.9348387799564274e-05,0.97706882196277967
-3.9338387799564273e-05,0.988249774583569
-3.9328387799564271e-05,0.95470691672120089
-3.9318387799564269e-05,0.977068821962778
-3.9308387799564275e-05,0.97334183775585148
-3.9298387799564273e-05,0.96588786934199033
-3.9288387799564271e-05,0.98452279037663915
-3.927838779956427e-05,0.96216088513506892
-3.9268387799564275e-05,0.98079580616970097
-3.9258387799564273e-05,0.96961485354892007
-3.9248387799564272e-05,0.96588786934199033
-3.923838779956427e-05,0.96216088513506048
-3.9228387799564275e-05,0.95470691672120434
-3.9218387799564274e-05,0.96588786934199033
-3.9208387799564272e-05,0.96216088513506048
-3.9198387799564271e-05,0.98452279037663915
-3.9188387799564269e-05,0.97334183775584637
-3.9178387799564274e-05,0.96588786934199033
-3.9168387799564273e-05,0.96961485354892007
-3.9158387799564271e-05,0.96588786934199033
-3.9148387799564269e-05,0.95843390092813585
-3.9138387799564275e-05,0.96961485354892007
-3.9128387799564273e-05,0.96216088513506048
-3.9118387799564271e-05,0.96588786934199033
-3.910838779956427e-05,0.97334183775584138
-3.9098387799564275e-05,0.95470691672120933
-3.9088387799564273e-05,0.96216088513506048
-3.9078387799564272e-05,0.96216088513506048
-3.906838779956427e-05,0.97334183775584981
-3.9058387799564275e-05,0.96588786934199378
-3.9048387799564274e-05,0.95843390092813074
-3.9038387799564272e-05,0.96216088513506048
-3.9028387799564271e-05,0.98079580616970941
-3.9018387799564269e-05,0.96588786934198523
-3.9008387799564274e-05,0.95470691672120089
-3.8998387799564273e-05,0.96216088513506048
-3.8988387799564271e-05,0.97706882196277967
-3.8978387799564269e-05,0.96961485354892352
-3.8968387799564274e-05,0.97706882196277967
-3.8958387799564273e-05,0.98079580616970941
-3.8948387799564271e-05,0.97334183775584981
-3.893838779956427e-05,0.96216088513507236
-3.8928387799564275e-05,0.98824977458355712
-3.8918387799564273e-05,0.988249774583569
-3.8908387799564272e-05,0.96961485354892007
-3.889838779956427e-05,0.97706882196277967
-3.8888387799564275e-05,0.98079580616970774
-3.8878387799564274e-05,0.96961485354892007
-3.8868387799564272e-05,0.98079580616970941
-3.885838779956427e-05,0.97706882196277967
-3.8848387799564276e-05,0.9845227903766357
-3.8838387799564274e-05,0.97334183775584981
-3.8828387799564272e-05,0.99197675879049874
-3.8818387799564271e-05,0.97706882196277967
-3.8808387799564269e-05,0.96216088513506048
-3.8798387799564274e-05,0.96216088513506048
-3.8788387799564273e-05,0.96588786934199033
-3.8778387799564271e-05,0.98452279037663915
-3.876838779956427e-05,0.96961485354892007
-3.8758387799564275e-05,0.96961485354892007
-3.8748387799564273e-05,0.96588786934199033
-3.8738387799564272e-05,0.96216088513506048
-3.872838779956427e-05,0.97334183775584981
-3.8718387799564275e-05,0.97334183775584981
-3.8708387799564274e-05,0.97334183775584981
-3.8698387799564272e-05,0.97334183775584981
-3.868838779956427e-05,0.97334183775584981
-3.8678387799564276e-05,0.96588786934199378
-3.8668387799564274e-05,0.98079580616970941
-3.8658387799564272e-05,0.96216088513506048
-3.8648387799564271e-05,0.988249774583569
-3.8638387799564269e-05,0.98452279037663404
-3.8628387799564274e-05,0.97334183775584981
-3.8618387799564273e-05,0.96588786934199033
-3.8608387799564271e-05,0.96216088513506048
-3.859838779956427e-05,0.97706882196277456
-3.8588387799564275e-05,0.96588786934199544
-3.8578387799564273e-05,0.96961485354892007
-3.8568387799564272e-05,0.95097993251427115
-3.855838779956427e-05,0.99570374299742681
-3.8548387799564275e-05,0.9919767587905004
-3.8538387799564274e-05,0.97334183775584981
-3.8528387799564272e-05,0.96588786934199033
-3.851838779956427e-05,0.97334183775584981
-3.8508387799564276e-05,0.97334183775584981
-3.8498387799564274e-05,0.99943072720435833
-3.8488387799564272e-05,0.96961485354892007
-3.8478387799564271e-05,0.97334183775584981
-3.8468387799564269e-05,0.977068821962778
-3.8458387799564274e-05,0.97334183775584981
-3.8448387799564273e-05,0.97706882196277967
-3.8438387799564271e-05,0.96961485354892007
-3.8428387799564269e-05,0.97706882196277289
-3.8418387799564275e-05,0.96216088513506726
-3.8408387799564273e-05,0.96961485354892007
-3.8398387799564271e-05,0.99570374299742848
-3.838838779956427e-05,0.965887869341992
-3.8378387799564275e-05,0.96961485354891841
-3.8368387799564273e-05,0.96588786934199033
-3.8358387799564272e-05,0.97706882196277967
-3.834838779956427e-05,0.98452279037663915
-3.8338387799564275e-05,0.95470691672121444
-3.8328387799564274e-05,0.95470691672120089
-3.8318387799564272e-05,0.97706882196277967
-3.8308387799564271e-05,0.96588786934199033
-3.8298387799564269e-05,0.98452279037663915
-3.8288387799564274e-05,0.98452279037663915
-3.8278387799564273e-05,0.98079580616970941
-3.8268387799564271e-05,0.97706882196277967
-3.8258387799564269e-05,0.98824977458356389
-3.8248387799564275e-05,0.97706882196278477
-3.8238387799564273e-05,0.96961485354892007
-3.8228387799564271e-05,0.95843390092813074
-3.821838779956427e-05,0.99197675879048686
-3.8208387799564275e-05,0.96588786934200221
-3.8198387799564273e-05,0.96961485354892007
-3.8188387799564272e-05,0.97334183775584981
-3.817838779956427e-05,0.97706882196277967
-3.8168387799564275e-05,0.97334183775585148
-3.8158387799564274e-05,0.95843390092813074
-3.8148387799564272e-05,0.96961485354892007
-3.8138387799564271e-05,0.97334183775584981
-3.8128387799564269e-05,0.96588786934199033
-3.8118387799564274e-05,0.96588786934199033
-3.8108387799564273e-05,0.97334183775584981
-3.8098387799564271e-05,0.97706882196277967
-3.8088387799564269e-05,0.96961485354892174
-3.8078387799564275e-05,0.97334183775584981
-3.8068387799564273e-05,0.96588786934199033
-3.8058387799564271e-05,0.97334183775584981
-3.804838779956427e-05,0.96216088513506215
-3.8038387799564275e-05,0.96588786934198867
-3.8028387799564273e-05,0.96961485354892007
-3.8018387799564272e-05,0.96216088513506048
-3.800838779956427e-05,0.96216088513506048
-3.7998387799564275e-05,0.96961485354891663
-3.7988387799564274e-05,0.98452279037663915
-3.7978387799564272e-05,0.97334183775584981
-3.7968387799564271e-05,0.95843390092813074
-3.7958387799564276e-05,0.96961485354891497
-3.7948387799564274e-05,0.96588786934199033
-3.7938387799564272e-05,0.99197675879049874
-3.7928387799564271e-05,0.98079580616970941
-3.7918387799564269e-05,0.94725294830735329
-3.7908387799564274e-05,0.97334183775584981
-3.7898387799564273e-05,0.98452279037663915
-3.7888387799564271e-05,0.95843390092813074
-3.787838779956427e-05,0.98079580616969586
-3.7868387799564275e-05,0.9509799325142847
-3.7858387799564273e-05,0.95843390092813074
-3.7848387799564272e-05,0.96961485354892007
-3.783838779956427e-05,0.98079580616970941
-3.7828387799564275e-05,0.95843390092814096
-3.7818387799564274e-05,0.95843390092813074
-3.7808387799564272e-05,0.95470691672120089
-3.779838779956427e-05,0.96961485354892007
-3.7788387799564276e-05,0.9807958061697043
-3.7778387799564274e-05,0.95097993251427115
-3.7768387799564272e-05,0.96961485354892007
-3.7758387799564271e-05,0.96961485354892007
-3.7748387799564269e-05,0.96216088513506393
-3.7738387799564274e-05,0.96961485354892007
-3.7728387799564273e-05,0.95470691672120089
-3.7718387799564271e-05,0.98452279037663915
-3.770838779956427e-05,0.97706882196277123
-3.7698387799564275e-05,0.95843390092813918
-3.7688387799564273e-05,0.96961485354892007
-3.7678387799564272e-05,0.98452279037663915
-3.766838779956427e-05,0.94725294830735163
-3.7658387799564275e-05,0.96961485354890986
-3.7648387799564274e-05,0.95843390092813074
-3.7638387799564272e-05,0.98079580616970941
-3.762838779956427e-05,0.98079580616970941
-3.7618387799564276e-05,0.96216088513506892
-3.7608387799564274e-05,0.988249774583569
-3.7598387799564272e-05,0.98452279037663915
-3.7588387799564271e-05,0.97706882196277967
-3.7578387799564269e-05,0.96961485354891841
-3.7568387799564274e-05,0.96588786934199033
-3.7558387799564273e-05,0.96961485354892007
-3.7548387799564271e-05,0.97334183775584981
-3.753838779956427e-05,0.98824977458356733
-3.7528387799564275e-05,0.98452279037664081
-3.7518387799564273e-05,0.96961485354892007
-3.7508387799564272e-05,0.988249774583569
-3.749838779956427e-05,0.98452279037663071
-3.7488387799564275e-05,0.96588786934199877
-3.7478387799564274e-05,0.97706882196277967
-3.7468387799564272e-05,0.97706882196277967
-3.745838779956427e-05,0.96588786934199033
-3.7448387799564275e-05,0.96588786934199033
-3.7438387799564274e-05,0.96961485354892007
-3.7428387799564272e-05,0.96961485354892007
-3.7418387799564271e-05,0.95843390092813074
-3.7408387799564269e-05,0.96216088513506559
-3.7398387799564274e-05,0.97334183775584981
-3.7388387799564273e-05,0.97334183775584981
-3.7378387799564271e-05,0.97706882196277967
-3.7368387799564269e-05,0.9621608851350707
-3.7358387799564275e-05,0.98452279037662893
-3.7348387799564273e-05,0.97334183775584981
-3.7338387799564271e-05,0.96588786934199033
-3.732838779956427e-05,0.98452279037663915
-3.7318387799564275e-05,0.98452279037663915
-3.7308387799564273e-05,0.98452279037663915
-3.7298387799564272e-05,0.98079580616970941
-3.728838779956427e-05,0.97334183775584981
-3.7278387799564275e-05,0.977068821962778
-3.7268387799564274e-05,0.96961485354892007
-3.7258387799564272e-05,0.96961485354892007
-3.7248387799564271e-05,0.988249774583569
-3.7238387799564269e-05,0.95843390092812908
-3.7228387799564274e-05,0.95470691672120089
-3.7218387799564273e-05,0.97334183775584981
-3.7208387799564271e-05,0.97334183775584981
-3.7198387799564269e-05,0.98079580616970596
-3.7188387799564275e-05,0.97334183775585326
-3.7178387799564273e-05,0.96961485354892007
-3.7168387799564271e-05,0.96961485354892007
-3.715838779956427e-05,0.98079580616970263
-3.7148387799564275e-05,0.96588786934199711
-3.7138387799564273e-05,0.95843390092813074
-3.7128387799564272e-05,0.95843390092813074
-3.711838779956427e-05,0.97706882196277967
-3.7108387799564275e-05,0.97334183775585148
-3.7098387799564274e-05,0.96961485354892007
-3.7088387799564272e-05,0.96588786934199033
-3.7078387799564271e-05,0.95470691672120089
-3.7068387799564269e-05,0.96961485354891663
-3.7058387799564274e-05,0.96216088513506048
-3.7048387799564273e-05,0.98452279037663915
-3.7038387799564271e-05,0.96588786934199033
-3.7028387799564269e-05,0.99197675879049196
-3.7018387799564275e-05,0.97706882196277967
-3.7008387799564273e-05,0.988249774583569
-3.6998387799564271e-05,0.97334183775584981
-3.698838779956427e-05,0.96961485354892007
-3.6978387799564275e-05,0.96961485354892007
-3.6968387799564273e-05,0.97334183775584981
-3.6958387799564272e-05,0.96588786934199033
-3.694838779956427e-05,0.98079580616970941
-3.6938387799564275e-05,0.97334183775585326
-3.6928387799564274e-05,0.97334183775584981
-3.6918387799564272e-05,0.96588786934199033
-3.690838779956427e-05,0.97334183775584981
-3.6898387799564276e-05,0.96216088513506559
-3.6888387799564274e-05,0.97706882196277967
-3.6878387799564272e-05,0.95843390092813074
-3.6868387799564271e-05,0.96961485354892007
-3.6858387799564269e-05,0.97334183775585326
-3.6848387799564274e-05,0.98079580616970941
-3.6838387799564273e-05,0.96216088513506048
-3.6828387799564271e-05,0.97706882196277967
-3.681838779956427e-05,0.99197675879048686
-3.6808387799564275e-05,0.96588786934200221
-3.6798387799564273e-05,0.98452279037663915
-3.6788387799564272e-05,0.96588786934199033
-3.677838779956427e-05,0.988249774583569
-3.6768387799564275e-05,0.96961485354892851
-3.6758387799564274e-05,0.96961485354892007
-3.6748387799564272e-05,0.98079580616970941
-3.673838779956427e-05,0.97334183775584981
-3.6728387799564276e-05,0.97334183775584981
-3.6718387799564274e-05,0.96588786934199033
-3.6708387799564272e-05,0.96961485354892007
-3.6698387799564271e-05,0.97334183775584981
-3.6688387799564269e-05,0.98079580616970774
-3.6678387799564274e-05,0.97706882196277967
-3.6668387799564273e-05,0.96216088513506048
-3.6658387799564271e-05,0.95470691672120089
-3.664838779956427e-05,0.97706882196277456
-3.6638387799564275e-05,0.96588786934199544
-3.6628387799564273e-05,0.96961485354892007
-3.6618387799564272e-05,0.97334183775584981
-3.660838779956427e-05,0.98079580616971107
-3.6598387799564275e-05,0.98452279037663748
-3.6588387799564274e-05,0.988249774583569
-3.6578387799564272e-05,0.98452279037663915
-3.656838779956427e-05,0.98079580616970941
-3.6558387799564276e-05,0.98452279037663748
-3.6548387799564274e-05,0.96961485354892007
-3.6538387799564272e-05,0.96588786934199033
-3.6528387799564271e-05,0.96588786934199033
-3.6518387799564269e-05,0.96216088513506892
-3.6508387799564274e-05,0.98079580616970941
-3.6498387799564273e-05,0.96961485354892007
-3.6488387799564271e-05,0.99197675879049874
-3.647838779956427e-05,0.965887869341992
-3.6468387799564275e-05,0.96961485354891841
-3.6458387799564273e-05,0.96216088513506048
-3.6448387799564272e-05,0.99197675879049874
-3.643838779956427e-05,0.97706882196277123
-3.6428387799564275e-05,0.95843390092813918
-3.6418387799564273e-05,0.96961485354892007
-3.6408387799564272e-05,0.95470691672120089
-3.639838779956427e-05,0.95097993251427115
-3.6388387799564275e-05,0.9584339009281273
-3.6378387799564274e-05,0.96588786934199033
-3.6368387799564272e-05,0.97706882196277967
-3.6358387799564271e-05,0.95843390092813074
-3.6348387799564269e-05,0.96588786934199544
-3.6338387799564274e-05,0.97706882196277967
-3.6328387799564273e-05,0.96961485354892007
-3.6318387799564271e-05,0.96216088513506048
-3.6308387799564269e-05,0.96961485354891841
-3.6298387799564275e-05,0.965887869341992
-3.6288387799564273e-05,0.96961485354892007
-3.6278387799564271e-05,0.96588786934199033
-3.626838779956427e-05,0.96961485354891841
-3.6258387799564275e-05,0.965887869341992
-3.6248387799564273e-05,0.95470691672120089
-3.6238387799564272e-05,0.96961485354892007
-3.622838779956427e-05,0.96588786934199033
-3.6218387799564275e-05,0.97334183775584637
