Power_measurements/SKINNY_128_csv/skinny_l3_active_9.csv

#Digilent WaveForms Oscilloscope Acquisition
#Device Name: Discovery2
#Serial Number: SN:210321A1A9F5
#Date Time: 2018-06-28 17:02:46.341
#Sample rate: 1e+08Hz
#Samples: 8192
#Trigger: Source: Channel 1 Type: Edge Condition: Rising Level: 2 V Hyst.: Auto HoldOff: 0 s
#Channel 2: Range: 1 V/div Offset: 0 V

Time (s),Channel 2 (V)
-4.0694106463878329e-05,-1.0355026497793023
-4.0684106463878328e-05,-1.0392296339862321
-4.0674106463878326e-05,-1.0392296339862355
-4.0664106463878331e-05,-1.0466836024000883
-4.0654106463878329e-05,-1.0280486813654428
-4.0644106463878328e-05,-1.0317756655723727
-4.0634106463878326e-05,-1.0504105866070215
-4.0624106463878331e-05,-1.0168677287446688
-4.061410646387833e-05,-1.1398582075733363
-4.0604106463878328e-05,3.7313101508838882
-4.0594106463878327e-05,4.6854181078579122
-4.0584106463878325e-05,3.7238561824699747
-4.057410646387833e-05,3.6045926878482755
-4.0564106463878329e-05,4.3760784186827406
-4.0554106463878327e-05,3.0045482305325804
-4.0544106463878325e-05,4.8382244603410367
-4.0534106463878331e-05,2.6467577466683183
-4.0524106463878329e-05,5.1028403390340475
-4.0514106463878327e-05,2.4566815521139027
-4.0504106463878326e-05,5.210922881033718
-4.0494106463878331e-05,2.3672339311488813
-4.0484106463878329e-05,5.2556466915181694
-4.0474106463878328e-05,2.3821418679753075
-4.0464106463878326e-05,5.173653038965714
-4.0454106463878331e-05,2.4678625047359231
-4.044410646387833e-05,5.020846686481593
-4.0434106463878328e-05,2.6765736203227597
-4.0424106463878327e-05,4.7935006498588759
-4.0414106463878325e-05,2.9486434674293442
-4.040410646387833e-05,4.5102498501322126
-4.0394106463878329e-05,3.2766180776384548
-4.0384106463878327e-05,4.1673673030946725
-4.0374106463878325e-05,3.5859577668137534
-4.0364106463878331e-05,3.8654815823332331
-4.0354106463878329e-05,3.8915704717818684
-4.0344106463878327e-05,3.5524149089512589
-4.0334106463878326e-05,4.1338244452319355
-4.0324106463878331e-05,3.3213418881219816
-4.0314106463878329e-05,4.3499895292342323
-4.0304106463878328e-05,3.1349926777751227
-4.0294106463878326e-05,4.4655260396490553
-4.0284106463878331e-05,3.0231831515678853
-4.027410646387833e-05,4.5139768343391422
-4.0264106463878328e-05,2.9859133094979322
-4.0254106463878327e-05,4.5177038185460718
-4.0244106463878325e-05,3.00082124632632
-4.023410646387833e-05,4.4729800080629145
-4.0224106463878329e-05,3.0716339462573172
-4.0214106463878327e-05,4.353716513441162
-4.0204106463878325e-05,3.1871704566726149
-4.0194106463878331e-05,4.2307260346124789
-4.0184106463878329e-05,2.5237672678386387
-4.0174106463878327e-05,-3.3536868264896267
-4.0164106463878326e-05,1.2491386690666522
-4.0154106463878331e-05,-3.1524296793134154
-4.0144106463878329e-05,1.0926053323776028
-4.0134106463878328e-05,-3.0368931689005949
-4.0124106463878326e-05,0.98079580616970941
-4.0114106463878331e-05,-2.8654518953800756
-4.010410646387833e-05,0.70499897485690555
-4.0094106463878328e-05,-2.548658237792794
-4.0084106463878326e-05,0.31366563312927853
-4.0074106463878325e-05,-2.1014201329603472
-4.006410646387833e-05,-0.18202326639238242
-4.0054106463878328e-05,-1.5721883755771908
-4.0044106463878327e-05,-0.73734391322491988
-4.0034106463878325e-05,-1.0727724918486696
-4.002410646387833e-05,-1.2255788443327214
-4.0014106463878329e-05,-0.61808041860316687
-4.0004106463878327e-05,-1.6243661544742078
-3.9994106463878326e-05,-0.28637882418716032
-3.9984106463878331e-05,-1.9225248910278463
-3.9974106463878329e-05,-0.040397866529050724
-3.9964106463878328e-05,-2.1386899750305179
-3.9954106463878326e-05,0.12731642278278943
-3.9944106463878331e-05,-2.2206836275819057
-3.993410646387833e-05,0.16458626485208727
-3.9924106463878328e-05,-2.2393185486176215
-3.9914106463878326e-05,0.13849737540357879
-3.9904106463878332e-05,-2.1498709276502663
-3.989410646387833e-05,0.01923388078182578
-3.9884106463878328e-05,-2.0194264804087645
-3.9874106463878327e-05,-0.14475342432308461
-3.9864106463878325e-05,-1.7771725069576898
-3.985410646387833e-05,-0.37209946094580126
-3.9844106463878329e-05,-1.5349185335078932
-3.9834106463878327e-05,-0.67025819750018378
-3.9824106463878326e-05,-1.2703026548157312
-3.9814106463878331e-05,-0.94605502881313508
-3.9804106463878329e-05,-1.0280486813654428
-3.9794106463878328e-05,-1.1771280496426342
-3.9784106463878326e-05,-0.78579470791528672
-3.9774106463878331e-05,-1.4007471020581415
-3.976410646387833e-05,-0.58826454494772862
-3.9754106463878328e-05,-1.5460994861286825
-3.9744106463878326e-05,-0.47645501873983515
-3.9734106463878332e-05,-1.6616359965429668
-3.972410646387833e-05,-0.39446136618737998
-3.9714106463878328e-05,-1.6951788544058737
-3.9704106463878327e-05,-0.39073438198045018
-3.9694106463878325e-05,-1.6914518701983658
-3.968410646387833e-05,-0.42055025563588844
-3.9674106463878329e-05,-1.6430010755088567
-3.9664106463878327e-05,-0.49881692398141386
-3.9654106463878326e-05,-1.5311915493005464
-3.9644106463878331e-05,-0.61435343439665402
-3.9634106463878329e-05,-1.4268359915069295
-3.9624106463878327e-05,-0.73361692901799014
-3.9614106463878326e-05,-1.2852105916434147
-3.9604106463878331e-05,-0.88269629729536425
-3.9594106463878329e-05,-1.1510391601941257
-3.9584106463878328e-05,-1.0056867761238641
-3.9574106463878326e-05,-1.009413760330794
-3.9564106463878331e-05,-1.139858207573277
-3.955410646387833e-05,-0.91623915515754939
-3.9544106463878328e-05,-1.2591217021950893
-3.9534106463878327e-05,-0.81188359736351545
-3.9524106463878325e-05,-1.3112994810918519
-3.951410646387833e-05,-0.75225185005263895
-3.9504106463878329e-05,-1.3597502757821933
-3.9494106463878327e-05,-0.70007407115562204
-3.9484106463878325e-05,-1.3672042441957548
-3.9474106463878331e-05,-0.71125502377670968
-3.9464106463878329e-05,-1.382112181023772
-3.9454106463878327e-05,-0.76343280267342828
-3.9444106463878326e-05,-1.3336613863334272
-3.9434106463878331e-05,-0.7671597868806157
-3.9424106463878329e-05,-1.281483607436668
-3.9414106463878328e-05,-0.83424550260509422
-3.9404106463878326e-05,-1.2218518601257915
-3.9394106463878331e-05,-0.89760423412304791
-3.938410646387833e-05,-1.1361312233664065
-3.9374106463878328e-05,-0.96096296564070671
-3.9364106463878327e-05,-1.0690455076416705
-3.9354106463878325e-05,-1.0466836024000763
-3.934410646387833e-05,-1.0131407445377236
-3.9334106463878329e-05,-1.1063153497109683
-3.9324106463878327e-05,-0.94232804460605779
-3.9314106463878325e-05,-1.1622201128148049
-3.9304106463878331e-05,-0.91996613936458926
-3.9294106463878329e-05,-1.1883090022634235
-3.9284106463878327e-05,-0.88269629729518129
-3.9274106463878326e-05,-1.2404867811602691
-3.9264106463878331e-05,-0.86406137626070367
-3.9254106463878329e-05,-1.2106709075050022
-3.9244106463878328e-05,-0.88269629729518129
-3.9234106463878326e-05,-1.2218518601257915
-3.9224106463878331e-05,-0.90878518674383213
-3.921410646387833e-05,-1.1808550338495638
-3.9204106463878328e-05,-0.92369312357140898
-3.9194106463878327e-05,-1.1473121759871958
-3.9184106463878325e-05,-0.9535089972269184
-3.917410646387833e-05,-1.110042333917898
-3.9164106463878329e-05,-0.97214391826149615
-3.9154106463878327e-05,-1.0914074128832492
-3.9144106463878325e-05,-1.0094137603308178
-3.913410646387833e-05,-1.0615915392278108
-3.9124106463878329e-05,-1.042956618193162
-3.9114106463878327e-05,-1.0280486813654428
-3.9104106463878326e-05,-1.0764994760554909
-3.9094106463878331e-05,-0.99077883929618393
-3.9084106463878329e-05,-1.0951343970901788
-3.9074106463878328e-05,-0.9684169340545663
-3.9064106463878326e-05,-1.1324042391594766
-3.9054106463878331e-05,-0.95723598143385669
-3.904410646387833e-05,-1.1473121759871958
-3.9034106463878328e-05,-0.97959788667535563
-3.9024106463878326e-05,-1.1212232865386873
-3.9014106463878325e-05,-0.96096296564078298
-3.900410646387833e-05,-1.128677254952547
-3.8994106463878328e-05,-0.96468994984763656
-3.8984106463878327e-05,-1.1324042391594766
-3.8974106463878325e-05,-0.994505823503124
-3.896410646387833e-05,-1.1025883655040385
-3.8954106463878329e-05,-0.98332487088228548
-3.8944106463878327e-05,-1.0914074128832492
-3.8934106463878326e-05,-1.0205947129516053
-3.8924106463878331e-05,-1.0690455076416485
-3.8914106463878329e-05,-1.0355026497793023
-3.8904106463878328e-05,-1.0392296339862321
-3.8894106463878326e-05,-1.0541375708139513
-3.8884106463878331e-05,-1.0243216971585265
-3.887410646387833e-05,-1.0541375708139513
-3.8864106463878328e-05,-1.0168677287446535
-3.8854106463878326e-05,-1.0615915392278108
-3.8844106463878332e-05,-1.0019597919169614
-3.883410646387833e-05,-1.0876804286763193
-3.8824106463878328e-05,-0.99450582350307482
-3.8814106463878327e-05,-1.07649947605553
-3.8804106463878325e-05,-1.005686776123893
-3.879410646387833e-05,-1.0690455076416705
-3.8784106463878329e-05,-0.99823280771000455
-3.8774106463878327e-05,-1.07649947605553
-3.8764106463878326e-05,-0.98705185508924909
-3.8754106463878331e-05,-1.0615915392277768
-3.8744106463878329e-05,-0.99823280771000455
-3.8734106463878328e-05,-1.0578645550208812
-3.8724106463878326e-05,-1.0168677287446688
-3.8714106463878331e-05,-1.0504105866070061
-3.870410646387833e-05,-0.99823280771000455
-3.8694106463878328e-05,-1.0205947129515833
-3.8684106463878326e-05,-1.0355026497793023
-3.8674106463878332e-05,-1.0392296339862304
-3.866410646387833e-05,-1.0317756655723727
-3.8654106463878328e-05,-1.0392296339862321
-3.8644106463878327e-05,-1.0466836024000916
-3.8634106463878325e-05,-1.0280486813654479
-3.862410646387833e-05,-1.0392296339862321
-3.8614106463878329e-05,-1.0056867761238641
-3.8604106463878327e-05,-1.0392296339862321
-3.8594106463878325e-05,-1.00941376033085
-3.8584106463878331e-05,-1.1324042391594207
-3.8574106463878329e-05,4.0630117453006394
-3.8564106463878327e-05,4.4208022291658979
-3.8554106463878326e-05,3.9474752348855802
-3.8544106463878331e-05,3.4294244301228112
-3.8534106463878329e-05,4.5773355658569486
-3.8524106463878328e-05,2.8480148938415297
-3.8514106463878326e-05,5.0133927180677329
-3.8504106463878331e-05,2.516313299425915
-3.849410646387833e-05,5.2183768494488714
-3.8484106463878328e-05,2.3821418679753075
-3.8474106463878327e-05,5.2817355809666777
-3.8464106463878325e-05,2.3336910732865492
-3.845410646387833e-05,5.2556466915181694
-3.8444106463878329e-05,2.3709609153545177
-3.8434106463878327e-05,5.1587451021379946
-3.8424106463878325e-05,2.5237672678397436
-3.8414106463878331e-05,4.9537609707557522
-3.8404106463878329e-05,2.7697482254960049
-3.8394106463878327e-05,4.6928720762717724
-3.8384106463878326e-05,3.0455450568094218
-3.8374106463878331e-05,4.3947133397167759
-3.8364106463878329e-05,3.4070625248809971
-3.8354106463878328e-05,4.04810380847292
-3.8344106463878326e-05,3.7126752298492391
-3.8334106463878331e-05,3.7201291982630948
-3.832410646387833e-05,4.0182879348174811
-3.8314106463878328e-05,3.4443323669502952
-3.8304106463878327e-05,4.2568149240609872
-3.8294106463878325e-05,3.2244402987419876
-3.828410646387833e-05,4.4319831817866877
-3.8274106463878329e-05,3.0716339462573172
-3.8264106463878327e-05,4.5102498501322126
-3.8254106463878325e-05,2.9821863252917153
-3.8244106463878331e-05,4.5512466764077271
-3.8234106463878329e-05,2.9635514042563535
-3.8224106463878327e-05,4.5326117553737912
-3.8214106463878326e-05,3.0082752147401752
-3.8204106463878331e-05,4.4692530238553205
-3.8194106463878329e-05,3.1238117251543338
-3.8184106463878328e-05,4.3313546081995833
-3.8174106463878326e-05,3.2468022039830169
-3.8164106463878331e-05,4.171094287301182
-3.815410646387833e-05,2.6206688572188135
-3.8144106463878328e-05,-3.379775715938135
-3.8134106463878327e-05,1.2975894637587408
-3.8124106463878325e-05,-3.2008804740035379
-3.811410646387833e-05,1.1261481902399708
-3.8104106463878328e-05,-3.1039788846253309
-3.8094106463878327e-05,1.0255196166528668
-3.8084106463878325e-05,-2.9362645953117932
-3.807410646387833e-05,0.79817358003015015
-3.8064106463878329e-05,-2.6045630008967402
-3.8054106463878327e-05,0.39193230147480396
-3.8044106463878326e-05,-2.1610518802711778
-3.8034106463878331e-05,-0.14102644011707355
-3.8024106463878329e-05,-1.6355471070949972
-3.8014106463878328e-05,-0.65907724487939445
-3.8004106463878326e-05,-1.1063153497109683
-3.7994106463878331e-05,-1.177128049642602
-3.798410646387833e-05,-0.67398518170711363
-3.7974106463878328e-05,-1.6020042492326292
-3.7964106463878326e-05,-0.2863788241864163
-3.7954106463878332e-05,-1.9225248910278463
-3.794410646387833e-05,-0.014308977080542254
-3.7934106463878328e-05,-2.1461439434443772
-3.7924106463878327e-05,0.14222435961050856
-3.7914106463878325e-05,-2.2355915644095816
-3.790410646387833e-05,0.20558309112831485
-3.7894106463878329e-05,-2.2579534696522705
-3.7884106463878327e-05,0.18694817009366593
-3.7874106463878326e-05,-2.1796868013057153
-3.7864106463878331e-05,0.086319596505531671
-3.7854106463878329e-05,-2.0417883856503432
-3.7844106463878328e-05,-0.11493755066764635
-3.7834106463878326e-05,-1.8218963174414864
-3.7824106463878331e-05,-0.33110263467025147
-3.781410646387833e-05,-1.5684613913702612
-3.7804106463878328e-05,-0.6292613712239562
-3.7794106463878326e-05,-1.315026465299036
-3.7784106463878332e-05,-0.89760423412309032
-3.777410646387833e-05,-1.0466836024000916
-3.7764106463878328e-05,-1.1584931286079851
-3.7754106463878327e-05,-0.79324867632886664
-3.7744106463878325e-05,-1.3895661494372724
-3.773410646387833e-05,-0.59944549756851795
-3.7724106463878329e-05,-1.553553454542542
-3.7714106463878327e-05,-0.45036612929132669
-3.7704106463878326e-05,-1.6467280597152119
-3.7694106463878331e-05,-0.38328041356716525
-3.7684106463878329e-05,-1.6989058386128035
-3.7674106463878328e-05,-0.37955342935966085
-3.7664106463878326e-05,-1.7026328228191452
-3.7654106463878331e-05,-0.4093693030156873
-3.764410646387833e-05,-1.6579090123365758
-3.7634106463878328e-05,-0.48390898715369474
-3.7624106463878326e-05,-1.5498264703356122
-3.7614106463878331e-05,-0.57335660812045353
-3.760410646387833e-05,-1.434289959920789
-3.7594106463878328e-05,-0.72988994481106029
-3.7584106463878327e-05,-1.2926645600574573
-3.7574106463878325e-05,-0.87151534467452585
-3.756410646387833e-05,-1.1659470970218446
-3.7554106463878329e-05,-1.0056867761238641
-3.7544106463878327e-05,-1.024321697158513
-3.7534106463878325e-05,-1.117496302331656
-3.7524106463878331e-05,-0.89387724991607242
-3.7514106463878329e-05,-1.229305828539651
-3.7504106463878327e-05,-0.81188359736351545
-3.7494106463878326e-05,-1.3224804337126277
-3.7484106463878331e-05,-0.73361692901825792
-3.7474106463878329e-05,-1.367204244196053
-3.7464106463878328e-05,-0.70007407115562204
-3.7454106463878326e-05,-1.3746582126099125
-3.7444106463878331e-05,-0.70752803956978505
-3.743410646387833e-05,-1.3783851968168424
-3.7424106463878328e-05,-0.71870899219027096
-3.7414106463878327e-05,-1.3336613863336848
-3.7404106463878325e-05,-0.7597058184667409
-3.739410646387833e-05,-1.2926645600574573
-3.7384106463878329e-05,-0.81933756577737504
-3.7374106463878327e-05,-1.2367597969535107
-3.7364106463878325e-05,-0.89015026570916289
-3.7354106463878331e-05,-1.158493128607863
-3.7344106463878329e-05,-0.97959788667535563
-3.7334106463878327e-05,-1.1025883655040385
-3.7324106463878326e-05,-1.0578645550208643
-3.7314106463878331e-05,-1.0205947129516002
-3.7304106463878329e-05,-1.1063153497109683
-3.7294106463878328e-05,-0.9684169340545663
-3.7284106463878326e-05,-1.1547661444010553
-3.7274106463878331e-05,-0.90505820253687363
-3.726410646387833e-05,-1.1883090022634235
-3.7254106463878328e-05,-0.88269629729518129
-3.7244106463878327e-05,-1.229305828539651
-3.7234106463878325e-05,-0.86406137626069857
-3.722410646387833e-05,-1.229305828539651
-3.7214106463878329e-05,-0.86778836046746222
-3.7204106463878327e-05,-1.2255788443327214
-3.7194106463878325e-05,-0.88269629729532029
-3.7184106463878331e-05,-1.1883090022632845
-3.7174106463878329e-05,-0.9087851867436898
-3.7164106463878327e-05,-1.1547661444010553
-3.7154106463878326e-05,-0.94232804460613739
-3.7144106463878331e-05,-1.117496302331678
-3.7134106463878329e-05,-0.98705185508921522
-3.7124106463878328e-05,-1.0988613812971086
-3.7114106463878326e-05,-1.0168677287446535
-3.7104106463878331e-05,-1.0466836024000781
-3.709410646387833e-05,-1.0615915392278108
-3.7084106463878328e-05,-1.0280486813654428
-3.7074106463878326e-05,-1.0653185234347406
-3.7064106463878325e-05,-0.98705185508926774
-3.705410646387833e-05,-1.1025883655040385
-3.7044106463878328e-05,-0.9684169340545663
-3.7034106463878327e-05,-1.1063153497109683
-3.7024106463878325e-05,-0.96468994984770939
-3.701410646387833e-05,-1.1249502707456172
-3.7004106463878329e-05,-0.96096296564070671
-3.6994106463878327e-05,-1.1473121759871958
-3.6984106463878326e-05,-0.94605502881306558
-3.6974106463878331e-05,-1.1174963023316797
-3.6964106463878329e-05,-0.9684169340545663
-3.6954106463878328e-05,-1.1063153497109683
-3.6944106463878326e-05,-0.97214391826149615
-3.6934106463878331e-05,-1.0951343970901228
-3.692410646387833e-05,-0.97959788667535563
-3.6914106463878328e-05,-1.0727724918486001
-3.6904106463878326e-05,-1.0131407445377236
-3.6894106463878332e-05,-1.0578645550208607
-3.688410646387833e-05,-1.0205947129515833
-3.6874106463878328e-05,-1.024321697158513
-3.6864106463878327e-05,-1.0205947129515833
-3.6854106463878325e-05,-1.0392296339862372
-3.684410646387833e-05,-1.0504105866070215
-3.6834106463878329e-05,-1.009413760330794
-3.6824106463878327e-05,-1.0578645550208812
-3.6814106463878326e-05,-0.99823280771003164
-3.6804106463878331e-05,-1.0578645550208541
-3.6794106463878329e-05,-0.98332487088228548
-3.6784106463878328e-05,-1.0802264602624598
-3.6774106463878326e-05,-0.99450582350307482
-3.6764106463878331e-05,-1.0764994760554927
-3.675410646387833e-05,-0.99077883929614496
-3.6744106463878328e-05,-1.0690455076416705
-3.6734106463878326e-05,-0.99077883929614496
-3.6724106463878332e-05,-1.0876804286762753
-3.671410646387833e-05,-0.99823280771000455
-3.6704106463878328e-05,-1.0690455076416705
-3.6694106463878327e-05,-1.0205947129515833
-3.6684106463878325e-05,-1.0615915392277955
-3.667410646387833e-05,-1.0280486813654428
-3.6664106463878329e-05,-1.0466836024000916
-3.6654106463878327e-05,-1.042956618193162
-3.6644106463878326e-05,-1.0355026497793041
-3.6634106463878331e-05,-1.0392296339862304
-3.6624106463878329e-05,-1.042956618193162
-3.6614106463878328e-05,-1.0578645550208812
-3.6604106463878326e-05,-1.0205947129515918
-3.6594106463878331e-05,-1.0392296339862237
-3.6584106463878329e-05,-1.0205947129515833
-3.6574106463878328e-05,-1.0504105866070215
-3.6564106463878326e-05,-1.0131407445377236
-3.6554106463878331e-05,-1.1212232865386382
-3.654410646387833e-05,4.1375514294392346
-3.6534106463878328e-05,4.3462625450273027
-3.6524106463878327e-05,4.0145609506105515
-3.6514106463878325e-05,3.3511577617776296
-3.650410646387833e-05,4.6257863605470355
-3.6494106463878329e-05,2.807018067565302
-3.6484106463878327e-05,5.0357546233093116
-3.6474106463878325e-05,2.4864974257705854
-3.6464106463878331e-05,5.2221038336545575
-3.6454106463878329e-05,2.3709609153545177
-3.6444106463878327e-05,5.3003705020013268
-3.6434106463878326e-05,2.3299640890796205
-3.6424106463878331e-05,5.2556466915168389
-3.6414106463878329e-05,2.3784148837683778
-3.6404106463878328e-05,5.1401101811033456
-3.6394106463878326e-05,2.5349482204594285
-3.6384106463878331e-05,4.9425800181349722
-3.637410646387833e-05,2.7921101307375835
-3.6364106463878328e-05,4.6742371552371234
-3.6354106463878327e-05,3.1089037883266144
-3.6344106463878325e-05,4.3425355608199538
-3.633410646387833e-05,3.4219704617087165
-3.6324106463878329e-05,4.0145609506105515
-3.6314106463878327e-05,3.7723069771601159
-3.6304106463878325e-05,3.7089482456424618
-3.6294106463878331e-05,4.0443768242658376
-3.6284106463878329e-05,3.4107895090879268
-3.6274106463878327e-05,4.2754498450956362
-3.6264106463878326e-05,3.202078393500424
-3.6254106463878331e-05,4.4431641344069117
-3.6244106463878329e-05,3.026910135774159
-3.6234106463878328e-05,4.5102498501322126
-3.6224106463878326e-05,2.9672783884632832
-3.6214106463878331e-05,4.55124667640772
-3.620410646387833e-05,2.9672783884632832
