Power_measurements/SKINNY_128_csv/skinny_c160_idle_3.csv

#Digilent WaveForms Oscilloscope Acquisition
#Device Name: Discovery2
#Serial Number: SN:210321A1A9F5
#Date Time: 2018-06-28 17:05:50.370
#Sample rate: 1e+08Hz
#Samples: 8192
#Trigger: Source: Channel 1 Type: Edge Condition: Rising Level: 2 V Hyst.: Auto HoldOff: 0 s
#Channel 2: Range: 1 V/div Offset: 0 V

Time (s),Channel 2 (V)
-4.0697864321608039e-05,0.96961485354892007
-4.0687864321608038e-05,0.97706882196277967
-4.0677864321608036e-05,0.98824977458356222
-4.0667864321608041e-05,0.97334183775585659
-4.065786432160804e-05,0.98452279037663915
-4.0647864321608038e-05,0.98452279037663915
-4.0637864321608036e-05,0.97334183775584981
-4.0627864321608042e-05,0.977068821962778
-4.061786432160804e-05,0.96216088513506048
-4.0607864321608038e-05,0.97334183775584981
-4.0597864321608037e-05,0.97706882196277967
-4.0587864321608035e-05,0.98452279037663237
-4.057786432160804e-05,0.96961485354892007
-4.0567864321608039e-05,0.98079580616970941
-4.0557864321608037e-05,0.95843390092813074
-4.0547864321608036e-05,0.96588786934199711
-4.0537864321608041e-05,0.98079580616970263
-4.0527864321608039e-05,0.97706882196277967
-4.0517864321608038e-05,0.98452279037663915
-4.0507864321608036e-05,0.96961485354892685
-4.0497864321608041e-05,0.98452279037663237
-4.048786432160804e-05,0.97334183775584981
-4.0477864321608038e-05,0.96961485354892007
-4.0467864321608036e-05,0.96588786934199033
-4.0457864321608042e-05,0.98452279037663071
-4.044786432160804e-05,0.96588786934199033
-4.0437864321608038e-05,0.96961485354892007
-4.0427864321608037e-05,0.98452279037663915
-4.0417864321608035e-05,0.96216088513506892
-4.040786432160804e-05,0.98079580616970941
-4.0397864321608039e-05,0.97706882196277967
-4.0387864321608037e-05,0.95470691672120089
-4.0377864321608036e-05,0.98452279037663237
-4.0367864321608041e-05,0.96961485354892685
-4.0357864321608039e-05,0.95843390092813074
-4.0347864321608038e-05,0.96216088513506048
-4.0337864321608036e-05,0.95843390092813074
-4.0327864321608041e-05,0.95843390092813074
-4.031786432160804e-05,0.96588786934199033
-4.0307864321608038e-05,0.95470691672120089
-4.0297864321608036e-05,0.96216088513506048
-4.0287864321608042e-05,0.98824977458355712
-4.027786432160804e-05,0.96961485354892007
-4.0267864321608038e-05,0.96588786934199033
-4.0257864321608037e-05,0.96961485354892007
-4.0247864321608035e-05,0.96216088513506892
-4.023786432160804e-05,0.98079580616970941
-4.0227864321608039e-05,0.96216088513506048
-4.0217864321608037e-05,0.96961485354892007
-4.0207864321608036e-05,0.96588786934199033
-4.0197864321608041e-05,0.96588786934199033
-4.0187864321608039e-05,0.96216088513506048
-4.0177864321608037e-05,0.988249774583569
-4.0167864321608036e-05,0.98452279037663404
-4.0157864321608041e-05,0.97334183775585492
-4.0147864321608039e-05,0.96588786934199033
-4.0137864321608038e-05,0.97706882196277967
-4.0127864321608036e-05,0.96961485354892007
-4.0117864321608041e-05,0.96961485354892007
-4.010786432160804e-05,0.96961485354892007
-4.0097864321608038e-05,0.97334183775584981
-4.0087864321608037e-05,0.96588786934199033
-4.0077864321608035e-05,0.95470691672120256
-4.006786432160804e-05,0.95843390092813074
-4.0057864321608039e-05,0.95843390092813074
-4.0047864321608037e-05,0.988249774583569
-4.0037864321608035e-05,0.95843390092813585
-4.0027864321608041e-05,0.96961485354892007
-4.0017864321608039e-05,0.98079580616970941
-4.0007864321608037e-05,0.98079580616970941
-3.9997864321608036e-05,0.97334183775585659
-3.9987864321608041e-05,0.98824977458356222
-3.9977864321608039e-05,0.98079580616970941
-3.9967864321608038e-05,0.95843390092813074
-3.9957864321608036e-05,0.97334183775584981
-3.9947864321608041e-05,0.96588786934199378
-3.993786432160804e-05,0.98079580616970941
-3.9927864321608038e-05,0.96588786934199033
-3.9917864321608037e-05,0.97706882196277967
-3.9907864321608042e-05,0.96961485354892352
-3.989786432160804e-05,0.96961485354892007
-3.9887864321608039e-05,0.97706882196277967
-3.9877864321608037e-05,0.97334183775584981
-3.9867864321608035e-05,0.98079580616970263
-3.9857864321608041e-05,0.96588786934199033
-3.9847864321608039e-05,0.988249774583569
-3.9837864321608037e-05,0.96588786934199033
-3.9827864321608036e-05,0.97334183775584471
-3.9817864321608041e-05,0.96216088513506559
-3.9807864321608039e-05,0.96961485354892007
-3.9797864321608038e-05,0.96961485354892007
-3.9787864321608036e-05,0.97334183775584815
-3.9777864321608041e-05,0.96961485354892174
-3.976786432160804e-05,0.97334183775584981
-3.9757864321608038e-05,0.96588786934199033
-3.9747864321608037e-05,0.97334183775584981
-3.9737864321608042e-05,0.96588786934199378
-3.972786432160804e-05,0.97706882196277967
-3.9717864321608039e-05,0.96216088513506048
-3.9707864321608037e-05,0.96961485354892007
-3.9697864321608035e-05,0.97334183775584637
-3.968786432160804e-05,0.96588786934199033
-3.9677864321608039e-05,0.95470691672120089
-3.9667864321608037e-05,0.98079580616970941
-3.9657864321608036e-05,0.98452279037663237
-3.9647864321608041e-05,0.96961485354892685
-3.9637864321608039e-05,0.97706882196277967
-3.9627864321608038e-05,0.98452279037663915
-3.9617864321608036e-05,0.97334183775584815
-3.9607864321608041e-05,0.96961485354892174
-3.959786432160804e-05,0.988249774583569
-3.9587864321608038e-05,0.988249774583569
-3.9577864321608036e-05,0.96961485354892007
-3.9567864321608042e-05,0.965887869341992
-3.955786432160804e-05,0.97334183775584981
-3.9547864321608038e-05,0.97334183775584981
-3.9537864321608037e-05,0.97334183775584981
-3.9527864321608035e-05,0.96961485354893362
-3.951786432160804e-05,0.99943072720435833
-3.9507864321608039e-05,0.97334183775584981
-3.9497864321608037e-05,0.97334183775584981
-3.9487864321608036e-05,0.96216088513506215
-3.9477864321608041e-05,0.96588786934198867
-3.9467864321608039e-05,0.98079580616970941
-3.9457864321608038e-05,0.97706882196277967
-3.9447864321608036e-05,0.9845227903766357
-3.9437864321608041e-05,0.97706882196278311
-3.942786432160804e-05,0.988249774583569
-3.9417864321608038e-05,0.97706882196277967
-3.9407864321608036e-05,0.97334183775584981
-3.9397864321608042e-05,0.98824977458356222
-3.938786432160804e-05,0.96216088513506048
-3.9377864321608038e-05,0.97706882196277967
-3.9367864321608037e-05,0.97706882196277967
-3.9357864321608035e-05,0.97706882196278133
-3.934786432160804e-05,0.98079580616970941
-3.9337864321608039e-05,0.96216088513506048
-3.9327864321608037e-05,0.988249774583569
-3.9317864321608036e-05,0.98452279037664081
-3.9307864321608041e-05,0.98824977458356733
-3.9297864321608039e-05,0.98452279037663915
-3.9287864321608038e-05,0.97334183775584981
-3.9277864321608036e-05,0.98452279037663915
-3.9267864321608041e-05,0.98452279037663915
-3.925786432160804e-05,0.98079580616970941
-3.9247864321608038e-05,0.988249774583569
-3.9237864321608036e-05,0.99197675879049874
-3.9227864321608042e-05,0.96588786934200221
-3.921786432160804e-05,0.97334183775584981
-3.9207864321608038e-05,0.99197675879049874
-3.9197864321608037e-05,0.98079580616970941
-3.9187864321608035e-05,0.98824977458356389
-3.917786432160804e-05,0.97706882196277967
-3.9167864321608039e-05,0.96216088513506048
-3.9157864321608037e-05,0.96961485354892007
-3.9147864321608035e-05,0.98824977458356389
-3.9137864321608041e-05,0.97706882196277967
-3.9127864321608039e-05,0.98079580616970941
-3.9117864321608037e-05,0.988249774583569
-3.9107864321608036e-05,0.98452279037663071
-3.9097864321608041e-05,0.96588786934199877
-3.9087864321608039e-05,0.98079580616970941
-3.9077864321608038e-05,0.99570374299742848
-3.9067864321608036e-05,0.97706882196277967
-3.9057864321608041e-05,0.9845227903766357
-3.904786432160804e-05,0.97334183775584981
-3.9037864321608038e-05,0.96588786934199033
-3.9027864321608037e-05,0.99197675879049874
-3.9017864321608035e-05,0.96216088513506559
-3.900786432160804e-05,0.97334183775584981
-3.8997864321608039e-05,0.97334183775584981
-3.8987864321608037e-05,0.98452279037663915
-3.8977864321608035e-05,0.9807958061697043
-3.8967864321608041e-05,0.96961485354892007
-3.8957864321608039e-05,0.96588786934199033
-3.8947864321608037e-05,0.97706882196277967
-3.8937864321608036e-05,0.99943072720434811
-3.8927864321608041e-05,0.97706882196278988
-3.8917864321608039e-05,0.98452279037663915
-3.8907864321608038e-05,0.98452279037663915
-3.8897864321608036e-05,0.98079580616970941
-3.8887864321608041e-05,0.96961485354892518
-3.887786432160804e-05,0.96588786934199033
-3.8867864321608038e-05,0.98079580616970941
-3.8857864321608037e-05,0.98079580616970941
-3.8847864321608042e-05,0.96961485354892518
-3.883786432160804e-05,0.99197675879049874
-3.8827864321608039e-05,0.97334183775584981
-3.8817864321608037e-05,0.98079580616970941
-3.8807864321608035e-05,0.9807958061697043
-3.8797864321608041e-05,0.96961485354892007
-3.8787864321608039e-05,0.988249774583569
-3.8777864321608037e-05,0.96961485354892007
-3.8767864321608036e-05,0.96588786934200221
-3.8757864321608041e-05,0.99197675879048686
-3.8747864321608039e-05,0.96961485354892007
-3.8737864321608038e-05,0.988249774583569
-3.8727864321608036e-05,0.96216088513506393
-3.8717864321608041e-05,0.96961485354891663
-3.870786432160804e-05,0.96216088513506048
-3.8697864321608038e-05,0.96588786934199033
-3.8687864321608037e-05,0.98079580616970941
-3.8677864321608042e-05,0.98452279037663748
-3.866786432160804e-05,0.97706882196277967
-3.8657864321608038e-05,0.99570374299742848
-3.8647864321608037e-05,0.96588786934199033
-3.8637864321608035e-05,0.97334183775585326
-3.862786432160804e-05,0.98079580616970941
-3.8617864321608039e-05,0.97334183775584981
-3.8607864321608037e-05,0.96588786934199033
-3.8597864321608036e-05,0.97334183775584471
-3.8587864321608041e-05,0.96216088513506559
-3.8577864321608039e-05,0.96588786934199033
-3.8567864321608038e-05,0.95843390092813074
-3.8557864321608036e-05,0.98079580616970596
-3.8547864321608041e-05,0.97334183775585326
-3.853786432160804e-05,0.95097993251427115
-3.8527864321608038e-05,0.97334183775584981
-3.8517864321608036e-05,0.98079580616970941
-3.8507864321608042e-05,0.97706882196278133
-3.849786432160804e-05,0.98452279037663915
-3.8487864321608038e-05,0.99943072720435833
-3.8477864321608037e-05,0.98079580616970941
-3.8467864321608035e-05,0.96961485354891663
-3.845786432160804e-05,0.96216088513506048
-3.8447864321608039e-05,0.988249774583569
-3.8437864321608037e-05,0.98452279037663915
-3.8427864321608036e-05,0.97334183775584304
-3.8417864321608041e-05,0.95843390092813752
-3.8407864321608039e-05,0.96216088513506048
-3.8397864321608038e-05,0.97706882196277967
-3.8387864321608036e-05,0.96961485354892174
-3.8377864321608041e-05,0.97334183775584815
-3.836786432160804e-05,0.97706882196277967
-3.8357864321608038e-05,0.97706882196277967
-3.8347864321608036e-05,0.988249774583569
-3.8337864321608042e-05,0.96961485354892851
-3.832786432160804e-05,0.98079580616970941
-3.8317864321608038e-05,0.96961485354892007
-3.8307864321608037e-05,0.988249774583569
-3.8297864321608035e-05,0.98079580616970596
-3.828786432160804e-05,0.97334183775584981
-3.8277864321608039e-05,0.99197675879049874
-3.8267864321608037e-05,0.98452279037663915
-3.8257864321608036e-05,0.96216088513506559
-3.8247864321608041e-05,0.97334183775584471
-3.8237864321608039e-05,0.97334183775584981
-3.8227864321608038e-05,0.99570374299742848
-3.8217864321608036e-05,0.96961485354893029
-3.8207864321608041e-05,0.99197675879048852
-3.819786432160804e-05,0.98079580616970941
-3.8187864321608038e-05,0.96588786934199033
-3.8177864321608036e-05,0.96216088513506048
-3.8167864321608041e-05,0.96961485354891663
-3.815786432160804e-05,0.99197675879049874
-3.8147864321608038e-05,0.97706882196277967
-3.8137864321608037e-05,0.988249774583569
-3.8127864321608035e-05,0.9621608851350707
-3.811786432160804e-05,0.98452279037663915
-3.8107864321608039e-05,0.96588786934199033
-3.8097864321608037e-05,0.96588786934199033
-3.8087864321608035e-05,0.99943072720434811
-3.8077864321608041e-05,0.97706882196277967
-3.8067864321608039e-05,0.98079580616970941
-3.8057864321608037e-05,0.96216088513506048
-3.8047864321608036e-05,0.97334183775584981
-3.8037864321608041e-05,0.97334183775584981
-3.8027864321608039e-05,0.98079580616970941
-3.8017864321608038e-05,0.95097993251427115
-3.8007864321608036e-05,0.97334183775584981
-3.7997864321608041e-05,0.96216088513506559
-3.798786432160804e-05,0.97334183775584981
-3.7977864321608038e-05,0.96588786934199033
-3.7967864321608037e-05,0.96588786934199033
-3.7957864321608042e-05,0.98452279037663071
-3.794786432160804e-05,0.97706882196277967
-3.7937864321608039e-05,0.96588786934199033
-3.7927864321608037e-05,0.98452279037663915
-3.7917864321608035e-05,0.96961485354892685
-3.7907864321608041e-05,0.98452279037663915
-3.7897864321608039e-05,0.96961485354892007
-3.7887864321608037e-05,0.99197675879049874
-3.7877864321608036e-05,0.98079580616970774
-3.7867864321608041e-05,0.97706882196278133
-3.7857864321608039e-05,0.97706882196277967
-3.7847864321608038e-05,0.97706882196277967
-3.7837864321608036e-05,0.96588786934199033
-3.7827864321608041e-05,0.98079580616970263
-3.781786432160804e-05,0.96961485354892007
-3.7807864321608038e-05,0.96961485354892007
-3.7797864321608037e-05,0.98079580616970941
-3.7787864321608042e-05,0.96961485354892518
-3.777786432160804e-05,0.95843390092813074
-3.7767864321608039e-05,0.97334183775584981
-3.7757864321608037e-05,0.97706882196277967
-3.7747864321608035e-05,0.96961485354892174
-3.7737864321608041e-05,0.97334183775584981
-3.7727864321608039e-05,0.99197675879049874
-3.7717864321608037e-05,0.96588786934199033
-3.7707864321608036e-05,0.98079580616970263
-3.7697864321608041e-05,0.96588786934199711
-3.7687864321608039e-05,0.96961485354892007
-3.7677864321608038e-05,0.98079580616970941
-3.7667864321608036e-05,0.95097993251428814
-3.7657864321608041e-05,0.98824977458355201
-3.764786432160804e-05,0.96588786934199033
-3.7637864321608038e-05,0.97334183775584981
-3.7627864321608036e-05,0.97334183775584981
-3.7617864321608042e-05,0.977068821962778
-3.760786432160804e-05,0.96216088513506048
-3.7597864321608038e-05,0.96961485354892007
-3.7587864321608037e-05,0.96216088513506048
-3.7577864321608035e-05,0.98079580616971107
-3.756786432160804e-05,0.98452279037663915
-3.7557864321608039e-05,0.95470691672120089
-3.7547864321608037e-05,0.98452279037663915
-3.7537864321608036e-05,0.96588786934199033
-3.7527864321608041e-05,0.96588786934199033
-3.7517864321608039e-05,0.96216088513506048
-3.7507864321608038e-05,0.97334183775584981
-3.7497864321608036e-05,0.97334183775585492
-3.7487864321608041e-05,0.98452279037663404
-3.747786432160804e-05,0.98079580616970941
-3.7467864321608038e-05,0.98079580616970941
-3.7457864321608036e-05,0.97334183775584981
-3.7447864321608042e-05,0.977068821962778
-3.743786432160804e-05,0.96961485354892007
-3.7427864321608038e-05,0.98079580616970941
-3.7417864321608037e-05,0.96961485354892007
-3.7407864321608035e-05,0.95843390092813918
-3.739786432160804e-05,0.97706882196277967
-3.7387864321608039e-05,0.94352596410041156
-3.7377864321608037e-05,0.96588786934199033
-3.7367864321608036e-05,0.96216088513506048
-3.7357864321608041e-05,0.96216088513506048
-3.7347864321608039e-05,0.97334183775584981
-3.7337864321608038e-05,0.95843390092813074
-3.7327864321608036e-05,0.96216088513506215
-3.7317864321608041e-05,0.96588786934198867
-3.730786432160804e-05,0.98452279037663915
-3.7297864321608038e-05,0.96216088513506048
-3.7287864321608036e-05,0.96588786934199033
-3.7277864321608042e-05,0.97334183775584637
-3.726786432160804e-05,0.988249774583569
-3.7257864321608038e-05,0.98452279037663915
-3.7247864321608037e-05,0.95843390092813074
-3.7237864321608035e-05,0.97334183775584981
-3.722786432160804e-05,0.97334183775584981
-3.7217864321608039e-05,0.96961485354892007
-3.7207864321608037e-05,0.96961485354892007
-3.7197864321608036e-05,0.97334183775585825
-3.7187864321608041e-05,0.9919767587904903
-3.7177864321608039e-05,0.97334183775584981
-3.7167864321608038e-05,0.96588786934199033
-3.7157864321608036e-05,0.96961485354892007
-3.7147864321608041e-05,0.96961485354892007
-3.7137864321608039e-05,0.95843390092813074
-3.7127864321608038e-05,0.988249774583569
-3.7117864321608036e-05,0.97706882196277967
-3.7107864321608041e-05,0.96961485354892352
-3.709786432160804e-05,0.96588786934199033
-3.7087864321608038e-05,0.97706882196277967
-3.7077864321608037e-05,0.97334183775584981
-3.7067864321608035e-05,0.98824977458355712
-3.705786432160804e-05,0.96216088513506048
-3.7047864321608039e-05,0.97334183775584981
-3.7037864321608037e-05,0.96216088513506048
-3.7027864321608035e-05,0.98824977458356222
-3.7017864321608041e-05,0.97334183775584981
-3.7007864321608039e-05,0.95097993251427115
-3.6997864321608037e-05,0.96588786934199033
-3.6987864321608036e-05,0.96961485354891663
-3.6977864321608041e-05,0.96216088513506393
-3.6967864321608039e-05,0.96216088513506048
-3.6957864321608038e-05,0.95843390092813074
-3.6947864321608036e-05,0.96961485354892007
-3.6937864321608041e-05,0.97706882196277622
-3.692786432160804e-05,0.95843390092813074
-3.6917864321608038e-05,0.96961485354892007
-3.6907864321608037e-05,0.95470691672120089
-3.6897864321608042e-05,0.97334183775584138
-3.688786432160804e-05,0.95843390092813074
-3.6877864321608039e-05,0.97334183775584981
-3.6867864321608037e-05,0.96588786934199033
-3.6857864321608035e-05,0.96588786934199033
-3.6847864321608041e-05,0.96588786934199033
-3.6837864321608039e-05,0.97706882196277967
-3.6827864321608037e-05,0.98079580616970941
-3.6817864321608036e-05,0.96961485354892518
-3.6807864321608041e-05,0.9807958061697043
-3.6797864321608039e-05,0.98079580616970941
-3.6787864321608038e-05,0.97334183775584981
-3.6777864321608036e-05,0.98079580616970941
-3.6767864321608041e-05,0.95843390092814096
-3.675786432160804e-05,0.97706882196277967
-3.6747864321608038e-05,0.94725294830734141
-3.6737864321608037e-05,0.988249774583569
-3.6727864321608042e-05,0.96961485354892851
-3.671786432160804e-05,0.98079580616970941
-3.6707864321608039e-05,0.95097993251427115
-3.6697864321608037e-05,0.96216088513506048
-3.6687864321608035e-05,0.97706882196277456
-3.6677864321608041e-05,0.96588786934199033
-3.6667864321608039e-05,0.96588786934199033
-3.6657864321608037e-05,0.98452279037663915
-3.6647864321608036e-05,0.97706882196277456
-3.6637864321608041e-05,0.96588786934199544
-3.6627864321608039e-05,0.96961485354892007
-3.6617864321608038e-05,0.97334183775584981
-3.6607864321608036e-05,0.94725294830735329
-3.6597864321608041e-05,0.97334183775583794
-3.658786432160804e-05,0.96216088513506048
-3.6577864321608038e-05,0.96588786934199033
-3.6567864321608036e-05,0.96216088513506048
-3.6557864321608042e-05,0.96216088513506048
-3.654786432160804e-05,0.96588786934199033
-3.6537864321608038e-05,0.96961485354892007
-3.6527864321608037e-05,0.97334183775584981
-3.6517864321608035e-05,0.96216088513506559
-3.650786432160804e-05,0.97334183775584981
-3.6497864321608039e-05,0.96588786934199033
-3.6487864321608037e-05,0.97706882196277967
-3.6477864321608036e-05,0.95470691672121111
-3.6467864321608041e-05,0.97706882196276945
-3.6457864321608039e-05,0.96588786934199033
-3.6447864321608038e-05,0.97706882196277967
-3.6437864321608036e-05,0.97334183775584471
-3.6427864321608041e-05,0.96216088513506559
-3.641786432160804e-05,0.95470691672120089
-3.6407864321608038e-05,0.96588786934199033
-3.6397864321608036e-05,0.96216088513506048
-3.6387864321608042e-05,0.96961485354891663
-3.637786432160804e-05,0.96216088513506048
-3.6367864321608038e-05,0.95470691672120089
-3.6357864321608037e-05,0.96961485354892007
-3.6347864321608035e-05,0.95843390092814262
-3.633786432160804e-05,0.98452279037663915
-3.6327864321608039e-05,0.95097993251427115
-3.6317864321608037e-05,0.94725294830734141
-3.6307864321608036e-05,0.95843390092813585
-3.6297864321608041e-05,0.96961485354891497
-3.6287864321608039e-05,0.94725294830734141
-3.6277864321608038e-05,0.95470691672120089
-3.6267864321608036e-05,0.97334183775584637
-3.6257864321608041e-05,0.96588786934199378
-3.624786432160804e-05,0.97706882196277967
-3.6237864321608038e-05,0.96961485354892007
-3.6227864321608036e-05,0.97334183775584981
-3.6217864321608042e-05,0.96216088513506559
