Power_measurements/SKINNY_128_csv/skinny_l3_idle_4.csv

#Digilent WaveForms Oscilloscope Acquisition
#Device Name: Discovery2
#Serial Number: SN:210321A1A9F5
#Date Time: 2018-06-28 16:52:34.272
#Sample rate: 1e+08Hz
#Samples: 8192
#Trigger: Source: Channel 1 Type: Edge Condition: Rising Level: 2 V Hyst.: Auto HoldOff: 0 s
#Channel 2: Range: 1 V/div Offset: 0 V

Time (s),Channel 2 (V)
-4.0693628048780488e-05,-1.009413760330794
-4.0683628048780486e-05,-1.0205947129515833
-4.0673628048780485e-05,-1.0280486813654359
-4.066362804878049e-05,-1.0131407445377305
-4.0653628048780488e-05,-1.0280486813654428
-4.0643628048780487e-05,-1.0056867761238641
-4.0633628048780485e-05,-1.0541375708139513
-4.062362804878049e-05,-0.99823280771002998
-4.0613628048780489e-05,-1.1473121759871958
-4.0603628048780487e-05,3.4107895090879268
-4.0593628048780485e-05,4.8792212866182609
-4.0583628048780484e-05,3.7089482456422602
-4.0573628048780489e-05,3.6008657036413458
-4.0563628048780487e-05,4.4953419133044932
-4.0553628048780486e-05,2.9113736253593361
-4.0543628048780484e-05,5.0208466864804437
-4.0533628048780489e-05,2.4939513941843501
-4.0523628048780488e-05,5.2742816125528176
-4.0513628048780486e-05,2.3336910732852205
-4.0503628048780485e-05,5.3227324072415509
-4.049362804878049e-05,2.3448720259073634
-4.0483628048780488e-05,5.2295578020696603
-4.0473628048780487e-05,2.5051323468039897
-4.0463628048780485e-05,4.9910308128261542
-4.045362804878049e-05,2.8107450517732242
-4.0443628048780489e-05,4.6220593763401059
-4.0433628048780487e-05,3.2505291881899465
-4.0423628048780485e-05,4.1561863504738836
-4.0413628048780484e-05,3.7089482456423131
-4.0403628048780489e-05,3.7164022140561688
-4.0393628048780487e-05,4.1300974610253753
-4.0383628048780486e-05,3.3250688723285418
-4.0373628048780484e-05,4.4394371501999146
-4.0363628048780489e-05,3.0492720410163709
-4.0353628048780488e-05,4.6369673131678253
-4.0343628048780486e-05,2.9151006095662657
-4.0333628048780485e-05,4.7077800130986569
-4.032362804878049e-05,2.874103783290872
-4.0313628048780488e-05,4.6630562026163336
-4.0303628048780487e-05,2.959824420049423
-4.0293628048780485e-05,4.5139768343391422
-4.028362804878049e-05,3.1312656935688219
-4.0273628048780489e-05,4.3201736555787935
-4.0263628048780487e-05,3.35115776177705
-4.0253628048780485e-05,4.0443768242659903
-4.0243628048780484e-05,3.6344085615037924
-4.0233628048780489e-05,3.8058498350224834
-4.0223628048780487e-05,3.8692085665402898
-4.0213628048780486e-05,3.5598688773651181
-4.0203628048780484e-05,4.0816466663349571
-4.0193628048780489e-05,3.3548847459839806
-4.0183628048780488e-05,2.6952085413574087
-4.0173628048780486e-05,-3.8903725522875154
-4.0163628048780485e-05,1.6628339160355901
-4.015362804878049e-05,-3.3275979370388487
-4.0143628048780488e-05,0.98079580616970941
-4.0133628048780487e-05,-2.5933820482759513
-4.0123628048780485e-05,0.1794942016798064
-4.011362804878049e-05,-1.8069883806128639
-4.0103628048780488e-05,-0.65162327646553486
-4.0093628048780487e-05,-0.94605502881298764
-4.0083628048780485e-05,-1.4901947230247357
-4.0073628048780484e-05,-0.19693120322098964
-4.0063628048780489e-05,-2.1498709276513068
-4.0053628048780487e-05,0.36584341202629544
-4.0043628048780486e-05,-2.6045630008967402
-4.0033628048780484e-05,0.67518310119990121
-4.0023628048780489e-05,-2.768550306001651
-4.0013628048780488e-05,0.76463072216778205
-4.0003628048780486e-05,-2.7536423691739316
-3.9993628048780484e-05,0.64164024333765191
-3.998362804878049e-05,-2.5412042693774866
-3.9973628048780488e-05,0.31366563312927853
-3.9963628048780486e-05,-2.1386899750305179
-3.9953628048780485e-05,-0.17456929797852286
-3.994362804878049e-05,-1.6206391702666203
-3.9933628048780488e-05,-0.70752803956948163
-3.9923628048780487e-05,-1.0839534444693895
-3.9913628048780485e-05,-1.2367597969535107
-3.990362804878049e-05,-0.59571851336187975
-3.9893628048780489e-05,-1.6690899649573652
-3.9883628048780487e-05,-0.23420104528939936
-3.9873628048780486e-05,-1.9635217173048181
-3.9863628048780484e-05,-0.010581992874570055
-3.9853628048780489e-05,-2.1163280697889393
-3.9843628048780488e-05,0.090046580713491628
-3.9833628048780486e-05,-2.1312360066166578
-3.9823628048780484e-05,0.03041483340168466
-3.981362804878049e-05,-2.0156994962009045
-3.9803628048780488e-05,-0.12239151908150592
-3.9793628048780486e-05,-1.7659915543375395
-3.9783628048780485e-05,-0.40936930301558894
-3.977362804878049e-05,-1.4864677388173162
-3.9763628048780488e-05,-0.73361692901799014
-3.9753628048780487e-05,-1.1510391601941257
-3.9743628048780485e-05,-1.0690455076416705
-3.973362804878049e-05,-0.85288042363984151
-3.9723628048780489e-05,-1.3373883705406147
-3.9713628048780487e-05,-0.61062645018930728
-3.9703628048780486e-05,-1.5647344071633313
-3.9693628048780484e-05,-0.46154708191266175
-3.9683628048780489e-05,-1.6616359965435057
-3.9673628048780488e-05,-0.36091850832501193
-3.9663628048780486e-05,-1.6989058386128035
-3.9653628048780484e-05,-0.38700739777409493
-3.964362804878049e-05,-1.6504550439221417
-3.9633628048780488e-05,-0.46154708191211602
-3.9623628048780486e-05,-1.5349185335078932
-3.9613628048780485e-05,-0.61435343439657952
-3.960362804878049e-05,-1.3672042441957106
-3.9593628048780488e-05,-0.82306454998430478
-3.9583628048780487e-05,-1.1696740812287745
-3.9573628048780485e-05,-1.0019597919169343
-3.956362804878049e-05,-0.98332487088229392
-3.9553628048780489e-05,-1.1734010654357043
-3.9543628048780487e-05,-0.80815661315658571
-3.9533628048780485e-05,-1.3187534495059658
-3.9523628048780484e-05,-0.70007407115594578
-3.9513628048780489e-05,-1.4119280546792103
-3.9503628048780487e-05,-0.6292613712239562
-3.9493628048780486e-05,-1.4454709125415783
-3.9483628048780484e-05,-0.62926137122431725
-3.9473628048780489e-05,-1.4231090072996386
-3.9463628048780488e-05,-0.67398518170711363
-3.9453628048780486e-05,-1.367204244196053
-3.9443628048780485e-05,-0.74852486584594136
-3.943362804878049e-05,-1.2591217021948573
-3.9423628048780488e-05,-0.85660740784667289
-3.9413628048780487e-05,-1.128677254952547
-3.9403628048780485e-05,-0.96468994984763656
-3.939362804878049e-05,-1.0243216971584859
-3.9383628048780489e-05,-1.0876804286763193
-3.9373628048780487e-05,-0.93487407619219831
-3.9363628048780485e-05,-1.1883090022634235
-3.9353628048780484e-05,-0.84169947101912324
-3.9343628048780489e-05,-1.2143978917119318
-3.9333628048780487e-05,-0.81933756577737504
-3.9323628048780486e-05,-1.2703026548158787
-3.9313628048780484e-05,-0.76715978688058017
-3.9303628048780489e-05,-1.2553947179879374
-3.9293628048780488e-05,-0.81188359736351545
-3.9283628048780486e-05,-1.2330328127465808
-3.9273628048780485e-05,-0.85288042363988048
-3.926362804878049e-05,-1.1547661444009181
-3.9253628048780488e-05,-0.90505820253676006
-3.9243628048780487e-05,-1.1212232865386873
-3.9233628048780485e-05,-0.99450582350307482
-3.922362804878049e-05,-1.0727724918485646
-3.9213628048780489e-05,-1.0615915392278108
-3.9203628048780487e-05,-0.97959788667535563
-3.9193628048780485e-05,-1.0839534444693895
-3.9183628048780484e-05,-0.9236931235715039
-3.9173628048780489e-05,-1.1324042391594766
-3.9163628048780487e-05,-0.91251217095061965
-3.9153628048780486e-05,-1.1696740812287745
-3.9143628048780484e-05,-0.87896931308837867
-3.9133628048780489e-05,-1.1584931286079851
-3.9123628048780488e-05,-0.89760423412290047
-3.9113628048780486e-05,-1.1473121759871958
-3.9103628048780485e-05,-0.92369312357150046
-3.909362804878049e-05,-1.1249502707455257
-3.9083628048780488e-05,-0.94978201301991738
-3.9073628048780486e-05,-1.07649947605553
-3.9063628048780485e-05,-0.99823280771000455
-3.905362804878049e-05,-1.0578645550208541
-3.9043628048780488e-05,-1.0392296339862321
-3.9033628048780487e-05,-1.024321697158513
-3.9023628048780485e-05,-1.07649947605553
-3.9013628048780484e-05,-0.97587090246847674
-3.9003628048780489e-05,-1.0876804286763193
-3.8993628048780487e-05,-0.9684169340545663
-3.8983628048780486e-05,-1.110042333917898
-3.8973628048780484e-05,-0.94978201301998688
-3.8963628048780489e-05,-1.1025883655040385
-3.8953628048780488e-05,-0.94232804460605779
-3.8943628048780486e-05,-1.07649947605553
-3.8933628048780484e-05,-0.96468994984768908
-3.892362804878049e-05,-1.0802264602624072
-3.8913628048780488e-05,-0.98705185508921522
-3.8903628048780486e-05,-1.0727724918486001
-3.8893628048780485e-05,-0.98705185508921522
-3.888362804878049e-05,-1.0504105866069926
-3.8873628048780488e-05,-1.0056867761238641
-3.8863628048780487e-05,-1.0205947129515833
-3.8853628048780485e-05,-1.042956618193162
-3.884362804878049e-05,-1.005686776123881
-3.8833628048780489e-05,-1.0504105866070215
-3.8823628048780487e-05,-1.0056867761238641
-3.8813628048780486e-05,-1.07649947605553
-3.8803628048780484e-05,-0.98332487088232612
-3.8793628048780489e-05,-1.0727724918486001
-3.8783628048780488e-05,-0.97959788667535563
-3.8773628048780486e-05,-1.0541375708139513
-3.8763628048780484e-05,-0.97959788667539627
-3.875362804878049e-05,-1.0690455076416299
-3.8743628048780488e-05,-0.99823280771000455
-3.8733628048780486e-05,-1.0466836024000916
-3.8723628048780485e-05,-0.99077883929616872
-3.871362804878049e-05,-1.0429566181931382
-3.8703628048780488e-05,-1.0317756655723727
-3.8693628048780487e-05,-1.0392296339862321
-3.8683628048780485e-05,-1.0205947129515833
-3.867362804878049e-05,-1.0243216971585112
-3.8663628048780489e-05,-1.0392296339862321
-3.8653628048780487e-05,-0.99450582350307482
-3.8643628048780486e-05,-1.0466836024000916
-3.8633628048780484e-05,-1.0168677287446586
-3.8623628048780489e-05,-1.0280486813654428
-3.8613628048780488e-05,-1.0056867761238641
-3.8603628048780486e-05,-1.0355026497793023
-3.8593628048780484e-05,-0.99823280771006384
-3.8583628048780489e-05,-1.1286772549524877
-3.8573628048780488e-05,3.9400212664719563
-3.8563628048780486e-05,4.4357101659936173
-3.8553628048780485e-05,4.0667387295072066
-3.854362804878049e-05,3.2691641092249584
-3.8533628048780488e-05,4.7860466814450167
-3.8523628048780487e-05,2.654211715081181
-3.8513628048780485e-05,5.2109228810350112
-3.850362804878049e-05,2.3262371048726722
-3.8493628048780489e-05,5.3823641545537813
-3.8483628048780487e-05,2.262878373353554
-3.8473628048780485e-05,5.3413673282775536
-3.8463628048780484e-05,2.3709609153557838
-3.8453628048780489e-05,5.155018117931065
-3.8443628048780487e-05,2.6243958414257431
-3.8433628048780486e-05,4.8419514445489629
-3.8423628048780484e-05,3.0380910883955723
-3.8413628048780489e-05,4.4096212765444855
-3.8403628048780488e-05,3.4853291932265229
-3.8393628048780486e-05,3.9623831717135349
-3.8383628048780485e-05,3.9549292032994816
-3.837362804878049e-05,3.5300530037098734
-3.8363628048780488e-05,4.3089927029580046
-3.8353628048780487e-05,3.1797164882582809
-3.8343628048780485e-05,4.6071514395123874
-3.833362804878049e-05,2.9449164832224604
-3.8323628048780489e-05,4.7226879499272103
-3.8313628048780487e-05,2.8293799728068807
-3.8303628048780485e-05,4.7189609657202807
-3.8293628048780484e-05,2.8703767990839153
-3.8283628048780489e-05,4.6444212815816845
-3.8273628048780487e-05,3.0231831515672294
-3.8263628048780486e-05,4.4431641344074766
-3.8253628048780484e-05,3.2356212513626592
-3.8243628048780489e-05,4.186002224128889
-3.8233628048780488e-05,3.4778752248126628
-3.8223628048780486e-05,3.9064784086095878
-3.8213628048780485e-05,3.7946688824016368
-3.820362804878049e-05,3.6679514193661396
-3.8193628048780488e-05,4.0033799979897626
-3.8183628048780487e-05,3.4443323669502952
-3.8173628048780485e-05,4.1860022241293215
-3.816362804878049e-05,3.2766180776388683
-3.8153628048780489e-05,3.0865418830850357
-3.8143628048780487e-05,-4.0059090627023384
-3.8133628048780485e-05,1.7895513790734721
-3.8123628048780484e-05,-3.5176741315923774
-3.8113628048780489e-05,1.2305037480340049
-3.8103628048780487e-05,-2.9139026900719118
-3.8093628048780486e-05,0.53728468554506537
-3.8083628048780484e-05,-2.1386899750296857
-3.8073628048780489e-05,-0.30874072942799502
-3.8063628048780488e-05,-1.281483607436668
-3.8053628048780486e-05,-1.1659470970218446
-3.8043628048780484e-05,-0.44663914508507652
-3.803362804878049e-05,-1.9411598120625597
-3.8023628048780488e-05,0.20931007533524465
-3.8013628048780486e-05,-2.4703915694472682
-3.8003628048780485e-05,0.61182436968366105
-3.799362804878049e-05,-2.7722772902070418
-3.7983628048780488e-05,0.76463072216778205
-3.7973628048780487e-05,-2.8020931638640185
-3.7963628048780485e-05,0.73108786430541406
-3.795362804878049e-05,-2.6641947482060728
-3.7943628048780489e-05,0.47019896982032933
-3.7933628048780487e-05,-2.310131248549288
-3.7923628048780486e-05,0.056503722851123594
-3.7913628048780484e-05,-1.8442582226824431
-3.7903628048780489e-05,-0.47645501873983515
-3.7893628048780488e-05,-1.2963915442643872
-3.7883628048780486e-05,-1.0131407445377236
-3.7873628048780484e-05,-0.77834073950147797
-3.786362804878049e-05,-1.5051026598521244
-3.7853628048780488e-05,-0.36091850832501193
-3.7843628048780486e-05,-1.8740740963385032
-3.7833628048780485e-05,-0.066486755977559195
-3.782362804878049e-05,-2.0678772750979415
-3.7813628048780488e-05,0.086319596506561846
-3.7803628048780487e-05,-2.1275090224097282
-3.7793628048780485e-05,0.067684675471912939
-3.778362804878049e-05,-2.0604233066840245
-3.7773628048780489e-05,-0.059032787563699632
-3.7763628048780487e-05,-1.8815280647523627
-3.7753628048780486e-05,-0.2863788241864163
-3.7743628048780484e-05,-1.598277265025245
-3.7733628048780489e-05,-0.59944549756851795
-3.7723628048780488e-05,-1.2963915442643872
-3.7713628048780486e-05,-0.95723598143377697
-3.7703628048780484e-05,-0.97959788667547931
-3.769362804878049e-05,-1.251667733781106
-3.7683628048780488e-05,-0.70007407115562204
-3.7673628048780486e-05,-1.486467738817806
-3.7663628048780485e-05,-0.49881692398192912
-3.765362804878049e-05,-1.631820122887552
-3.7643628048780488e-05,-0.39073438198045018
-3.7633628048780487e-05,-1.706359807026663
-3.7623628048780485e-05,-0.37209946094580126
-3.761362804878049e-05,-1.6951788544052719
-3.7603628048780489e-05,-0.4429121608774671
-3.7593628048780487e-05,-1.5945502808187697
-3.7583628048780486e-05,-0.54354073446457118
-3.7573628048780484e-05,-1.441743928334335
-3.7563628048780489e-05,-0.75225185005263895
-3.7553628048780487e-05,-1.2553947179881595
-3.7543628048780486e-05,-0.93487407619219831
-3.7533628048780484e-05,-1.0429566181932011
-3.7523628048780489e-05,-1.1286772549525079
-3.7513628048780488e-05,-0.86778836046746222
-3.7503628048780486e-05,-1.281483607436668
-3.7493628048780485e-05,-0.73361692901828335
-3.748362804878049e-05,-1.378385196816549
-3.7473628048780488e-05,-0.6292613712239562
-3.7463628048780487e-05,-1.4417439283346485
-3.7453628048780485e-05,-0.61808041860316687
-3.744362804878049e-05,-1.4268359915065618
-3.7433628048780489e-05,-0.65162327646553486
-3.7423628048780487e-05,-1.3895661494376317
-3.7413628048780485e-05,-0.72616296060413055
-3.7403628048780484e-05,-1.303845512678028
-3.7393628048780489e-05,-0.82306454998430478
-3.7383628048780487e-05,-1.195762970677283
-3.7373628048780486e-05,-0.94232804460605779
-3.7363628048780484e-05,-1.0839534444693741
-3.7353628048780489e-05,-1.0504105866070368
-3.7343628048780488e-05,-0.97214391826149615
-3.7333628048780486e-05,-1.1547661444010553
-3.7323628048780485e-05,-0.89387724991612838
-3.731362804878049e-05,-1.2404867811602827
-3.7303628048780488e-05,-0.8156105815704453
-3.7293628048780487e-05,-1.2852105916435976
-3.7283628048780485e-05,-0.79697566053579638
-3.727362804878049e-05,-1.292664560057232
-3.7263628048780489e-05,-0.80442962894965597
-3.7253628048780487e-05,-1.2591217021950893
-3.7243628048780485e-05,-0.83797248681202396
-3.7233628048780484e-05,-1.2181248759187193
-3.7223628048780489e-05,-0.90505820253676006
-3.7213628048780487e-05,-1.1584931286079851
-3.7203628048780486e-05,-0.96096296564070671
-3.7193628048780484e-05,-1.0839534444693624
-3.7183628048780489e-05,-1.02432169715854
-3.7173628048780488e-05,-0.99823280771000455
-3.7163628048780486e-05,-1.0914074128832492
-3.7153628048780485e-05,-0.97214391826157076
-3.714362804878049e-05,-1.1361312233663319
-3.7133628048780488e-05,-0.93860106039912805
-3.7123628048780487e-05,-1.1659470970218446
-3.7113628048780485e-05,-0.91623915515754939
-3.710362804878049e-05,-1.1845820180563718
-3.7093628048780489e-05,-0.9087851867436898
-3.7083628048780487e-05,-1.1659470970218446
-3.7073628048780485e-05,-0.91251217095061965
-3.7063628048780484e-05,-1.1435851917801796
-3.7053628048780489e-05,-0.95350899722684723
-3.7043628048780487e-05,-1.0988613812971086
-3.7033628048780486e-05,-0.98332487088228548
-3.7023628048780484e-05,-1.0653185234347253
-3.7013628048780489e-05,-1.0317756655723727
-3.7003628048780488e-05,-1.0466836024000916
-3.6993628048780486e-05,-1.0504105866070215
-3.6983628048780484e-05,-0.98705185508926263
-3.697362804878049e-05,-1.0914074128832016
-3.6963628048780488e-05,-0.9684169340545663
-3.6953628048780486e-05,-1.1063153497109683
-3.6943628048780485e-05,-0.95350899722684723
-3.693362804878049e-05,-1.113769318124755
-3.6923628048780488e-05,-0.94605502881298764
-3.6913628048780487e-05,-1.0988613812971086
-3.6903628048780485e-05,-0.93487407619219831
-3.689362804878049e-05,-1.1063153497108904
-3.6883628048780489e-05,-0.94978201301991738
-3.6873628048780487e-05,-1.07649947605553
-3.6863628048780486e-05,-0.99823280771000455
-3.6853628048780484e-05,-1.0653185234347238
-3.6843628048780489e-05,-1.0280486813654428
-3.6833628048780488e-05,-1.0355026497793023
-3.6823628048780486e-05,-1.024321697158513
-3.6813628048780484e-05,-1.0131407445377456
-3.680362804878049e-05,-1.0615915392277888
-3.6793628048780488e-05,-0.98705185508921522
-3.6783628048780486e-05,-1.07649947605553
-3.6773628048780485e-05,-0.99077883929614496
-3.676362804878049e-05,-1.0764994760554909
-3.6753628048780488e-05,-1.0019597919169343
-3.6743628048780487e-05,-1.0578645550208812
-3.6733628048780485e-05,-0.98332487088228548
-3.672362804878049e-05,-1.0876804286762718
-3.6713628048780489e-05,-0.97959788667535563
-3.6703628048780487e-05,-1.042956618193162
-3.6693628048780486e-05,-1.0056867761238641
-3.6683628048780484e-05,-1.0317756655723609
-3.6673628048780489e-05,-1.0056867761238641
-3.6663628048780488e-05,-1.042956618193162
-3.6653628048780486e-05,-1.0280486813654428
-3.6643628048780484e-05,-1.0466836024000847
-3.663362804878049e-05,-1.0317756655723795
-3.6623628048780488e-05,-1.0019597919169343
-3.6613628048780486e-05,-1.0504105866070215
-3.6603628048780485e-05,-1.0094137603308144
-3.659362804878049e-05,-1.0541375708139309
-3.6583628048780488e-05,-0.97959788667535563
-3.6573628048780487e-05,-1.0578645550208812
-3.6563628048780485e-05,-0.98705185508921522
-3.655362804878049e-05,-1.0876804286762736
-3.6543628048780489e-05,5.0245736706885227
-3.6533628048780487e-05,3.4294244301225758
-3.6523628048780485e-05,4.830770491928174
-3.6513628048780484e-05,2.6169418730131024
-3.6503628048780489e-05,5.2966435177943962
-3.6493628048780487e-05,2.2181545628703967
-3.6483628048780486e-05,5.4979006649686051
-3.6473628048780484e-05,2.1063450366640235
-3.6463628048780489e-05,5.4494498702769967
-3.6453628048780488e-05,2.2852402785951327
-3.6443628048780486e-05,5.1997419284142223
-3.6433628048780485e-05,2.6169418730128786
-3.642362804878049e-05,4.8046816024786709
-3.6413628048780488e-05,3.0716339462573172
-3.6403628048780487e-05,4.3686244502688814
-3.6393628048780485e-05,3.5710498299859079
-3.638362804878049e-05,3.8505736455055137
-3.6373628048780489e-05,4.0704657137144986
-3.6363628048780487e-05,3.4182434775017869
-3.6353628048780485e-05,4.4282561975797572
-3.6343628048780484e-05,3.0679069620511106
-3.6333628048780489e-05,4.6593292184094039
-3.6323628048780487e-05,2.8517418780484594
-3.6313628048780486e-05,4.7860466814450167
-3.6303628048780484e-05,2.7622942570830635
-3.6293628048780489e-05,4.7823196972371687
-3.6283628048780488e-05,2.8368339412207408
-3.6273628048780486e-05,4.6705101710301937
-3.6263628048780485e-05,3.0120021989470915
-3.625362804878049e-05,4.4431641344068256
-3.6243628048780488e-05,3.2579831566038058
-3.6233628048780487e-05,4.1748212715085327
-3.6223628048780485e-05,3.5449609405373987
-3.621362804878049e-05,3.8729355507470711
