Power_measurements/SKINNY_128_csv/skinny_l3_active_5.csv

#Digilent WaveForms Oscilloscope Acquisition
#Device Name: Discovery2
#Serial Number: SN:210321A1A9F5
#Date Time: 2018-06-28 17:02:46.280
#Sample rate: 1e+08Hz
#Samples: 8192
#Trigger: Source: Channel 1 Type: Edge Condition: Rising Level: 2 V Hyst.: Auto HoldOff: 0 s
#Channel 2: Range: 1 V/div Offset: 0 V

Time (s),Channel 2 (V)
-4.0693833333333333e-05,-1.0504105866070215
-4.0683833333333332e-05,-1.009413760330794
-4.067383333333333e-05,-1.0429566181931451
-4.0663833333333335e-05,-1.005686776123881
-4.0653833333333334e-05,-1.042956618193162
-4.0643833333333332e-05,-1.0056867761238641
-4.0633833333333331e-05,-1.042956618193162
-4.0623833333333336e-05,-1.0094137603308093
-4.0613833333333334e-05,-1.0019597919169343
-4.0603833333333332e-05,5.5165355860032541
-4.0593833333333331e-05,3.0902688672919654
-4.0583833333333329e-05,4.9835768444111679
-4.0573833333333334e-05,2.5051323468039897
-4.0563833333333333e-05,5.2966435177943962
-4.0553833333333331e-05,2.1995196418357477
-4.054383333333333e-05,5.5016276491739973
-4.0533833333333335e-05,2.1212529734917602
-4.0523833333333333e-05,5.4531768544854478
-4.0513833333333332e-05,2.195792657628818
-4.050383333333333e-05,5.3078244704138626
-4.0493833333333335e-05,2.3970498048043498
-4.0483833333333334e-05,5.06929748117168
-4.0473833333333332e-05,2.6765736203227597
-4.046383333333333e-05,4.7525038235826482
-4.0453833333333336e-05,3.0269101357749437
-4.0443833333333334e-05,4.3984403239243193
-4.0433833333333332e-05,3.3996085564671379
-4.0423833333333331e-05,4.0145609506105515
-4.0413833333333329e-05,3.7723069771600768
-4.0403833333333334e-05,3.6865863404007309
-4.0393833333333333e-05,4.0928276189560773
-4.0383833333333331e-05,3.3847006196394185
-4.037383333333333e-05,4.3499895292336745
-4.0363833333333335e-05,3.1238117251548916
-4.0353833333333333e-05,4.5214308027530024
-4.0343833333333332e-05,2.9635514042563535
-4.033383333333333e-05,4.6257863605462406
-4.0323833333333335e-05,2.8778307674977635
-4.0313833333333334e-05,4.6518752499955447
-4.0303833333333332e-05,2.8629228306692491
-4.029383333333333e-05,4.6220593763401059
-4.0283833333333336e-05,2.9225545779808986
-4.0273833333333334e-05,4.5177038185460718
-4.0263833333333332e-05,3.045545056808808
-4.0253833333333331e-05,4.372351434475811
-4.0243833333333329e-05,3.1908974408795325
-4.0233833333333334e-05,4.2083641293709002
-4.0223833333333333e-05,3.3809736354324889
-4.0213833333333331e-05,4.0071069821966923
-4.020383333333333e-05,3.5822307826068021
-4.0193833333333335e-05,3.8133038034363436
-4.0183833333333333e-05,2.568491078321796
-4.0173833333333332e-05,-3.7002963577340964
-4.016383333333333e-05,1.5547513740346517
-4.0153833333333335e-05,-3.3797757159358919
-4.0143833333333334e-05,1.208141842792426
-4.0133833333333332e-05,-3.0853439635906819
-4.012383333333333e-05,0.90998310623804357
-4.0113833333333335e-05,-2.7238264955168412
-4.0103833333333334e-05,0.48137992244111871
-4.0093833333333332e-05,-2.224410611789903
-4.0083833333333331e-05,-0.059032787563699632
-4.0073833333333329e-05,-1.6653629807499915
-4.0063833333333334e-05,-0.6888931185348327
-4.0053833333333333e-05,-1.0727724918486001
-4.0043833333333331e-05,-1.2553947179881595
-4.0033833333333329e-05,-0.5584486712928225
-4.0023833333333335e-05,-1.7287217122682417
-4.0013833333333333e-05,-0.13357247170229525
-4.0003833333333331e-05,-2.0790582277196412
-3.999383333333333e-05,0.13477039119554737
-3.9983833333333335e-05,-2.2877693433066075
-3.9973833333333333e-05,0.29875769630155941
-3.9963833333333332e-05,-2.3995788695156026
-3.995383333333333e-05,0.37329738044015504
-3.9943833333333335e-05,-2.3921249011004848
-3.9933833333333334e-05,0.32484658575006786
-3.9923833333333332e-05,-2.310131248549288
-3.9913833333333331e-05,0.19440213850752552
-3.9903833333333336e-05,-2.138689975029457
-3.9893833333333334e-05,-0.032943898115191161
-3.9883833333333333e-05,-1.8964360015800819
-3.9873833333333331e-05,-0.28265183997948651
-3.9863833333333329e-05,-1.5982772650252501
-3.9853833333333335e-05,-0.61062645018930728
-3.9843833333333333e-05,-1.2963915442643872
-3.9833833333333331e-05,-0.94605502881298764
-3.982383333333333e-05,-0.9945058235031714
-3.9813833333333335e-05,-1.2069439232979757
-3.9803833333333333e-05,-0.7224359763972007
-3.9793833333333332e-05,-1.4603788493692975
-3.978383333333333e-05,-0.52490581343042564
-3.9773833333333335e-05,-1.631820122887564
-3.9763833333333334e-05,-0.37582644515273106
-3.9753833333333332e-05,-1.7436296490959609
-3.9743833333333331e-05,-0.29755977680720563
-3.9733833333333336e-05,-1.7697185385437999
-3.9723833333333334e-05,-0.27147088735869718
-3.9713833333333333e-05,-1.7734455227513992
-3.9703833333333331e-05,-0.32737565046264389
-3.9693833333333329e-05,-1.7249947280607154
-3.9683833333333335e-05,-0.41309628722202885
-3.9673833333333333e-05,-1.5908232966118399
-3.9663833333333331e-05,-0.54354073446457118
-3.965383333333333e-05,-1.486467738817445
-3.9643833333333335e-05,-0.69262010274212349
-3.9633833333333333e-05,-1.3299344021267552
-3.9623833333333332e-05,-0.85288042363974315
-3.961383333333333e-05,-1.1659470970217785
-3.9603833333333335e-05,-1.0205947129516495
-3.9593833333333334e-05,-0.99450582350307482
-3.9583833333333332e-05,-1.1473121759871958
-3.957383333333333e-05,-0.87151534467439196
-3.9563833333333336e-05,-1.2777566232295534
-3.9553833333333334e-05,-0.76715978688035813
-3.9543833333333332e-05,-1.3634772599891232
-3.9533833333333331e-05,-0.68143915012097311
-3.9523833333333329e-05,-1.4305629757135065
-3.9513833333333334e-05,-0.65535026067246471
-3.9503833333333333e-05,-1.4268359915069295
-3.9493833333333331e-05,-0.64416930805167527
-3.948383333333333e-05,-1.4193820230927343
-3.9473833333333335e-05,-0.68143915012130873
-3.9463833333333333e-05,-1.3709312284029826
-3.9453833333333332e-05,-0.73734391322491988
-3.944383333333333e-05,-1.3187534495057285
-3.9433833333333335e-05,-0.79697566053603364
-3.9423833333333334e-05,-1.2442137653673702
-3.9413833333333332e-05,-0.89015026570904088
-3.940383333333333e-05,-1.1547661444010553
-3.9393833333333336e-05,-0.96096296564079486
-3.9383833333333334e-05,-1.0727724918486001
-3.9373833333333332e-05,-1.042956618193162
-3.9363833333333331e-05,-0.99077883929614496
-3.9353833333333329e-05,-1.1100423339178116
-3.9343833333333334e-05,-0.91996613936447913
-3.9333833333333333e-05,-1.1771280496426342
-3.9323833333333331e-05,-0.87896931308825155
-3.931383333333333e-05,-1.2106709075048445
-3.9303833333333335e-05,-0.86406137626069013
-3.9293833333333333e-05,-1.229305828539651
-3.9283833333333332e-05,-0.8416994710189537
-3.927383333333333e-05,-1.2479407495741204
-3.9263833333333335e-05,-0.85288042363992278
-3.9253833333333334e-05,-1.2367597969535107
-3.9243833333333332e-05,-0.85660740784667289
-3.923383333333333e-05,-1.2032169390911425
-3.9223833333333336e-05,-0.89387724991611139
-3.9213833333333334e-05,-1.1584931286079851
-3.9203833333333332e-05,-0.93114709198526846
-3.9193833333333331e-05,-1.1324042391594766
-3.9183833333333329e-05,-0.96096296564076777
-3.9173833333333334e-05,-1.0951343970901788
-3.9163833333333333e-05,-1.009413760330794
-3.9153833333333331e-05,-1.0653185234347406
-3.914383333333333e-05,-1.0392296339862135
-3.9133833333333335e-05,-0.99823280771000455
-3.9123833333333333e-05,-1.0988613812971086
-3.9113833333333332e-05,-0.96468994984763656
-3.910383333333333e-05,-1.1137693181247685
-3.9093833333333335e-05,-0.98332487088234477
-3.9083833333333333e-05,-1.1212232865386873
-3.9073833333333332e-05,-0.93860106039912805
-3.906383333333333e-05,-1.128677254952547
-3.9053833333333335e-05,-0.94605502881307069
-3.9043833333333334e-05,-1.1398582075733363
-3.9033833333333332e-05,-0.94232804460605779
-3.9023833333333331e-05,-1.1473121759871958
-3.9013833333333329e-05,-0.94605502881306724
-3.9003833333333334e-05,-1.1212232865386873
-3.8993833333333333e-05,-0.97587090246842589
-3.8983833333333331e-05,-1.07649947605553
-3.8973833333333329e-05,-1.0094137603308262
-3.8963833333333335e-05,-1.0802264602624598
-3.8953833333333333e-05,-1.009413760330794
-3.8943833333333331e-05,-1.042956618193162
-3.893383333333333e-05,-1.0355026497793041
-3.8923833333333335e-05,-1.0392296339862304
-3.8913833333333333e-05,-1.042956618193162
-3.8903833333333332e-05,-1.0205947129515833
-3.889383333333333e-05,-1.0690455076416705
-3.8883833333333335e-05,-1.005686776123893
-3.8873833333333334e-05,-1.07649947605553
-3.8863833333333332e-05,-0.97959788667535563
-3.8853833333333331e-05,-1.0876804286763193
-3.8843833333333336e-05,-0.983324870882333
-3.8833833333333334e-05,-1.0727724918486001
-3.8823833333333333e-05,-0.98705185508921522
-3.8813833333333331e-05,-1.0802264602624598
-3.8803833333333329e-05,-0.97959788667539294
-3.8793833333333335e-05,-1.0615915392278108
-3.8783833333333333e-05,-1.0019597919169343
-3.8773833333333331e-05,-1.0504105866070215
-3.876383333333333e-05,-1.0168677287446772
-3.8753833333333335e-05,-1.0690455076416467
-3.8743833333333333e-05,-1.009413760330794
-3.8733833333333332e-05,-1.0504105866070215
-3.872383333333333e-05,-1.0094137603308193
-3.8713833333333335e-05,-1.0653185234347151
-3.8703833333333334e-05,-1.0392296339862321
-3.8693833333333332e-05,-1.0317756655723727
-3.8683833333333331e-05,-1.0578645550208812
-3.8673833333333336e-05,-1.0168677287446721
-3.8663833333333334e-05,-1.042956618193162
-3.8653833333333333e-05,-1.0056867761238641
-3.8643833333333331e-05,-1.0578645550208812
-3.8633833333333329e-05,-1.0131407445377372
-3.8623833333333335e-05,-1.042956618193162
-3.8613833333333333e-05,-0.99823280771000455
-3.8603833333333331e-05,-1.042956618193162
-3.859383333333333e-05,-1.0094137603306992
-3.8583833333333335e-05,-0.80070264474282105
-3.8573833333333333e-05,6.1762117906298251
-3.8563833333333332e-05,2.4566815521139027
-3.855383333333333e-05,5.4196339966215996
-3.8543833333333335e-05,2.1659767839748598
-3.8533833333333334e-05,5.5351705070379023
-3.8523833333333332e-05,2.0616212261793461
-3.851383333333333e-05,5.5388974912448328
-3.8503833333333336e-05,2.124979957698705
-3.8493833333333334e-05,5.3637292335191331
-3.8483833333333332e-05,2.3672339311475881
-3.8473833333333331e-05,5.0916593864132587
-3.8463833333333329e-05,2.7026625097721961
-3.8453833333333334e-05,4.7413228709618593
-3.8443833333333333e-05,3.0939958514988959
-3.8433833333333331e-05,4.3201736555787935
-3.842383333333333e-05,3.5151450668821473
-3.8413833333333335e-05,3.9251133296440504
-3.8403833333333333e-05,3.9027514244026582
-3.8393833333333332e-05,3.5747768141928375
-3.838383333333333e-05,4.2195450819912548
-3.8373833333333335e-05,3.2617101408111711
-3.8363833333333334e-05,4.476706992269845
-3.8353833333333332e-05,3.0194561673602998
-3.834383333333333e-05,4.6444212815816845
-3.8333833333333336e-05,2.8703767990839149
-3.8323833333333334e-05,4.7115069973064205
-3.8313833333333332e-05,2.8144720359791622
-3.8303833333333331e-05,4.7301419183410696
-3.8293833333333329e-05,2.8144720359800095
-3.8283833333333334e-05,4.677964139444053
-3.8273833333333333e-05,2.8964656885316167
-3.8263833333333331e-05,4.5326117553737912
-3.825383333333333e-05,3.0679069620509818
-3.8243833333333335e-05,4.3760784186821455
-3.8233833333333333e-05,3.2244402987414382
-3.8223833333333332e-05,4.1897292083362512
-3.821383333333333e-05,3.4256974459158989
-3.8203833333333335e-05,3.9810180927479304
-3.8193833333333334e-05,3.6306815772967838
-3.8183833333333332e-05,3.7611260245393261
-3.817383333333333e-05,3.8244847560571325
-3.8163833333333336e-05,3.5561418931583106
-3.8153833333333334e-05,1.5808402634854042
-3.8143833333333332e-05,-3.3723217475242757
-3.8133833333333331e-05,1.1671450165161985
-3.8123833333333329e-05,-2.8356360217248886
-3.8113833333333334e-05,0.45901801719954
-3.8103833333333333e-05,-2.1535979118582365
-3.8093833333333331e-05,-0.20811215584089088
-3.808383333333333e-05,-1.5386455177144804
-3.8073833333333335e-05,-0.78579470791500705
-3.8063833333333333e-05,-0.98705185508921522
-3.8053833333333331e-05,-1.3411153547475445
-3.804383333333333e-05,-0.45036612929195041
-3.8033833333333335e-05,-1.8218963174408627
-3.8023833333333333e-05,-0.040397866529050724
-3.8013833333333332e-05,-2.1834137855136753
-3.800383333333333e-05,0.24657991740454244
-3.7993833333333335e-05,-2.3921249011005425
-3.7983833333333334e-05,0.41802119092331241
-3.7973833333333332e-05,-2.5113883957234959
-3.7963833333333331e-05,0.45156404878568046
-3.7953833333333336e-05,-2.5002074431013641
-3.7943833333333334e-05,0.39193230147480396
-3.7933833333333333e-05,-2.3734899800670943
-3.7923833333333331e-05,0.24657991740454244
-3.7913833333333329e-05,-2.1647788644780417
-3.7903833333333335e-05,0.00059895974717687206
-3.7893833333333333e-05,-1.9076169542008712
-3.7883833333333331e-05,-0.31992168204878435
-3.787383333333333e-05,-1.5759153597837021
-3.7863833333333335e-05,-0.65535026067288338
-3.7853833333333333e-05,-1.2442137653673702
-3.7843833333333332e-05,-0.99823280771000455
-3.783383333333333e-05,-0.93860106039912805
-3.7823833333333335e-05,-1.28521059164344
-3.7813833333333334e-05,-0.65535026067246471
-3.7803833333333332e-05,-1.5349185335078932
-3.7793833333333331e-05,-0.45036612929132669
-3.7783833333333336e-05,-1.71008679123302
-3.7773833333333334e-05,-0.31992168204878435
-3.7763833333333333e-05,-1.8144423490276267
-3.7753833333333331e-05,-0.24910898211711849
-3.7743833333333329e-05,-1.8442582226823363
-3.7733833333333335e-05,-0.24165501370325893
-3.7723833333333333e-05,-1.825623301648416
-3.7713833333333331e-05,-0.28265183997948651
-3.770383333333333e-05,-1.7473566333022754
-3.7693833333333335e-05,-0.39446136618799521
-3.7683833333333333e-05,-1.6280931386811377
-3.7673833333333332e-05,-0.54354073446457118
-3.766383333333333e-05,-1.4790137704035871
-3.7653833333333335e-05,-0.68889311853519197
-3.7643833333333334e-05,-1.3038455126782467
-3.7633833333333332e-05,-0.86406137626053248
-3.7623833333333331e-05,-1.1361312233664065
-3.7613833333333336e-05,-1.0429566181932044
-3.7603833333333334e-05,-0.9684169340545663
-3.7593833333333333e-05,-1.1845820180564937
-3.7583833333333331e-05,-0.8416994710189537
-3.7573833333333329e-05,-1.3411153547472767
-3.7563833333333334e-05,-0.75225185005263895
-3.7553833333333333e-05,-1.3970201178514912
-3.7543833333333331e-05,-0.68516613432790296
-3.753383333333333e-05,-1.4417439283342723
-3.7523833333333335e-05,-0.61435343439661338
-3.7513833333333333e-05,-1.4603788493692975
-3.7503833333333332e-05,-0.6292613712239562
-3.749383333333333e-05,-1.4380169441273563
-3.7483833333333335e-05,-0.64044232384510824
-3.7473833333333334e-05,-1.3895661494376317
-3.7463833333333332e-05,-0.72616296060413055
-3.745383333333333e-05,-1.3224804337128955
-3.7443833333333336e-05,-0.80070264474296338
-3.7433833333333334e-05,-1.2553947179881595
-3.7423833333333332e-05,-0.87896931308825155
-3.7413833333333331e-05,-1.162220112814915
-3.7403833333333329e-05,-0.96468994984768575
-3.7393833333333334e-05,-1.0727724918486001
-3.7383833333333333e-05,-1.0504105866070215
-3.7373833333333331e-05,-0.98332487088228548
-3.736383333333333e-05,-1.1361312233663048
-3.7353833333333335e-05,-0.91251217095072135
-3.7343833333333333e-05,-1.1734010654357043
-3.7333833333333332e-05,-0.86406137626053248
-3.732383333333333e-05,-1.2106709075048327
-3.7313833333333335e-05,-0.83797248681219338
-3.7303833333333334e-05,-1.2516677337812296
-3.7293833333333332e-05,-0.82306454998430478
-3.728383333333333e-05,-1.2553947179881595
-3.7273833333333336e-05,-0.81933756577757333
-3.7263833333333334e-05,-1.2479407495743
-3.7253833333333332e-05,-0.85660740784667289
-3.7243833333333331e-05,-1.2218518601257915
-3.7233833333333329e-05,-0.87524232888145914
-3.7223833333333334e-05,-1.1771280496426342
-3.7213833333333333e-05,-0.93487407619219831
-3.7203833333333331e-05,-1.1137693181248278
-3.719383333333333e-05,-0.96468994984769418
-3.7183833333333335e-05,-1.0914074128831914
-3.7173833333333333e-05,-1.0168677287446535
-3.7163833333333332e-05,-1.0466836024000916
-3.715383333333333e-05,-1.0541375708139309
-3.7143833333333335e-05,-1.0094137603308144
-3.7133833333333334e-05,-1.110042333917898
-3.7123833333333332e-05,-0.9684169340545663
-3.711383333333333e-05,-1.1174963023317577
-3.7103833333333336e-05,-0.94978201301999365
-3.7093833333333334e-05,-1.1361312233664065
-3.7083833333333332e-05,-0.94978201301991738
-3.7073833333333331e-05,-1.1510391601941257
-3.7063833333333329e-05,-0.93487407619229324
-3.7053833333333334e-05,-1.143585191780266
-3.7043833333333333e-05,-0.92369312357140898
-3.7033833333333331e-05,-1.1324042391594766
-3.7023833333333329e-05,-0.9311470919853515
-3.7013833333333335e-05,-1.1137693181248278
-3.7003833333333333e-05,-0.9684169340545663
-3.6993833333333331e-05,-1.1025883655040385
-3.698383333333333e-05,-0.98332487088233289
-3.6973833333333335e-05,-1.0876804286762718
-3.6963833333333333e-05,-1.0168677287446535
-3.6953833333333332e-05,-1.0541375708139513
-3.694383333333333e-05,-1.0392296339862321
-3.6933833333333335e-05,-1.0355026497793041
-3.6923833333333334e-05,-1.0392296339862321
-3.6913833333333332e-05,-1.0205947129515833
-3.6903833333333331e-05,-1.0615915392278108
-3.6893833333333336e-05,-1.0056867761238895
-3.6883833333333334e-05,-1.0727724918486001
-3.6873833333333333e-05,-0.98332487088228548
-3.6863833333333331e-05,-1.0876804286763193
-3.6853833333333329e-05,-0.98705185508926097
-3.6843833333333335e-05,-1.0876804286763193
-3.6833833333333333e-05,-0.97587090246842589
-3.6823833333333331e-05,-1.07649947605553
-3.681383333333333e-05,-0.98705185508925763
-3.6803833333333335e-05,-1.0802264602624174
-3.6793833333333333e-05,-0.97959788667535563
-3.6783833333333332e-05,-1.0690455076416705
-3.677383333333333e-05,-1.0056867761238641
-3.6763833333333335e-05,-1.0653185234347136
-3.6753833333333334e-05,-1.0205947129515833
-3.6743833333333332e-05,-1.0392296339862321
-3.6733833333333331e-05,-1.0205947129515833
-3.6723833333333336e-05,-1.0355026497792954
-3.6713833333333334e-05,-1.042956618193162
-3.6703833333333333e-05,-1.0280486813654428
-3.6693833333333331e-05,-1.0317756655723727
-3.6683833333333329e-05,-1.0019597919169563
-3.6673833333333335e-05,-1.0504105866070215
-3.6663833333333333e-05,-1.0131407445377236
-3.6653833333333331e-05,-1.0504105866070215
-3.664383333333333e-05,-1.0243216971585298
-3.6633833333333335e-05,-1.0615915392277939
-3.6623833333333333e-05,-1.0019597919169343
-3.6613833333333332e-05,-1.0578645550208812
-3.660383333333333e-05,-1.005686776123881
-3.6593833333333335e-05,-1.0429566181931451
-3.6583833333333334e-05,-0.99450582350307482
-3.6573833333333332e-05,-1.0466836024000916
-3.6563833333333331e-05,-1.0280486813654428
-3.6553833333333336e-05,-0.49881692398165456
-3.6543833333333334e-05,6.5563641797366623
-3.6533833333333332e-05,2.1137990050763626
-3.6523833333333331e-05,5.6059832069695688
-3.6513833333333329e-05,2.0467132893532147
-3.6503833333333334e-05,5.5388974912448328
-3.6493833333333333e-05,2.1324339261110117
-3.6483833333333331e-05,5.4159070124161497
-3.647383333333333e-05,2.3299640890795561
-3.6463833333333335e-05,5.1140212916535717
-3.6453833333333333e-05,2.6952085413574087
-3.6443833333333332e-05,4.7115069973064205
-3.643383333333333e-05,3.1387196619825719
-3.6423833333333335e-05,4.2791768293020471
-3.6413833333333334e-05,3.5934117352274866
-3.6403833333333332e-05,3.8431196770917815
-3.639383333333333e-05,3.999653013782833
-3.6383833333333336e-05,3.4853291932267569
-3.6373833333333334e-05,4.3201736555787935
-3.6363833333333332e-05,3.1685355356374911
-3.6353833333333331e-05,4.5698815974430893
-3.6343833333333329e-05,2.956097435843307
-3.6333833333333334e-05,4.745049855168789
-3.6323833333333333e-05,2.8219260043930214
-3.6313833333333331e-05,4.8084085866865953
-3.630383333333333e-05,2.758567272876137
-3.6293833333333335e-05,4.7860466814440947
-3.6283833333333333e-05,2.7809291781167937
-3.6273833333333332e-05,4.7115069973064205
-3.626383333333333e-05,2.8852847359116005
-3.6253833333333335e-05,4.584789534270036
-3.6243833333333334e-05,3.0418180726018784
-3.6233833333333332e-05,4.3760784186827406
-3.622383333333333e-05,3.2244402987414382
-3.6213833333333336e-05,4.1748212715081001
-3.6203833333333334e-05,3.4741482406057331
