Power_measurements/SKINNY_128_csv/skinny_c160_idle_2.csv

#Digilent WaveForms Oscilloscope Acquisition
#Device Name: Discovery2
#Serial Number: SN:210321A1A9F5
#Date Time: 2018-06-28 17:05:45.360
#Sample rate: 1e+08Hz
#Samples: 8192
#Trigger: Source: Channel 1 Type: Edge Condition: Rising Level: 2 V Hyst.: Auto HoldOff: 0 s
#Channel 2: Range: 1 V/div Offset: 0 V

Time (s),Channel 2 (V)
-4.0699701789264415e-05,0.99197675879049874
-4.0689701789264413e-05,0.97334183775584981
-4.0679701789264411e-05,0.95470691672120767
-4.0669701789264417e-05,0.9696148535489133
-4.0659701789264415e-05,0.97706882196277967
-4.0649701789264413e-05,0.99197675879049874
-4.0639701789264412e-05,0.96961485354892007
-4.0629701789264417e-05,0.9807958061697043
-4.0619701789264415e-05,0.96961485354892007
-4.0609701789264414e-05,0.98452279037663915
-4.0599701789264412e-05,0.98079580616970941
-4.0589701789264411e-05,0.98452279037663237
-4.0579701789264416e-05,0.96961485354892007
-4.0569701789264414e-05,0.96961485354892007
-4.0559701789264413e-05,0.96961485354892007
-4.0549701789264411e-05,0.98079580616971107
-4.0539701789264416e-05,0.98452279037663748
-4.0529701789264415e-05,0.98452279037663915
-4.0519701789264413e-05,0.988249774583569
-4.0509701789264411e-05,0.97706882196277967
-4.0499701789264417e-05,0.97706882196277967
-4.0489701789264415e-05,0.96216088513506048
-4.0479701789264413e-05,0.96961485354892007
-4.0469701789264412e-05,0.95843390092813074
-4.0459701789264417e-05,0.98079580616969919
-4.0449701789264415e-05,0.98079580616970941
-4.0439701789264414e-05,0.96588786934199033
-4.0429701789264412e-05,0.96216088513506048
-4.0419701789264411e-05,0.97706882196278133
-4.0409701789264416e-05,0.98079580616970941
-4.0399701789264414e-05,0.99197675879049874
-4.0389701789264413e-05,0.97706882196277967
-4.0379701789264411e-05,0.97334183775585148
-4.0369701789264416e-05,0.977068821962778
-4.0359701789264415e-05,0.98079580616970941
-4.0349701789264413e-05,0.98452279037663915
-4.0339701789264411e-05,0.97334183775584981
-4.0329701789264416e-05,0.97334183775584981
-4.0319701789264415e-05,0.97334183775584981
-4.0309701789264413e-05,0.96961485354892007
-4.0299701789264412e-05,0.97706882196277967
-4.0289701789264417e-05,0.9845227903766357
-4.0279701789264415e-05,0.97334183775584981
-4.0269701789264414e-05,0.98452279037663915
-4.0259701789264412e-05,0.98079580616970941
-4.024970178926441e-05,0.98452279037662727
-4.0239701789264416e-05,0.95843390092813074
-4.0229701789264414e-05,0.97706882196277967
-4.0219701789264412e-05,0.98079580616970941
-4.0209701789264411e-05,0.99570374299742681
-4.0199701789264416e-05,0.99197675879049874
-4.0189701789264414e-05,0.988249774583569
-4.0179701789264413e-05,0.98452279037663915
-4.0169701789264411e-05,0.98824977458356222
-4.0159701789264416e-05,0.97334183775585659
-4.0149701789264415e-05,0.988249774583569
-4.0139701789264413e-05,0.96961485354892007
-4.0129701789264412e-05,1.0031577114112882
-4.0119701789264417e-05,0.99197675879050384
-4.0109701789264415e-05,0.96961485354892007
-4.0099701789264414e-05,0.97706882196277967
-4.0089701789264412e-05,0.97706882196277967
-4.007970178926441e-05,0.98079580616970596
-4.0069701789264416e-05,0.97334183775584981
-4.0059701789264414e-05,0.96961485354892007
-4.0049701789264412e-05,0.99197675879049874
-4.0039701789264411e-05,0.98824977458356056
-4.0029701789264416e-05,0.96961485354892007
-4.0019701789264414e-05,0.99570374299742848
-4.0009701789264413e-05,0.97706882196277967
-3.9999701789264411e-05,0.9919767587904903
-3.9989701789264416e-05,0.97334183775585825
-3.9979701789264415e-05,0.97334183775584981
-3.9969701789264413e-05,0.97706882196277967
-3.9959701789264412e-05,0.98452279037663915
-3.9949701789264417e-05,0.98452279037663915
-3.9939701789264415e-05,0.988249774583569
-3.9929701789264414e-05,0.98452279037663915
-3.9919701789264412e-05,0.98452279037663915
-3.9909701789264417e-05,0.97706882196278311
-3.9899701789264416e-05,0.99197675879049874
-3.9889701789264414e-05,0.96961485354892007
-3.9879701789264412e-05,0.99197675879049874
-3.9869701789264411e-05,0.98079580616971107
-3.9859701789264416e-05,0.98452279037663915
-3.9849701789264414e-05,0.97706882196277967
-3.9839701789264413e-05,0.98452279037663915
-3.9829701789264411e-05,0.98452279037663237
-3.9819701789264416e-05,0.96961485354892685
-3.9809701789264415e-05,0.96216088513506048
-3.9799701789264413e-05,0.96588786934199033
-3.9789701789264411e-05,0.98452279037663071
-3.9779701789264417e-05,0.96588786934199877
-3.9769701789264415e-05,0.988249774583569
-3.9759701789264413e-05,0.99570374299742848
-3.9749701789264412e-05,0.98452279037663915
-3.9739701789264417e-05,0.97334183775585492
-3.9729701789264415e-05,0.97334183775584981
-3.9719701789264414e-05,0.988249774583569
-3.9709701789264412e-05,0.97706882196277967
-3.9699701789264411e-05,0.98452279037662893
-3.9689701789264416e-05,0.96216088513506048
-3.9679701789264414e-05,0.98079580616970941
-3.9669701789264413e-05,0.988249774583569
-3.9659701789264411e-05,0.98452279037663748
-3.9649701789264416e-05,0.98079580616971107
-3.9639701789264415e-05,0.96961485354892007
-3.9629701789264413e-05,0.988249774583569
-3.9619701789264411e-05,0.97334183775586336
-3.9609701789264417e-05,1.0031577114112746
-3.9599701789264415e-05,0.98452279037663915
-3.9589701789264413e-05,0.96961485354892007
-3.9579701789264412e-05,0.97334183775584981
-3.9569701789264417e-05,0.98452279037663404
-3.9559701789264415e-05,1.0031577114112882
-3.9549701789264414e-05,0.97706882196277967
-3.9539701789264412e-05,0.98079580616970941
-3.9529701789264411e-05,0.96961485354891841
-3.9519701789264416e-05,0.96588786934199033
-3.9509701789264414e-05,0.988249774583569
-3.9499701789264413e-05,0.988249774583569
-3.9489701789264411e-05,0.97334183775585326
-3.9479701789264416e-05,0.98079580616970596
-3.9469701789264415e-05,0.97706882196277967
-3.9459701789264413e-05,0.96216088513506048
-3.9449701789264411e-05,0.9845227903766357
-3.9439701789264417e-05,0.97706882196278311
-3.9429701789264415e-05,0.96588786934199033
-3.9419701789264413e-05,0.96588786934199033
-3.9409701789264412e-05,0.97706882196277967
-3.9399701789264417e-05,0.96961485354892352
-3.9389701789264415e-05,0.98079580616970941
-3.9379701789264414e-05,0.95843390092813074
-3.9369701789264412e-05,0.98079580616970941
-3.9359701789264411e-05,0.96588786934200221
-3.9349701789264416e-05,0.99197675879049874
-3.9339701789264414e-05,0.94725294830734141
-3.9329701789264413e-05,0.97706882196277967
-3.9319701789264411e-05,0.97706882196278644
-3.9309701789264416e-05,0.99197675879049196
-3.9299701789264414e-05,1.0031577114112882
-3.9289701789264413e-05,0.98079580616970941
-3.9279701789264411e-05,0.95843390092813918
-3.9269701789264416e-05,0.97706882196277123
-3.9259701789264415e-05,0.96216088513506048
-3.9249701789264413e-05,0.96961485354892007
-3.9239701789264412e-05,0.97334183775584981
-3.9229701789264417e-05,0.96588786934199378
-3.9219701789264415e-05,0.98079580616970941
-3.9209701789264414e-05,0.98452279037663915
-3.9199701789264412e-05,0.97334183775584981
-3.918970178926441e-05,0.98452279037663404
-3.9179701789264416e-05,0.97334183775584981
-3.9169701789264414e-05,0.97706882196277967
-3.9159701789264412e-05,0.97706882196277967
-3.9149701789264411e-05,0.98452279037663404
-3.9139701789264416e-05,0.97334183775584981
-3.9129701789264414e-05,0.97334183775584981
-3.9119701789264413e-05,0.99197675879049874
-3.9109701789264411e-05,0.97706882196277456
-3.9099701789264416e-05,0.96588786934199544
-3.9089701789264415e-05,0.99197675879049874
-3.9079701789264413e-05,0.96961485354892007
-3.9069701789264412e-05,0.97334183775584981
-3.9059701789264417e-05,0.98452279037663404
-3.9049701789264415e-05,0.96588786934199033
-3.9039701789264414e-05,0.98079580616970941
-3.9029701789264412e-05,0.97334183775584981
-3.901970178926441e-05,0.98079580616969919
-3.9009701789264416e-05,0.95843390092813074
-3.8999701789264414e-05,0.96216088513506048
-3.8989701789264412e-05,0.98079580616970941
-3.8979701789264411e-05,0.98824977458355379
-3.8969701789264416e-05,0.95470691672120089
-3.8959701789264414e-05,0.99197675879049874
-3.8949701789264413e-05,0.97334183775584981
-3.8939701789264411e-05,0.96216088513506215
-3.8929701789264416e-05,0.96588786934198867
-3.8919701789264415e-05,0.95470691672120089
-3.8909701789264413e-05,0.95843390092813074
-3.8899701789264412e-05,0.98079580616970941
-3.8889701789264417e-05,0.97706882196278133
-3.8879701789264415e-05,0.98079580616970941
-3.8869701789264414e-05,0.96216088513506048
-3.8859701789264412e-05,0.97334183775584981
-3.8849701789264417e-05,0.96216088513506559
-3.8839701789264416e-05,0.95843390092813074
-3.8829701789264414e-05,0.98079580616970941
-3.8819701789264412e-05,0.98079580616970941
-3.8809701789264411e-05,0.96961485354892174
-3.8799701789264416e-05,0.97334183775584981
-3.8789701789264414e-05,0.96588786934199033
-3.8779701789264413e-05,0.96588786934199033
-3.8769701789264411e-05,0.98079580616970941
-3.8759701789264416e-05,0.98079580616970941
-3.8749701789264415e-05,0.988249774583569
-3.8739701789264413e-05,0.97706882196277967
-3.8729701789264411e-05,0.977068821962778
-3.8719701789264417e-05,0.97334183775585148
-3.8709701789264415e-05,0.98452279037663915
-3.8699701789264413e-05,0.97334183775584981
-3.8689701789264412e-05,0.98079580616970941
-3.8679701789264417e-05,0.98824977458356555
-3.8669701789264415e-05,0.98452279037663915
-3.8659701789264414e-05,0.97334183775584981
-3.8649701789264412e-05,0.96216088513506048
-3.8639701789264411e-05,0.98824977458356555
-3.8629701789264416e-05,0.98079580616970941
-3.8619701789264414e-05,0.98452279037663915
-3.8609701789264413e-05,0.96961485354892007
-3.8599701789264411e-05,0.98824977458356222
-3.8589701789264416e-05,0.97334183775585659
-3.8579701789264415e-05,0.99197675879049874
-3.8569701789264413e-05,0.98079580616970941
-3.8559701789264411e-05,0.98824977458356555
-3.8549701789264417e-05,0.98079580616971285
-3.8539701789264415e-05,0.988249774583569
-3.8529701789264413e-05,0.97706882196277967
-3.8519701789264412e-05,0.96588786934199033
-3.8509701789264417e-05,0.97706882196277456
-3.8499701789264415e-05,0.98452279037663915
-3.8489701789264414e-05,0.988249774583569
-3.8479701789264412e-05,0.98079580616970941
-3.8469701789264411e-05,0.9919767587905004
-3.8459701789264416e-05,0.99570374299742848
-3.8449701789264414e-05,0.96961485354892007
-3.8439701789264413e-05,0.98079580616970941
-3.8429701789264411e-05,0.97334183775584637
-3.8419701789264416e-05,0.96588786934199378
-3.8409701789264415e-05,0.988249774583569
-3.8399701789264413e-05,0.96961485354892007
-3.8389701789264411e-05,0.98452279037663748
-3.8379701789264417e-05,0.98079580616971107
-3.8369701789264415e-05,0.96216088513506048
-3.8359701789264413e-05,0.96588786934199033
-3.8349701789264412e-05,0.96588786934199033
-3.8339701789264417e-05,0.96961485354891841
-3.8329701789264415e-05,0.96588786934199033
-3.8319701789264414e-05,0.97706882196277967
-3.8309701789264412e-05,0.98079580616970941
-3.8299701789264411e-05,0.96588786934199033
-3.8289701789264416e-05,0.96588786934199033
-3.8279701789264414e-05,0.99197675879049874
-3.8269701789264412e-05,0.97334183775584981
-3.8259701789264411e-05,0.98452279037663237
-3.8249701789264416e-05,0.96961485354892685
-3.8239701789264414e-05,0.98452279037663915
-3.8229701789264413e-05,0.96588786934199033
-3.8219701789264411e-05,0.99197675879049363
-3.8209701789264416e-05,0.98079580616971451
-3.8199701789264415e-05,0.97706882196277967
-3.8189701789264413e-05,0.97706882196277967
-3.8179701789264412e-05,0.99197675879049874
-3.8169701789264417e-05,0.96588786934200221
-3.8159701789264415e-05,0.98452279037663915
-3.8149701789264414e-05,0.98452279037663915
-3.8139701789264412e-05,0.98079580616970941
-3.812970178926441e-05,0.98079580616970941
-3.8119701789264416e-05,0.98079580616970941
-3.8109701789264414e-05,0.98452279037663915
-3.8099701789264412e-05,0.95843390092813074
-3.8089701789264411e-05,0.97706882196278477
-3.8079701789264416e-05,0.988249774583569
-3.8069701789264414e-05,0.97334183775584981
-3.8059701789264413e-05,0.97706882196277967
-3.8049701789264411e-05,0.97706882196278311
-3.8039701789264416e-05,0.9845227903766357
-3.8029701789264415e-05,0.98079580616970941
-3.8019701789264413e-05,0.97334183775584981
-3.8009701789264412e-05,0.94352596410041156
-3.7999701789264417e-05,0.9696148535489082
-3.7989701789264415e-05,0.96961485354892007
-3.7979701789264414e-05,0.97706882196277967
-3.7969701789264412e-05,0.96216088513506048
-3.7959701789264417e-05,0.99197675879048519
-3.7949701789264416e-05,0.97706882196277967
-3.7939701789264414e-05,0.97334183775584981
-3.7929701789264412e-05,0.99197675879049874
-3.7919701789264411e-05,0.98824977458356733
-3.7909701789264416e-05,0.98452279037663915
-3.7899701789264414e-05,0.97706882196277967
-3.7889701789264413e-05,0.96961485354892007
-3.7879701789264411e-05,0.97334183775584471
-3.7869701789264416e-05,0.96216088513506559
-3.7859701789264415e-05,0.98079580616970941
-3.7849701789264413e-05,0.97334183775584981
-3.7839701789264412e-05,0.97334183775584981
-3.7829701789264417e-05,0.98452279037663404
-3.7819701789264415e-05,0.97334183775584981
-3.7809701789264414e-05,0.98452279037663915
-3.7799701789264412e-05,0.96961485354892007
-3.7789701789264417e-05,0.96216088513506393
-3.7779701789264415e-05,0.96588786934199033
-3.7769701789264414e-05,0.96961485354892007
-3.7759701789264412e-05,0.98079580616970941
-3.7749701789264411e-05,0.96961485354892007
-3.7739701789264416e-05,0.96961485354892007
-3.7729701789264414e-05,0.97706882196277967
-3.7719701789264413e-05,0.97334183775584981
-3.7709701789264411e-05,0.98452279037663404
-3.7699701789264416e-05,0.97334183775585492
-3.7689701789264415e-05,0.96961485354892007
-3.7679701789264413e-05,0.97334183775584981
-3.7669701789264411e-05,0.97334183775584981
-3.7659701789264417e-05,0.97334183775584981
-3.7649701789264415e-05,0.988249774583569
-3.7639701789264413e-05,0.97706882196277967
-3.7629701789264412e-05,0.96588786934199033
-3.7619701789264417e-05,0.97706882196277456
-3.7609701789264415e-05,0.96961485354892007
-3.7599701789264414e-05,0.97334183775584981
-3.7589701789264412e-05,0.96961485354892007
-3.7579701789264411e-05,0.965887869341992
-3.7569701789264416e-05,0.96961485354892007
-3.7559701789264414e-05,0.97334183775584981
-3.7549701789264413e-05,0.95843390092813074
-3.7539701789264411e-05,0.94352596410042511
-3.7529701789264416e-05,0.97334183775583627
-3.7519701789264415e-05,0.98079580616970941
-3.7509701789264413e-05,0.95843390092813074
-3.7499701789264411e-05,0.97706882196278133
-3.7489701789264417e-05,0.98079580616970774
-3.7479701789264415e-05,0.97334183775584981
-3.7469701789264413e-05,0.98079580616970941
-3.7459701789264412e-05,0.97706882196277967
-3.7449701789264417e-05,0.97334183775585148
-3.7439701789264415e-05,0.97706882196277967
-3.7429701789264414e-05,0.97334183775584981
-3.7419701789264412e-05,0.98452279037663915
-3.7409701789264411e-05,0.97706882196277622
-3.7399701789264416e-05,0.96961485354892007
-3.7389701789264414e-05,0.988249774583569
-3.7379701789264413e-05,0.96216088513506048
-3.7369701789264411e-05,0.96961485354891841
-3.7359701789264416e-05,0.965887869341992
-3.7349701789264415e-05,0.95843390092813074
-3.7339701789264413e-05,0.98452279037663915
-3.7329701789264411e-05,0.96216088513506048
-3.7319701789264417e-05,0.96216088513506048
-3.7309701789264415e-05,0.97334183775584981
-3.7299701789264413e-05,0.96216088513506048
-3.7289701789264412e-05,0.988249774583569
-3.7279701789264417e-05,0.97334183775585659
-3.7269701789264415e-05,0.96961485354892007
-3.7259701789264414e-05,0.96961485354892007
-3.7249701789264412e-05,0.97334183775584981
-3.723970178926441e-05,0.98079580616971285
-3.7229701789264416e-05,0.988249774583569
-3.7219701789264414e-05,0.95843390092813074
-3.7209701789264412e-05,0.99570374299742848
-3.7199701789264411e-05,0.96961485354892851
-3.7189701789264416e-05,0.98824977458356056
-3.7179701789264414e-05,0.96961485354892007
-3.7169701789264413e-05,0.96216088513506048
-3.7159701789264411e-05,0.97334183775585148
-3.7149701789264416e-05,0.977068821962778
-3.7139701789264415e-05,0.96216088513506048
-3.7129701789264413e-05,0.98079580616970941
-3.7119701789264412e-05,0.97334183775584981
-3.7109701789264417e-05,0.98824977458356222
-3.7099701789264415e-05,0.98452279037663915
-3.7089701789264414e-05,0.97706882196277967
-3.7079701789264412e-05,0.97706882196277967
-3.706970178926441e-05,0.96216088513506559
-3.7059701789264416e-05,0.97334183775584981
-3.7049701789264414e-05,0.988249774583569
-3.7039701789264412e-05,0.96588786934199033
-3.7029701789264411e-05,0.98452279037663748
-3.7019701789264416e-05,0.98079580616970941
-3.7009701789264414e-05,0.97706882196277967
-3.6999701789264413e-05,0.98079580616970941
-3.6989701789264411e-05,0.97706882196278133
-3.6979701789264416e-05,0.98079580616970774
-3.6969701789264415e-05,0.99570374299742848
-3.6959701789264413e-05,0.97706882196277967
-3.6949701789264412e-05,0.988249774583569
-3.6939701789264417e-05,0.96961485354892851
-3.6929701789264415e-05,0.96216088513506048
-3.6919701789264414e-05,0.97706882196277967
-3.6909701789264412e-05,0.95843390092813074
-3.6899701789264417e-05,0.97334183775584304
-3.6889701789264416e-05,0.988249774583569
-3.6879701789264414e-05,0.94725294830734141
-3.6869701789264412e-05,0.98452279037663915
-3.6859701789264411e-05,0.97706882196278133
-3.6849701789264416e-05,0.98079580616970941
-3.6839701789264414e-05,0.96588786934199033
-3.6829701789264413e-05,0.97334183775584981
-3.6819701789264411e-05,0.96961485354892174
-3.6809701789264416e-05,0.97334183775584815
-3.6799701789264415e-05,0.96216088513506048
-3.6789701789264413e-05,0.96588786934199033
-3.6779701789264412e-05,0.96961485354892007
-3.6769701789264417e-05,0.98824977458356056
-3.6759701789264415e-05,0.95470691672120089
-3.6749701789264413e-05,0.98452279037663915
-3.6739701789264412e-05,0.96216088513506048
-3.6729701789264417e-05,0.95470691672120434
-3.6719701789264415e-05,0.99197675879049874
-3.6709701789264414e-05,0.96961485354892007
-3.6699701789264412e-05,0.96588786934199033
-3.6689701789264411e-05,0.97334183775585148
-3.6679701789264416e-05,0.97706882196277967
-3.6669701789264414e-05,0.96216088513506048
-3.6659701789264413e-05,0.98452279037663915
-3.6649701789264411e-05,0.95470691672121111
-3.6639701789264416e-05,0.97706882196276945
-3.6629701789264415e-05,0.96961485354892007
-3.6619701789264413e-05,0.95843390092813074
-3.6609701789264411e-05,0.97334183775584637
-3.6599701789264417e-05,0.96588786934199378
-3.6589701789264415e-05,0.97334183775584981
-3.6579701789264413e-05,0.99197675879049874
-3.6569701789264412e-05,0.96961485354892007
-3.6559701789264417e-05,0.99943072720434478
-3.6549701789264415e-05,0.97334183775584981
-3.6539701789264414e-05,0.97706882196277967
-3.6529701789264412e-05,0.96961485354892007
-3.6519701789264411e-05,0.98452279037664081
-3.6509701789264416e-05,0.988249774583569
-3.6499701789264414e-05,0.96588786934199033
-3.6489701789264413e-05,0.99197675879049874
-3.6479701789264411e-05,0.97334183775584815
-3.6469701789264416e-05,0.96961485354892174
-3.6459701789264415e-05,0.988249774583569
-3.6449701789264413e-05,0.95843390092813074
-3.6439701789264411e-05,0.98452279037664081
-3.6429701789264417e-05,0.98824977458356733
-3.6419701789264415e-05,0.97334183775584981
-3.6409701789264413e-05,0.97706882196277967
-3.6399701789264412e-05,0.98079580616970941
-3.6389701789264417e-05,0.98824977458356555
-3.6379701789264415e-05,0.98079580616970941
-3.6369701789264414e-05,0.98079580616970941
-3.6359701789264412e-05,0.97334183775584981
-3.6349701789264411e-05,0.97706882196277456
-3.6339701789264416e-05,0.96588786934199033
-3.6329701789264414e-05,0.98452279037663915
-3.6319701789264413e-05,0.988249774583569
-3.6309701789264411e-05,0.96961485354892174
-3.6299701789264416e-05,0.97334183775584815
-3.6289701789264415e-05,0.99197675879049874
-3.6279701789264413e-05,0.97706882196277967
-3.6269701789264411e-05,0.98452279037663404
-3.6259701789264416e-05,0.97334183775585492
-3.6249701789264415e-05,0.99197675879049874
-3.6239701789264413e-05,0.98452279037663915
-3.6229701789264412e-05,0.98079580616970941
