Power_measurements/Simeck_64_128_csv/simeck_active_c160_6.csv

#Digilent WaveForms Oscilloscope Acquisition
#Device Name: Discovery2
#Serial Number: SN:210321A1A9F5
#Date Time: 2018-06-28 16:05:33.443
#Sample rate: 1e+08Hz
#Samples: 8192
#Trigger: Source: Channel 1 Type: Edge Condition: Rising Level: 2 V Hyst.: Auto HoldOff: 0 s
#Channel 2: Range: 1 V/div Offset: 0 V

Time (s),Channel 2 (V)
-4.0693868613138689e-05,0.96961485354892007
-4.0683868613138688e-05,0.97334183775584981
-4.0673868613138686e-05,0.97334183775585148
-4.0663868613138691e-05,0.977068821962778
-4.065386861313869e-05,0.988249774583569
-4.0643868613138688e-05,0.96961485354892007
-4.0633868613138687e-05,0.98452279037663915
-4.0623868613138692e-05,0.97334183775585492
-4.061386861313869e-05,0.97706882196277967
-4.0603868613138689e-05,0.97706882196277967
-4.0593868613138687e-05,0.99197675879049874
-4.0583868613138685e-05,0.98824977458356389
-4.0573868613138691e-05,0.97706882196277967
-4.0563868613138689e-05,0.98079580616970941
-4.0553868613138687e-05,0.96961485354892007
-4.0543868613138686e-05,0.98452279037663071
-4.0533868613138691e-05,0.96588786934199877
-4.0523868613138689e-05,0.98452279037663915
-4.0513868613138688e-05,0.96588786934199033
-4.0503868613138686e-05,0.98452279037663748
-4.0493868613138691e-05,0.98079580616971107
-4.048386861313869e-05,0.97706882196277967
-4.0473868613138688e-05,0.96588786934199033
-4.0463868613138687e-05,0.97706882196277967
-4.0453868613138692e-05,0.96961485354892352
-4.044386861313869e-05,0.988249774583569
-4.0433868613138689e-05,0.97334183775584981
-4.0423868613138687e-05,0.97706882196277967
-4.0413868613138685e-05,0.97706882196277456
-4.0403868613138691e-05,0.96588786934199033
-4.0393868613138689e-05,0.98079580616970941
-4.0383868613138687e-05,0.96588786934199033
-4.0373868613138686e-05,0.98452279037662893
-4.0363868613138691e-05,0.9621608851350707
-4.0353868613138689e-05,0.96961485354892007
-4.0343868613138688e-05,0.97334183775584981
-4.0333868613138686e-05,0.97706882196278477
-4.0323868613138691e-05,0.98824977458356389
-4.031386861313869e-05,0.98079580616970941
-4.0303868613138688e-05,0.98452279037663915
-4.0293868613138687e-05,0.96216088513506048
-4.0283868613138692e-05,0.97706882196277289
-4.027386861313869e-05,0.97334183775584981
-4.0263868613138688e-05,0.988249774583569
-4.0253868613138687e-05,0.98452279037663915
-4.0243868613138685e-05,0.9845227903766357
-4.023386861313869e-05,0.97706882196277967
-4.0223868613138689e-05,0.988249774583569
-4.0213868613138687e-05,0.97334183775584981
-4.0203868613138686e-05,0.98452279037663748
-4.0193868613138691e-05,0.98079580616970941
-4.0183868613138689e-05,0.988249774583569
-4.0173868613138688e-05,0.98079580616970941
-4.0163868613138686e-05,0.97334183775584981
-4.0153868613138691e-05,0.97334183775584981
-4.014386861313869e-05,0.96216088513506048
-4.0133868613138688e-05,0.98452279037663915
-4.0123868613138686e-05,0.97706882196277967
-4.0113868613138692e-05,0.9845227903766357
-4.010386861313869e-05,0.97706882196277967
-4.0093868613138688e-05,0.97334183775584981
-4.0083868613138687e-05,0.96216088513506048
-4.0073868613138685e-05,0.97334183775584815
-4.006386861313869e-05,0.96961485354892007
-4.0053868613138689e-05,0.988249774583569
-4.0043868613138687e-05,0.96961485354892007
-4.0033868613138686e-05,0.97334183775585326
-4.0023868613138691e-05,0.98079580616970941
-4.0013868613138689e-05,0.97334183775584981
-4.0003868613138688e-05,0.96216088513506048
-3.9993868613138686e-05,0.95843390092813241
-3.9983868613138691e-05,0.96216088513505882
-3.997386861313869e-05,0.97334183775584981
-3.9963868613138688e-05,0.98079580616970941
-3.9953868613138686e-05,0.99570374299742848
-3.9943868613138692e-05,0.96961485354893195
-3.993386861313869e-05,0.98452279037663915
-3.9923868613138688e-05,0.96961485354892007
-3.9913868613138687e-05,0.97334183775584981
-3.9903868613138692e-05,0.96961485354892174
-3.989386861313869e-05,0.98079580616970941
-3.9883868613138689e-05,0.988249774583569
-3.9873868613138687e-05,0.96216088513506048
-3.9863868613138686e-05,0.96588786934199378
-3.9853868613138691e-05,0.97334183775584981
-3.9843868613138689e-05,0.98079580616970941
-3.9833868613138688e-05,0.98452279037663915
-3.9823868613138686e-05,0.98079580616971107
-3.9813868613138691e-05,0.98452279037663748
-3.980386861313869e-05,0.98452279037663915
-3.9793868613138688e-05,0.96216088513506048
-3.9783868613138686e-05,0.97334183775585326
-3.9773868613138691e-05,0.98079580616970596
-3.976386861313869e-05,0.97334183775584981
-3.9753868613138688e-05,0.97706882196277967
-3.9743868613138687e-05,0.96216088513506048
-3.9733868613138692e-05,0.96961485354891663
-3.972386861313869e-05,0.96588786934199033
-3.9713868613138689e-05,0.988249774583569
-3.9703868613138687e-05,0.96588786934199033
-3.9693868613138685e-05,0.97334183775584981
-3.9683868613138691e-05,0.97334183775584981
-3.9673868613138689e-05,0.96588786934199033
-3.9663868613138687e-05,0.97706882196277967
-3.9653868613138686e-05,0.98824977458356389
-3.9643868613138691e-05,0.97706882196278477
-3.9633868613138689e-05,0.98079580616970941
-3.9623868613138688e-05,0.97706882196277967
-3.9613868613138686e-05,0.94725294830735662
-3.9603868613138691e-05,0.9807958061696942
-3.959386861313869e-05,0.98452279037663915
-3.9583868613138688e-05,0.98079580616970941
-3.9573868613138687e-05,0.99197675879049874
-3.9563868613138692e-05,0.98824977458357066
-3.955386861313869e-05,0.97334183775584981
-3.9543868613138689e-05,0.97334183775584981
-3.9533868613138687e-05,0.97334183775584981
-3.9523868613138685e-05,0.97706882196277967
-3.9513868613138691e-05,0.97706882196277967
-3.9503868613138689e-05,0.97334183775584981
-3.9493868613138687e-05,0.98079580616970941
-3.9483868613138686e-05,0.98079580616971285
-3.9473868613138691e-05,0.98824977458356555
-3.9463868613138689e-05,0.98452279037663915
-3.9453868613138688e-05,0.97334183775584981
-3.9443868613138686e-05,0.97706882196278644
-3.9433868613138691e-05,0.99197675879049196
-3.942386861313869e-05,0.98452279037663915
-3.9413868613138688e-05,0.99197675879049874
-3.9403868613138687e-05,1.0031577114112882
-3.9393868613138692e-05,0.96961485354893528
-3.938386861313869e-05,0.97334183775584981
-3.9373868613138689e-05,0.98079580616970941
-3.9363868613138687e-05,0.97706882196277967
-3.9353868613138685e-05,0.97334183775585148
-3.9343868613138691e-05,0.97706882196277967
-3.9333868613138689e-05,0.97706882196277967
-3.9323868613138687e-05,0.99197675879049874
-3.9313868613138686e-05,0.95097993251427793
-3.9303868613138691e-05,0.96588786934198356
-3.9293868613138689e-05,0.988249774583569
-3.9283868613138688e-05,0.96961485354892007
-3.9273868613138686e-05,0.97334183775584815
-3.9263868613138691e-05,0.96961485354892174
-3.925386861313869e-05,0.988249774583569
-3.9243868613138688e-05,0.97706882196277967
-3.9233868613138687e-05,0.98452279037663915
-3.9223868613138692e-05,0.9472529483073584
-3.921386861313869e-05,0.98079580616970941
-3.9203868613138688e-05,0.97334183775584981
-3.9193868613138687e-05,0.96961485354892007
-3.9183868613138685e-05,0.977068821962778
-3.917386861313869e-05,0.97334183775584981
-3.9163868613138689e-05,0.99570374299742848
-3.9153868613138687e-05,0.98079580616970941
-3.9143868613138686e-05,0.98079580616970596
-3.9133868613138691e-05,0.97334183775584981
-3.9123868613138689e-05,0.96961485354892007
-3.9113868613138688e-05,0.97706882196277967
-3.9103868613138686e-05,0.98452279037663237
-3.9093868613138691e-05,0.96961485354892685
-3.908386861313869e-05,0.96216088513506048
-3.9073868613138688e-05,0.97706882196277967
-3.9063868613138686e-05,0.97706882196277967
-3.9053868613138692e-05,0.99570374299742004
-3.904386861313869e-05,0.97334183775584981
-3.9033868613138688e-05,0.96216088513506048
-3.9023868613138687e-05,0.98452279037663915
-3.9013868613138685e-05,0.96961485354891841
-3.900386861313869e-05,0.96588786934199033
-3.8993868613138689e-05,0.98452279037663915
-3.8983868613138687e-05,0.98079580616970941
-3.8973868613138686e-05,0.98452279037663915
-3.8963868613138691e-05,0.98452279037663915
-3.8953868613138689e-05,0.96961485354892007
-3.8943868613138688e-05,0.96961485354892007
-3.8933868613138686e-05,0.96588786934199711
-3.8923868613138691e-05,0.98079580616970263
-3.891386861313869e-05,0.988249774583569
-3.8903868613138688e-05,0.98079580616970941
-3.8893868613138686e-05,0.96961485354892007
-3.8883868613138692e-05,0.965887869341992
-3.887386861313869e-05,0.988249774583569
-3.8863868613138688e-05,0.988249774583569
-3.8853868613138687e-05,0.99197675879049874
-3.8843868613138692e-05,0.97706882196278644
-3.883386861313869e-05,0.96588786934199033
-3.8823868613138689e-05,0.96216088513506048
-3.8813868613138687e-05,0.95470691672120089
-3.8803868613138686e-05,0.96961485354893195
-3.8793868613138691e-05,0.99570374299742848
-3.8783868613138689e-05,0.98079580616970941
-3.8773868613138688e-05,0.98452279037663915
-3.8763868613138686e-05,0.98079580616971618
-3.8753868613138691e-05,0.9957037429974217
-3.8743868613138689e-05,0.98452279037663915
-3.8733868613138688e-05,0.99570374299742848
-3.8723868613138686e-05,0.988249774583569
-3.8713868613138691e-05,0.988249774583569
-3.870386861313869e-05,0.96961485354892007
-3.8693868613138688e-05,0.97334183775584981
-3.8683868613138687e-05,0.96588786934199033
-3.8673868613138692e-05,0.96961485354891841
-3.866386861313869e-05,0.98452279037663915
-3.8653868613138689e-05,0.988249774583569
-3.8643868613138687e-05,0.97334183775584981
-3.8633868613138685e-05,0.97706882196277456
-3.8623868613138691e-05,0.96588786934199033
-3.8613868613138689e-05,0.98452279037663915
-3.8603868613138687e-05,0.98079580616970941
-3.8593868613138686e-05,0.97706882196278311
-3.8583868613138691e-05,0.9845227903766357
-3.8573868613138689e-05,0.988249774583569
-3.8563868613138688e-05,0.99943072720435833
-3.8553868613138686e-05,0.98824977458356056
-3.8543868613138691e-05,0.96961485354892851
-3.853386861313869e-05,0.96961485354892007
-3.8523868613138688e-05,0.98079580616970941
-3.8513868613138687e-05,0.96216088513506048
-3.8503868613138692e-05,0.96588786934198867
-3.849386861313869e-05,0.99197675879049874
-3.8483868613138689e-05,0.95843390092813074
-3.8473868613138687e-05,0.97334183775584981
-3.8463868613138685e-05,0.97706882196277622
-3.8453868613138691e-05,0.96961485354892007
-3.8443868613138689e-05,0.97334183775584981
-3.8433868613138687e-05,0.95843390092813074
-3.8423868613138686e-05,0.98824977458356056
-3.8413868613138691e-05,0.96961485354892851
-3.8403868613138689e-05,0.988249774583569
-3.8393868613138688e-05,0.98452279037663915
-3.8383868613138686e-05,0.97706882196277456
-3.8373868613138691e-05,0.96588786934199544
-3.836386861313869e-05,0.988249774583569
-3.8353868613138688e-05,0.98079580616970941
-3.8343868613138687e-05,0.988249774583569
-3.8333868613138692e-05,0.97706882196278477
-3.832386861313869e-05,0.97334183775584981
-3.8313868613138689e-05,0.988249774583569
-3.8303868613138687e-05,0.97706882196277967
-3.8293868613138685e-05,0.98452279037663915
-3.8283868613138691e-05,0.98452279037663915
-3.8273868613138689e-05,0.96588786934199033
-3.8263868613138687e-05,0.97334183775584981
-3.8253868613138686e-05,0.96588786934199544
-3.8243868613138691e-05,0.97706882196277456
-3.8233868613138689e-05,0.98452279037663915
-3.8223868613138688e-05,0.95843390092813074
-3.8213868613138686e-05,0.98452279037663404
-3.8203868613138691e-05,0.97334183775585492
-3.819386861313869e-05,0.97334183775584981
-3.8183868613138688e-05,0.97334183775584981
-3.8173868613138686e-05,0.96216088513506048
-3.8163868613138692e-05,0.95843390092813241
-3.815386861313869e-05,0.96216088513506048
-3.8143868613138688e-05,0.95470691672120089
-3.8133868613138687e-05,0.98452279037663915
-3.8123868613138685e-05,0.95470691672120933
-3.811386861313869e-05,0.97334183775584981
-3.8103868613138689e-05,0.95843390092813074
-3.8093868613138687e-05,0.96961485354892007
-3.8083868613138686e-05,0.97334183775584637
-3.8073868613138691e-05,0.96588786934199033
-3.8063868613138689e-05,0.97706882196277967
-3.8053868613138688e-05,0.96216088513506048
-3.8043868613138686e-05,0.96961485354892851
-3.8033868613138691e-05,0.98824977458356056
-3.802386861313869e-05,0.97706882196277967
-3.8013868613138688e-05,0.98079580616970941
-3.8003868613138686e-05,0.96588786934199033
-3.7993868613138692e-05,0.98452279037663071
-3.798386861313869e-05,0.97706882196277967
-3.7973868613138688e-05,0.97706882196277967
-3.7963868613138687e-05,0.96961485354892007
-3.7953868613138692e-05,0.96961485354892007
-3.794386861313869e-05,0.96588786934199033
-3.7933868613138689e-05,0.97334183775584981
-3.7923868613138687e-05,0.96961485354892007
-3.7913868613138686e-05,0.96588786934199033
-3.7903868613138691e-05,0.96588786934199033
-3.7893868613138689e-05,0.96588786934199033
-3.7883868613138688e-05,0.98452279037663915
-3.7873868613138686e-05,0.965887869341992
-3.7863868613138691e-05,0.96961485354891841
-3.785386861313869e-05,0.97334183775584981
-3.7843868613138688e-05,0.98079580616970941
-3.7833868613138686e-05,0.95843390092813074
-3.7823868613138692e-05,0.97334183775584304
-3.781386861313869e-05,0.97706882196277967
-3.7803868613138688e-05,0.96588786934199033
-3.7793868613138687e-05,0.97706882196277967
-3.7783868613138692e-05,0.97334183775585148
-3.777386861313869e-05,0.988249774583569
-3.7763868613138689e-05,0.98079580616970941
-3.7753868613138687e-05,0.96961485354892007
-3.7743868613138686e-05,0.97334183775585148
-3.7733868613138691e-05,0.97706882196277967
-3.7723868613138689e-05,0.97334183775584981
-3.7713868613138688e-05,0.96588786934199033
-3.7703868613138686e-05,0.97334183775584637
-3.7693868613138691e-05,0.96588786934199378
-3.7683868613138689e-05,0.98452279037663915
-3.7673868613138688e-05,0.98452279037663915
-3.7663868613138686e-05,0.97706882196277622
-3.7653868613138691e-05,0.96961485354892352
-3.764386861313869e-05,0.97334183775584981
-3.7633868613138688e-05,0.96216088513506048
-3.7623868613138687e-05,0.95470691672120089
-3.7613868613138692e-05,0.95843390092812908
-3.760386861313869e-05,0.96588786934199033
-3.7593868613138689e-05,0.96588786934199033
-3.7583868613138687e-05,0.96588786934199033
-3.7573868613138685e-05,0.96961485354892007
-3.7563868613138691e-05,0.96961485354892007
-3.7553868613138689e-05,0.96588786934199033
-3.7543868613138687e-05,0.96216088513506048
-3.7533868613138686e-05,0.98824977458356389
-3.7523868613138691e-05,0.97706882196278477
-3.7513868613138689e-05,0.988249774583569
-3.7503868613138688e-05,0.99570374299742848
-3.7493868613138686e-05,0.96216088513506559
-3.7483868613138691e-05,0.97334183775584471
-3.747386861313869e-05,0.99197675879049874
-3.7463868613138688e-05,0.96216088513506048
-3.7453868613138687e-05,0.95843390092813074
-3.7443868613138692e-05,0.96588786934198689
-3.743386861313869e-05,0.96961485354892007
-3.7423868613138689e-05,0.988249774583569
-3.7413868613138687e-05,0.98079580616970941
-3.7403868613138685e-05,0.96216088513506048
-3.7393868613138691e-05,0.96216088513506048
-3.7383868613138689e-05,0.97334183775584981
-3.7373868613138687e-05,0.97334183775584981
-3.7363868613138686e-05,0.95097993251427626
-3.7353868613138691e-05,0.96216088513505538
-3.7343868613138689e-05,0.97706882196277967
-3.7333868613138688e-05,0.96588786934199033
-3.7323868613138686e-05,0.98079580616969753
-3.7313868613138691e-05,0.95470691672121277
-3.730386861313869e-05,0.98452279037663915
-3.7293868613138688e-05,0.97706882196277967
-3.7283868613138687e-05,0.988249774583569
-3.7273868613138692e-05,0.988249774583569
-3.726386861313869e-05,0.96216088513506048
-3.7253868613138689e-05,0.97706882196277967
-3.7243868613138687e-05,0.95097993251427115
-3.7233868613138685e-05,0.95470691672121111
-3.722386861313869e-05,0.97706882196277967
-3.7213868613138689e-05,0.96961485354892007
-3.7203868613138687e-05,0.988249774583569
-3.7193868613138686e-05,0.977068821962778
-3.7183868613138691e-05,0.97334183775585148
-3.7173868613138689e-05,0.99570374299742848
-3.7163868613138688e-05,0.95843390092813074
-3.7153868613138686e-05,0.99570374299740982
-3.7143868613138691e-05,0.95470691672121955
-3.713386861313869e-05,0.94725294830734141
-3.7123868613138688e-05,0.96216088513506048
-3.7113868613138686e-05,0.97334183775584981
-3.7103868613138692e-05,0.96216088513506559
-3.709386861313869e-05,0.95470691672120089
-3.7083868613138688e-05,0.96588786934199033
-3.7073868613138687e-05,0.98079580616970941
-3.7063868613138685e-05,0.97706882196278133
-3.705386861313869e-05,0.98079580616970941
-3.7043868613138689e-05,0.97334183775584981
-3.7033868613138687e-05,0.96216088513506048
-3.7023868613138686e-05,0.97334183775584138
-3.7013868613138691e-05,0.95470691672120089
-3.7003868613138689e-05,0.96961485354892007
-3.6993868613138688e-05,0.988249774583569
-3.6983868613138686e-05,0.95843390092813419
-3.6973868613138691e-05,0.96588786934198689
-3.696386861313869e-05,0.98079580616970941
-3.6953868613138688e-05,0.96961485354892007
-3.6943868613138686e-05,0.97706882196277967
-3.6933868613138692e-05,0.96961485354892352
-3.692386861313869e-05,0.97334183775584981
-3.6913868613138688e-05,0.98452279037663915
-3.6903868613138687e-05,0.988249774583569
-3.6893868613138692e-05,0.96216088513507236
-3.688386861313869e-05,0.99570374299742848
-3.6873868613138689e-05,0.96216088513506048
-3.6863868613138687e-05,0.99197675879049874
-3.6853868613138686e-05,0.96588786934199544
-3.6843868613138691e-05,0.97706882196277967
-3.6833868613138689e-05,0.97706882196277967
-3.6823868613138688e-05,0.97334183775584981
-3.6813868613138686e-05,0.96216088513506892
-3.6803868613138691e-05,0.98079580616970097
-3.679386861313869e-05,0.99570374299742848
-3.6783868613138688e-05,0.97706882196277967
-3.6773868613138686e-05,0.97334183775584981
-3.6763868613138692e-05,0.95097993251428137
-3.675386861313869e-05,0.96216088513506048
-3.6743868613138688e-05,0.96216088513506048
-3.6733868613138687e-05,0.95843390092813074
-3.6723868613138692e-05,0.96961485354891497
-3.671386861313869e-05,0.96588786934199033
-3.6703868613138689e-05,0.97334183775584981
-3.6693868613138687e-05,0.95470691672120089
-3.6683868613138686e-05,0.96588786934199378
-3.6673868613138691e-05,0.97334183775584981
-3.6663868613138689e-05,0.96588786934199033
-3.6653868613138687e-05,0.96216088513506048
-3.6643868613138686e-05,0.9621608851350707
-3.6633868613138691e-05,0.98452279037662893
-3.6623868613138689e-05,0.95843390092813074
-3.6613868613138688e-05,0.95843390092813074
-3.6603868613138686e-05,0.97706882196277967
-3.6593868613138691e-05,0.97706882196277967
-3.658386861313869e-05,0.96961485354892007
-3.6573868613138688e-05,0.96216088513506048
-3.6563868613138687e-05,0.98452279037663915
-3.6553868613138692e-05,0.97706882196278311
-3.654386861313869e-05,0.97334183775584981
-3.6533868613138689e-05,0.96961485354892007
-3.6523868613138687e-05,0.97706882196277967
-3.6513868613138685e-05,0.96216088513506559
-3.6503868613138691e-05,0.97334183775584981
-3.6493868613138689e-05,0.98079580616970941
-3.6483868613138687e-05,0.97334183775584981
-3.6473868613138686e-05,0.97334183775585659
-3.6463868613138691e-05,0.98824977458356222
-3.6453868613138689e-05,0.95470691672120089
-3.6443868613138688e-05,0.99570374299742848
-3.6433868613138686e-05,0.98079580616970941
-3.6423868613138691e-05,0.98079580616970941
-3.641386861313869e-05,0.96588786934199033
-3.6403868613138688e-05,0.96588786934199033
-3.6393868613138687e-05,0.96588786934199033
-3.6383868613138692e-05,0.97706882196277456
-3.637386861313869e-05,0.97334183775584981
-3.6363868613138689e-05,0.95843390092813074
-3.6353868613138687e-05,0.97334183775584981
-3.6343868613138685e-05,0.97334183775586169
-3.6333868613138691e-05,0.99943072720435833
-3.6323868613138689e-05,0.97334183775584981
-3.6313868613138687e-05,0.97334183775584981
-3.6303868613138686e-05,0.97334183775585148
-3.6293868613138691e-05,0.977068821962778
-3.6283868613138689e-05,0.99943072720435833
-3.6273868613138688e-05,0.98079580616970941
-3.6263868613138686e-05,0.96588786934199378
-3.6253868613138691e-05,0.97334183775584637
-3.624386861313869e-05,0.98079580616970941
-3.6233868613138688e-05,0.98079580616970941
-3.6223868613138687e-05,0.96961485354892007
-3.6213868613138692e-05,0.97706882196277622
-3.620386861313869e-05,0.97334183775584981
