Power_measurements/Simeck_64_128_csv/simeck_active_c160_9.csv

#Digilent WaveForms Oscilloscope Acquisition
#Device Name: Discovery2
#Serial Number: SN:210321A1A9F5
#Date Time: 2018-06-28 16:05:48.443
#Sample rate: 1e+08Hz
#Samples: 8192
#Trigger: Source: Channel 1 Type: Edge Condition: Rising Level: 2 V Hyst.: Auto HoldOff: 0 s
#Channel 2: Range: 1 V/div Offset: 0 V

Time (s),Channel 2 (V)
-4.0690610687022901e-05,0.988249774583569
-4.06806106870229e-05,0.96588786934199033
-4.0670610687022898e-05,1.003157711411278
-4.0660610687022903e-05,0.98079580616971962
-4.0650610687022902e-05,0.98079580616970941
-4.06406106870229e-05,0.98452279037663915
-4.0630610687022898e-05,0.97706882196277967
-4.0620610687022904e-05,0.97334183775585148
-4.0610610687022902e-05,0.98079580616970941
-4.06006106870229e-05,0.96961485354892007
-4.0590610687022899e-05,0.98452279037663915
-4.0580610687022897e-05,0.98452279037664081
-4.0570610687022902e-05,0.988249774583569
-4.0560610687022901e-05,0.96216088513506048
-4.0550610687022899e-05,0.98079580616970941
-4.0540610687022898e-05,0.97334183775584471
-4.0530610687022903e-05,0.96216088513506559
-4.0520610687022901e-05,0.988249774583569
-4.05106106870229e-05,0.95843390092813074
-4.0500610687022898e-05,0.9845227903766357
-4.0490610687022903e-05,0.97706882196278311
-4.0480610687022902e-05,0.98079580616970941
-4.04706106870229e-05,0.97706882196277967
-4.0460610687022898e-05,0.98452279037663915
-4.0450610687022904e-05,0.98079580616971107
-4.0440610687022902e-05,0.97706882196277967
-4.04306106870229e-05,0.97334183775584981
-4.0420610687022899e-05,0.96961485354892007
-4.0410610687022897e-05,0.977068821962778
-4.0400610687022902e-05,0.97334183775584981
-4.0390610687022901e-05,0.988249774583569
-4.0380610687022899e-05,0.97334183775584981
-4.0370610687022898e-05,0.97334183775585326
-4.0360610687022903e-05,0.98079580616970596
-4.0350610687022901e-05,0.98079580616970941
-4.03406106870229e-05,0.99570374299742848
-4.0330610687022898e-05,0.98824977458356056
-4.0320610687022903e-05,0.96961485354892851
-4.0310610687022901e-05,0.97706882196277967
-4.03006106870229e-05,0.96216088513506048
-4.0290610687022898e-05,0.96961485354892007
-4.0280610687022903e-05,0.95470691672120767
-4.0270610687022902e-05,0.97334183775584981
-4.02606106870229e-05,0.96588786934199033
-4.0250610687022899e-05,0.98079580616970941
-4.0240610687022897e-05,0.97334183775584981
-4.0230610687022902e-05,0.97334183775584981
-4.0220610687022901e-05,0.96588786934199033
-4.0210610687022899e-05,0.97706882196277967
-4.0200610687022897e-05,0.98824977458356389
-4.0190610687022903e-05,0.97706882196277967
-4.0180610687022901e-05,0.97706882196277967
-4.0170610687022899e-05,0.96216088513506048
-4.0160610687022898e-05,0.98824977458356389
-4.0150610687022903e-05,0.97706882196278477
-4.0140610687022901e-05,0.98079580616970941
-4.01306106870229e-05,0.97334183775584981
-4.0120610687022898e-05,0.97334183775584981
-4.0110610687022903e-05,0.96588786934199378
-4.0100610687022902e-05,0.98079580616970941
-4.00906106870229e-05,0.96216088513506048
-4.0080610687022899e-05,0.98452279037663915
-4.0070610687022897e-05,0.96588786934200221
-4.0060610687022902e-05,0.99197675879049874
-4.0050610687022901e-05,0.97334183775584981
-4.0040610687022899e-05,0.98452279037663915
-4.0030610687022897e-05,0.96216088513505704
-4.0020610687022903e-05,0.95470691672120089
-4.0010610687022901e-05,0.97334183775584981
-4.0000610687022899e-05,0.96961485354892007
-3.9990610687022898e-05,0.96588786934198867
-3.9980610687022903e-05,0.96216088513506215
-3.9970610687022901e-05,0.96961485354892007
-3.99606106870229e-05,0.98079580616970941
-3.9950610687022898e-05,0.96588786934199033
-3.9940610687022903e-05,0.95843390092813419
-3.9930610687022902e-05,0.96216088513506048
-3.99206106870229e-05,0.97334183775584981
-3.9910610687022899e-05,0.98079580616970941
-3.9900610687022904e-05,0.96216088513506892
-3.9890610687022902e-05,0.97706882196277967
-3.9880610687022901e-05,0.96961485354892007
-3.9870610687022899e-05,0.988249774583569
-3.9860610687022897e-05,0.9621608851350707
-3.9850610687022903e-05,0.98452279037663915
-3.9840610687022901e-05,0.97334183775584981
-3.9830610687022899e-05,0.97334183775584981
-3.9820610687022898e-05,0.96216088513507236
-3.9810610687022903e-05,0.98824977458355712
-3.9800610687022901e-05,0.97706882196277967
-3.97906106870229e-05,0.95470691672120089
-3.9780610687022898e-05,0.965887869341992
-3.9770610687022903e-05,0.96961485354891841
-3.9760610687022902e-05,0.97706882196277967
-3.97506106870229e-05,0.97706882196277967
-3.9740610687022898e-05,0.97706882196277967
-3.9730610687022904e-05,0.98079580616970774
-3.9720610687022902e-05,0.988249774583569
-3.97106106870229e-05,0.97334183775584981
-3.9700610687022899e-05,0.96961485354892007
-3.9690610687022897e-05,0.97334183775584471
-3.9680610687022902e-05,0.96216088513506048
-3.9670610687022901e-05,0.98079580616970941
-3.9660610687022899e-05,0.95470691672120089
-3.9650610687022898e-05,0.97334183775584471
-3.9640610687022903e-05,0.96216088513506559
-3.9630610687022901e-05,0.96961485354892007
-3.96206106870229e-05,0.96961485354892007
-3.9610610687022898e-05,0.97334183775585326
-3.9600610687022903e-05,0.98079580616970596
-3.9590610687022902e-05,0.95470691672120089
-3.95806106870229e-05,0.97334183775584981
-3.9570610687022898e-05,0.96961485354892007
-3.9560610687022904e-05,0.98452279037663237
-3.9550610687022902e-05,0.98079580616970941
-3.95406106870229e-05,0.98079580616970941
-3.9530610687022899e-05,0.98452279037663915
-3.9520610687022897e-05,0.97706882196277123
-3.9510610687022902e-05,0.95843390092813074
-3.9500610687022901e-05,0.96216088513506048
-3.9490610687022899e-05,0.97334183775584981
-3.9480610687022898e-05,0.97334183775584138
-3.9470610687022903e-05,0.95470691672120933
-3.9460610687022901e-05,0.97334183775584981
-3.94506106870229e-05,0.95843390092813074
-3.9440610687022898e-05,0.97706882196277967
-3.9430610687022903e-05,0.97706882196277967
-3.9420610687022902e-05,0.97334183775584981
-3.94106106870229e-05,0.96588786934199033
-3.9400610687022898e-05,0.96961485354892007
-3.9390610687022904e-05,0.96216088513506393
-3.9380610687022902e-05,0.96588786934199033
-3.93706106870229e-05,0.96961485354892007
-3.9360610687022899e-05,0.95097993251427115
-3.9350610687022897e-05,0.9882497745835741
-3.9340610687022902e-05,0.99943072720435833
-3.9330610687022901e-05,0.98079580616970941
-3.9320610687022899e-05,0.96216088513506048
-3.9310610687022898e-05,0.98452279037663071
-3.9300610687022903e-05,0.96588786934199877
-3.9290610687022901e-05,0.96588786934199033
-3.9280610687022899e-05,0.96216088513506048
-3.9270610687022898e-05,0.965887869341992
-3.9260610687022903e-05,0.96961485354891841
-3.9250610687022901e-05,0.97706882196277967
-3.92406106870229e-05,0.95843390092813074
-3.9230610687022898e-05,0.97334183775584981
-3.9220610687022903e-05,0.97334183775584981
-3.9210610687022902e-05,0.95843390092813074
-3.92006106870229e-05,0.98079580616970941
-3.9190610687022899e-05,0.95843390092813074
-3.9180610687022897e-05,0.96216088513506559
-3.9170610687022902e-05,0.97334183775584981
-3.9160610687022901e-05,0.96216088513506048
-3.9150610687022899e-05,0.95470691672120089
-3.9140610687022897e-05,0.96588786934198867
-3.9130610687022903e-05,0.96216088513506048
-3.9120610687022901e-05,0.96961485354892007
-3.9110610687022899e-05,0.98079580616970941
-3.9100610687022898e-05,0.98079580616970596
-3.9090610687022903e-05,0.97334183775585326
-3.9080610687022901e-05,0.98079580616970941
-3.90706106870229e-05,0.97334183775584981
-3.9060610687022898e-05,0.96961485354892007
-3.9050610687022903e-05,0.965887869341992
-3.9040610687022902e-05,0.97334183775584981
-3.90306106870229e-05,0.97706882196277967
-3.9020610687022899e-05,0.95470691672120089
-3.9010610687022897e-05,0.97706882196277456
-3.9000610687022902e-05,0.96588786934199033
-3.8990610687022901e-05,0.97334183775584981
-3.8980610687022899e-05,0.95470691672120089
-3.8970610687022897e-05,0.97334183775585326
-3.8960610687022903e-05,0.98079580616970941
-3.8950610687022901e-05,0.96588786934199033
-3.8940610687022899e-05,0.96961485354892007
-3.8930610687022898e-05,0.97334183775584981
-3.8920610687022903e-05,0.97334183775584981
-3.8910610687022901e-05,0.95843390092813074
-3.89006106870229e-05,0.97706882196277967
-3.8890610687022898e-05,0.96588786934199033
-3.8880610687022903e-05,0.97706882196277456
-3.8870610687022902e-05,0.96961485354892007
-3.88606106870229e-05,0.95843390092813074
-3.8850610687022899e-05,0.95843390092813074
-3.8840610687022904e-05,0.97334183775584304
-3.8830610687022902e-05,0.97334183775584981
-3.8820610687022901e-05,0.96961485354892007
-3.8810610687022899e-05,0.988249774583569
-3.8800610687022897e-05,0.98452279037663404
-3.8790610687022902e-05,0.97334183775584981
-3.8780610687022901e-05,0.98452279037663915
-3.8770610687022899e-05,0.95843390092813074
-3.8760610687022898e-05,0.96216088513506892
-3.8750610687022903e-05,0.98079580616970097
-3.8740610687022901e-05,0.95097993251427115
-3.87306106870229e-05,0.98079580616970941
-3.8720610687022898e-05,0.96216088513505704
-3.8710610687022903e-05,0.95470691672120434
-3.8700610687022902e-05,0.96588786934199033
-3.86906106870229e-05,0.96588786934199033
-3.8680610687022898e-05,0.96961485354892007
-3.8670610687022904e-05,0.98452279037663237
-3.8660610687022902e-05,0.96588786934199033
-3.86506106870229e-05,0.96961485354892007
-3.8640610687022899e-05,0.96588786934199033
-3.8630610687022897e-05,0.96961485354891663
-3.8620610687022902e-05,0.96216088513506048
-3.8610610687022901e-05,0.98079580616970941
-3.8600610687022899e-05,0.95470691672120089
-3.8590610687022898e-05,0.96961485354890986
-3.8580610687022903e-05,0.94725294830735163
-3.8570610687022901e-05,0.96216088513506048
-3.85606106870229e-05,0.96588786934199033
-3.8550610687022898e-05,0.96216088513506393
-3.8540610687022903e-05,0.96961485354891663
-3.8530610687022902e-05,0.96961485354892007
-3.85206106870229e-05,0.97334183775584981
-3.8510610687022898e-05,0.95843390092813074
-3.8500610687022904e-05,0.95843390092813074
-3.8490610687022902e-05,0.97706882196277967
-3.84806106870229e-05,0.96216088513506048
-3.8470610687022899e-05,0.97334183775584981
-3.8460610687022897e-05,0.9658878693419819
-3.8450610687022902e-05,0.94725294830734141
-3.8440610687022901e-05,0.97706882196277967
-3.8430610687022899e-05,0.95470691672120089
-3.8420610687022898e-05,0.98079580616970263
-3.8410610687022903e-05,0.96588786934199711
-3.8400610687022901e-05,0.96961485354892007
-3.83906106870229e-05,0.95470691672120089
-3.8380610687022898e-05,0.97706882196277622
-3.8370610687022903e-05,0.96961485354892352
-3.8360610687022902e-05,0.96961485354892007
-3.83506106870229e-05,0.97334183775584981
-3.8340610687022898e-05,0.96216088513506048
-3.8330610687022904e-05,0.95470691672120434
-3.8320610687022902e-05,0.95097993251427115
-3.83106106870229e-05,0.95843390092813074
-3.8300610687022899e-05,0.96588786934199033
-3.8290610687022897e-05,0.977068821962778
-3.8280610687022902e-05,0.97334183775584981
-3.8270610687022901e-05,0.96216088513506048
-3.8260610687022899e-05,0.96588786934199033
-3.8250610687022897e-05,0.97706882196277289
-3.8240610687022903e-05,0.96216088513506726
-3.8230610687022901e-05,0.95843390092813074
-3.8220610687022899e-05,0.98452279037663915
-3.8210610687022898e-05,0.96961485354891841
-3.8200610687022903e-05,0.965887869341992
-3.8190610687022901e-05,0.95470691672120089
-3.81806106870229e-05,0.988249774583569
-3.8170610687022898e-05,0.95843390092813074
-3.8160610687022903e-05,0.96588786934198689
-3.8150610687022902e-05,0.96961485354892007
-3.81406106870229e-05,0.96588786934199033
-3.8130610687022899e-05,0.98079580616970941
-3.8120610687022897e-05,0.97706882196278133
-3.8110610687022902e-05,0.98079580616970941
-3.8100610687022901e-05,0.97334183775584981
-3.8090610687022899e-05,0.98079580616970941
-3.8080610687022897e-05,0.98079580616971285
-3.8070610687022903e-05,0.988249774583569
-3.8060610687022901e-05,0.98452279037663915
-3.8050610687022899e-05,0.96961485354892007
-3.8040610687022898e-05,0.97706882196278311
-3.8030610687022903e-05,0.9845227903766357
-3.8020610687022901e-05,0.97334183775584981
-3.80106106870229e-05,0.96216088513506048
-3.8000610687022898e-05,0.98079580616970941
-3.7990610687022903e-05,0.98452279037663748
-3.7980610687022902e-05,0.95097993251427115
-3.79706106870229e-05,0.98079580616970941
-3.7960610687022899e-05,0.96216088513506048
-3.7950610687022904e-05,0.97706882196277289
-3.7940610687022902e-05,0.96216088513506048
-3.7930610687022901e-05,0.97706882196277967
-3.7920610687022899e-05,0.98079580616970941
-3.7910610687022897e-05,0.98452279037663071
-3.7900610687022903e-05,0.96588786934199033
-3.7890610687022901e-05,0.97706882196277967
-3.7880610687022899e-05,0.97334183775584981
-3.7870610687022898e-05,0.96961485354892518
-3.7860610687022903e-05,0.9807958061697043
-3.7850610687022901e-05,0.98079580616970941
-3.78406106870229e-05,0.97334183775584981
-3.7830610687022898e-05,0.97334183775584981
-3.7820610687022903e-05,0.98079580616970596
-3.7810610687022902e-05,0.98079580616970941
-3.78006106870229e-05,0.96961485354892007
-3.7790610687022899e-05,0.97706882196277967
-3.7780610687022904e-05,0.95843390092813918
-3.7770610687022902e-05,0.97334183775584981
-3.77606106870229e-05,0.97706882196277967
-3.7750610687022899e-05,0.97334183775584981
-3.7740610687022897e-05,0.96216088513506892
-3.7730610687022902e-05,0.98079580616970941
-3.7720610687022901e-05,0.96588786934199033
-3.7710610687022899e-05,0.98079580616970941
-3.7700610687022898e-05,0.96961485354892518
-3.7690610687022903e-05,0.9807958061697043
-3.7680610687022901e-05,0.97706882196277967
-3.76706106870229e-05,0.97334183775584981
-3.7660610687022898e-05,0.97334183775584304
-3.7650610687022903e-05,0.95843390092813752
-3.7640610687022902e-05,0.96961485354892007
-3.76306106870229e-05,0.97706882196277967
-3.7620610687022898e-05,0.96588786934199033
-3.7610610687022904e-05,0.98079580616970263
-3.7600610687022902e-05,0.97706882196277967
-3.75906106870229e-05,0.96961485354892007
-3.7580610687022899e-05,0.97706882196277967
-3.7570610687022897e-05,0.96216088513506559
-3.7560610687022902e-05,0.97334183775584981
-3.7550610687022901e-05,0.96216088513506048
-3.7540610687022899e-05,0.97706882196277967
-3.7530610687022898e-05,0.96961485354892007
-3.7520610687022903e-05,0.96961485354892007
-3.7510610687022901e-05,0.96216088513506048
-3.75006106870229e-05,0.98079580616970941
-3.7490610687022898e-05,0.96588786934199544
-3.7480610687022903e-05,0.97706882196277456
-3.7470610687022902e-05,0.96588786934199033
-3.74606106870229e-05,0.96961485354892007
-3.7450610687022898e-05,0.96588786934199033
-3.7440610687022904e-05,0.97334183775584637
-3.7430610687022902e-05,0.96216088513506048
-3.74206106870229e-05,0.97706882196277967
-3.7410610687022899e-05,0.96961485354892007
-3.7400610687022897e-05,0.9807958061697043
-3.7390610687022902e-05,0.96961485354892007
-3.7380610687022901e-05,0.96216088513506048
-3.7370610687022899e-05,0.97334183775584981
-3.7360610687022898e-05,0.98079580616970941
-3.7350610687022903e-05,0.98079580616970941
-3.7340610687022901e-05,0.98079580616970941
-3.73306106870229e-05,0.97706882196277967
-3.7320610687022898e-05,0.95843390092813752
-3.7310610687022903e-05,0.97334183775584304
-3.7300610687022902e-05,0.96961485354892007
-3.72906106870229e-05,0.95843390092813074
-3.7280610687022898e-05,0.98452279037663915
-3.7270610687022903e-05,0.97706882196278311
-3.7260610687022902e-05,0.99570374299742848
-3.72506106870229e-05,0.96961485354892007
-3.7240610687022899e-05,0.96961485354892007
-3.7230610687022897e-05,0.97334183775584138
-3.7220610687022902e-05,0.95470691672120089
-3.7210610687022901e-05,0.98079580616970941
-3.7200610687022899e-05,0.95843390092813074
-3.7190610687022897e-05,0.97334183775584471
-3.7180610687022903e-05,0.96216088513506559
-3.7170610687022901e-05,0.97334183775584981
-3.7160610687022899e-05,0.96961485354892007
-3.7150610687022898e-05,0.97706882196277622
-3.7140610687022903e-05,0.96961485354892352
-3.7130610687022901e-05,0.96588786934199033
-3.71206106870229e-05,0.98079580616970941
-3.7110610687022898e-05,0.96961485354892007
-3.7100610687022903e-05,0.97706882196277622
-3.7090610687022902e-05,0.96961485354892007
-3.70806106870229e-05,0.96961485354892007
-3.7070610687022899e-05,0.97334183775584981
-3.7060610687022897e-05,0.96588786934199378
-3.7050610687022902e-05,0.97334183775584981
-3.7040610687022901e-05,0.96216088513506048
-3.7030610687022899e-05,0.96961485354892007
-3.7020610687022897e-05,0.96216088513505538
-3.7010610687022903e-05,0.95097993251427115
-3.7000610687022901e-05,0.96961485354892007
-3.6990610687022899e-05,0.94352596410041156
-3.6980610687022898e-05,0.96216088513505882
-3.6970610687022903e-05,0.95843390092813241
-3.6960610687022901e-05,0.97706882196277967
-3.69506106870229e-05,0.96961485354892007
-3.6940610687022898e-05,0.97706882196277967
-3.6930610687022903e-05,0.95470691672121111
-3.6920610687022902e-05,0.95843390092813074
-3.69106106870229e-05,0.97334183775584981
-3.6900610687022899e-05,0.97334183775584981
-3.6890610687022904e-05,0.96961485354892174
-3.6880610687022902e-05,0.97334183775584981
-3.6870610687022901e-05,0.99197675879049874
-3.6860610687022899e-05,0.96588786934199033
-3.6850610687022897e-05,0.95097993251427115
-3.6840610687022903e-05,0.95097993251427115
-3.6830610687022901e-05,0.97334183775584981
-3.6820610687022899e-05,0.95843390092813074
-3.6810610687022898e-05,0.96588786934199033
-3.6800610687022903e-05,0.96588786934199033
-3.6790610687022901e-05,0.96588786934199033
-3.67806106870229e-05,0.96216088513506048
-3.6770610687022898e-05,0.98079580616970941
-3.6760610687022903e-05,0.96216088513506892
-3.6750610687022902e-05,0.98079580616970941
-3.67406106870229e-05,0.98079580616970941
-3.6730610687022898e-05,0.96588786934199033
-3.6720610687022904e-05,0.97706882196277456
-3.6710610687022902e-05,0.97706882196277967
-3.67006106870229e-05,0.96216088513506048
-3.6690610687022899e-05,0.96961485354892007
-3.6680610687022897e-05,0.96588786934199033
-3.6670610687022902e-05,0.96588786934199033
-3.6660610687022901e-05,0.98079580616970941
-3.6650610687022899e-05,0.96961485354892007
-3.6640610687022898e-05,0.9807958061697043
-3.6630610687022903e-05,0.96961485354892518
-3.6620610687022901e-05,0.95843390092813074
-3.66106106870229e-05,0.94352596410041156
-3.6600610687022898e-05,0.96961485354892007
-3.6590610687022903e-05,0.96961485354892007
-3.6580610687022902e-05,0.99570374299742848
-3.65706106870229e-05,0.97706882196277967
-3.6560610687022898e-05,0.96588786934199033
-3.6550610687022904e-05,0.97334183775584637
-3.6540610687022902e-05,0.96961485354892007
-3.65306106870229e-05,0.97334183775584981
-3.6520610687022899e-05,0.988249774583569
-3.6510610687022897e-05,0.98079580616969753
-3.6500610687022902e-05,0.95470691672120089
-3.6490610687022901e-05,0.96961485354892007
-3.6480610687022899e-05,0.97706882196277967
-3.6470610687022898e-05,0.96961485354892007
-3.6460610687022903e-05,0.96961485354892007
-3.6450610687022901e-05,0.95843390092813074
-3.64406106870229e-05,0.97334183775584981
-3.6430610687022898e-05,0.96961485354892007
-3.6420610687022903e-05,0.96961485354892007
-3.6410610687022902e-05,0.97706882196277967
-3.64006106870229e-05,0.98452279037663915
-3.6390610687022898e-05,0.96216088513506048
-3.6380610687022904e-05,0.97334183775584471
-3.6370610687022902e-05,0.95843390092813074
-3.63606106870229e-05,0.96961485354892007
-3.6350610687022899e-05,0.96588786934199033
-3.6340610687022897e-05,0.95097993251428303
-3.6330610687022902e-05,0.97706882196277967
-3.6320610687022901e-05,0.95843390092813074
-3.6310610687022899e-05,0.97706882196277967
-3.6300610687022898e-05,0.96588786934199378
-3.6290610687022903e-05,0.97334183775584637
-3.6280610687022901e-05,0.95843390092813074
-3.62706106870229e-05,0.96588786934199033
-3.6260610687022898e-05,0.97706882196277289
-3.6250610687022903e-05,0.96216088513506726
-3.6240610687022901e-05,0.97334183775584981
-3.62306106870229e-05,0.96961485354892007
-3.6220610687022898e-05,0.96216088513506048
-3.6210610687022903e-05,0.95843390092813241
-3.6200610687022902e-05,0.97334183775584981
-3.61906106870229e-05,0.97334183775584981
