Power_measurements/Simeck_64_128_csv/simeck_active_l3_2.csv

#Digilent WaveForms Oscilloscope Acquisition
#Device Name: Discovery2
#Serial Number: SN:210321A1A9F5
#Date Time: 2018-06-28 16:26:04.275
#Sample rate: 1e+08Hz
#Samples: 8192
#Trigger: Source: Channel 1 Type: Edge Condition: Rising Level: 2 V Hyst.: Auto HoldOff: 0 s
#Channel 2: Range: 1 V/div Offset: 0 V

Time (s),Channel 2 (V)
-4.0693037634408602e-05,-1.0355026497793023
-4.06830376344086e-05,-1.0541375708139513
-4.0673037634408599e-05,-1.0094137603308009
-4.0663037634408604e-05,-1.0243216971585061
-4.0653037634408602e-05,-1.0317756655723727
-4.06430376344086e-05,-1.0466836024000916
-4.0633037634408599e-05,-1.024321697158513
-4.0623037634408604e-05,-1.0578645550208658
-4.0613037634408602e-05,-1.0205947129515833
-4.0603037634408601e-05,-0.88642328150211114
-4.0593037634408599e-05,5.8296022593853554
-4.0583037634408598e-05,2.5833990151508002
-4.0573037634408603e-05,5.4084530440022904
-4.0563037634408601e-05,2.1473418629387311
-4.05530376344086e-05,5.4121800282092201
-4.0543037634408598e-05,2.2964212312171832
-4.0533037634408603e-05,5.0692974811704197
-4.0523037634408602e-05,2.8629228306692491
-4.05130376344086e-05,4.3686244502688814
-4.0503037634408598e-05,3.6828593561937435
-4.0493037634408604e-05,3.5561418931582462
-4.0483037634408602e-05,4.4170752449589683
-4.04730376344086e-05,2.9113736253593361
-4.0463037634408599e-05,4.89785620765291
-4.0453037634408604e-05,2.6020339361852085
-4.0443037634408602e-05,5.0171197022746634
-4.0433037634408601e-05,2.6169418730118839
-4.0423037634408599e-05,4.830770491928174
-4.0413037634408598e-05,2.9001926727392302
-4.0403037634408603e-05,4.4021673081312489
-4.0393037634408601e-05,3.4331514143295054
-4.03830376344086e-05,3.8692085665402898
-4.0373037634408598e-05,4.0033799979894678
-4.0363037634408603e-05,3.3548847459842754
-4.0353037634408602e-05,4.4021673081312489
-4.03430376344086e-05,3.026910135774159
-4.0333037634408598e-05,4.5996974710977598
-4.0323037634408604e-05,2.9113736253601039
-4.0313037634408602e-05,4.5549736606153699
-4.03030376344086e-05,3.0567260094295978
-4.0293037634408599e-05,4.3574434976480916
-4.0283037634408604e-05,3.3362498249497961
-4.0273037634408602e-05,4.0033799979897626
-4.0263037634408601e-05,3.7164022140561688
-4.0253037634408599e-05,3.6269545930898541
-4.0243037634408598e-05,4.025741903231018
-4.0233037634408603e-05,3.3138879197077529
-4.0223037634408601e-05,4.2642688924748473
-4.02130376344086e-05,3.1573545830167022
-4.0203037634408598e-05,4.3276276239921234
-4.0193037634408603e-05,3.1610815672236319
-4.0183037634408602e-05,4.21954508199169
-4.01730376344086e-05,-0.02921691390826138
-4.0163037634408598e-05,-1.8032613964063136
-4.0153037634408603e-05,-0.65162327646605878
-4.0143037634408602e-05,-0.80815661315658571
-4.01330376344086e-05,-1.7287217122682417
-4.0123037634408599e-05,0.12358943857585966
-4.0113037634408604e-05,-2.455483632618376
-4.0103037634408602e-05,0.58946246444208239
-4.0093037634408601e-05,-2.6455598271729679
-4.0083037634408599e-05,0.55964659078664414
-4.0073037634408597e-05,-2.4293947431698557
-4.0063037634408603e-05,0.1757672174728766
-4.0053037634408601e-05,-1.8740740963385032
-4.0043037634408599e-05,-0.5360867660507117
-4.0033037634408598e-05,-1.1659470970218937
-4.0023037634408603e-05,-1.2740296390228083
-4.0013037634408601e-05,-0.49881692398141386
-4.00030376344086e-05,-1.8330772700622757
-3.9993037634408598e-05,-0.055305803357707094
-3.9983037634408603e-05,-2.1163280697880023
-3.9973037634408602e-05,0.10122753333428097
-3.99630376344086e-05,-2.1051471171681495
-3.9953037634408599e-05,-0.032943898115191161
-3.9943037634408604e-05,-1.8591661595099533
-3.9933037634408602e-05,-0.41682327142895864
-3.9923037634408601e-05,-1.4044740862653506
-3.9913037634408599e-05,-0.92742010777833872
-3.9903037634408604e-05,-0.88642328150212979
-3.9893037634408603e-05,-1.4044740862653506
-3.9883037634408601e-05,-0.46527406611904581
-3.9873037634408599e-05,-1.7138137754405227
-3.9863037634408598e-05,-0.27519787156632186
-3.9853037634408603e-05,-1.8032613964068374
-3.9843037634408601e-05,-0.27147088735869718
-3.98330376344086e-05,-1.7100867912335929
-3.9823037634408598e-05,-0.44663914508485791
-3.9813037634408603e-05,-1.4603788493688366
-3.9803037634408602e-05,-0.79697566053579638
-3.97930376344086e-05,-1.1025883655040385
-3.9783037634408599e-05,-1.1286772549523927
-3.9773037634408604e-05,-0.789521692122091
-3.9763037634408602e-05,-1.4231090072999997
-3.9753037634408601e-05,-0.56590263970614996
-3.9743037634408599e-05,-1.5572804387494719
-3.9733037634408604e-05,-0.49136295556803899
-3.9723037634408603e-05,-1.553553454542542
-3.9713037634408601e-05,-0.56217565549922011
-3.9703037634408599e-05,-1.4417439283346485
-3.9693037634408598e-05,-0.75970581846670027
-3.9683037634408603e-05,-1.2032169390911425
-3.9673037634408601e-05,-0.97959788667535563
-3.96630376344086e-05,-0.97959788667535563
-3.9653037634408598e-05,-1.2181248759186685
-3.9643037634408603e-05,-0.79324867632905982
-3.9633037634408602e-05,-1.3709312284029826
-3.96230376344086e-05,-0.70007407115562204
-3.9613037634408598e-05,-1.4156550388858182
-3.9603037634408604e-05,-0.70752803956980359
-3.9593037634408602e-05,-1.3746582126099125
-3.95830376344086e-05,-0.79324867632886664
-3.9573037634408599e-05,-1.2330328127465808
-3.9563037634408604e-05,-0.93487407619233398
-3.9553037634408602e-05,-1.0615915392278108
-3.9543037634408601e-05,-1.0876804286763193
-3.9533037634408599e-05,-0.9087851867436898
-3.9523037634408598e-05,-1.2032169390909695
-3.9513037634408603e-05,-0.82306454998430478
-3.9503037634408601e-05,-1.2926645600574573
-3.94930376344086e-05,-0.78579470791500705
-3.9483037634408598e-05,-1.3001185284711083
-3.9473037634408603e-05,-0.84169947101916209
-3.9463037634408602e-05,-1.2218518601257915
-3.94530376344086e-05,-0.90505820253676006
-3.9443037634408598e-05,-1.0988613812970747
-3.9433037634408604e-05,-1.0243216971585469
-3.9423037634408602e-05,-1.0317756655723727
-3.94130376344086e-05,-1.1249502707456172
-3.9403037634408599e-05,-0.91251217095061965
-3.9393037634408604e-05,-1.1808550338494417
-3.9383037634408602e-05,-0.90505820253676006
-3.9373037634408601e-05,-1.2069439232980723
-3.9363037634408599e-05,-0.87151534467439196
-3.9353037634408598e-05,-1.1920359864702261
-3.9343037634408603e-05,-0.91251217095061965
-3.9333037634408601e-05,-1.1249502707456172
-3.93230376344086e-05,-1.0019597919169343
-3.9313037634408598e-05,-1.0466836024000967
-3.9303037634408603e-05,-1.0578645550208761
-3.9293037634408602e-05,-0.98332487088228548
-3.92830376344086e-05,-1.1324042391594766
-3.9273037634408598e-05,-0.95350899722693538
-3.9263037634408604e-05,-1.1473121759871077
-3.9253037634408602e-05,-0.93487407619219831
-3.92430376344086e-05,-1.1584931286079851
-3.9233037634408599e-05,-0.94978201301991738
-3.9223037634408604e-05,-1.1137693181247532
-3.9213037634408602e-05,-0.97587090246842589
-3.9203037634408601e-05,-1.0727724918486001
-3.9193037634408599e-05,-1.0280486813654428
-3.9183037634408598e-05,-1.0243216971585503
-3.9173037634408603e-05,-1.1063153497109683
-3.9163037634408601e-05,-0.98332487088228548
-3.91530376344086e-05,-1.1212232865386873
-3.9143037634408598e-05,-0.97214391826156399
-3.9133037634408603e-05,-1.1212232865386873
-3.9123037634408601e-05,-0.97214391826149615
-3.91130376344086e-05,-1.1174963023317577
-3.9103037634408598e-05,-0.97587090246847163
-3.9093037634408603e-05,-1.0764994760554842
-3.9083037634408602e-05,-1.0168677287446535
-3.90730376344086e-05,-1.0280486813654428
-3.9063037634408599e-05,-1.0504105866070215
-3.9053037634408604e-05,-1.0131407445377405
-3.9043037634408602e-05,-1.0690455076416705
-3.9033037634408601e-05,-0.99823280771000455
-3.9023037634408599e-05,-1.07649947605553
-3.9013037634408597e-05,-0.97959788667540137
-3.9003037634408603e-05,-1.0802264602624598
-3.8993037634408601e-05,-0.99823280771000455
-3.8983037634408599e-05,-1.0727724918486001
-3.8973037634408598e-05,-1.0131407445377441
-3.8963037634408603e-05,-1.0578645550208812
-3.8953037634408601e-05,-1.042956618193162
-3.89430376344086e-05,-1.042956618193162
-3.8933037634408598e-05,-1.0690455076416434
-3.8923037634408603e-05,-1.0094137603308211
-3.8913037634408602e-05,-1.0615915392278108
-3.89030376344086e-05,-0.99077883929614496
-3.8893037634408599e-05,-1.0802264602624598
-3.8883037634408604e-05,-0.99450582350311378
-3.8873037634408602e-05,-1.0727724918486001
-3.8863037634408601e-05,-1.0019597919169343
-3.8853037634408599e-05,-1.0466836024000916
-3.8843037634408604e-05,-1.0280486813654512
-3.8833037634408603e-05,-1.042956618193162
-3.8823037634408601e-05,-1.0392296339862321
-3.8813037634408599e-05,-1.0205947129515833
-3.8803037634408598e-05,-1.054137570813936
-3.8793037634408603e-05,-1.0205947129515833
-3.8783037634408601e-05,-1.0615915392278108
-3.87730376344086e-05,-1.009413760330794
-3.8763037634408598e-05,-1.054137570813936
-3.8753037634408603e-05,-1.0205947129515986
-3.8743037634408602e-05,-1.0615915392278108
-3.87330376344086e-05,-1.0168677287446535
-3.8723037634408599e-05,-1.0280486813654546
-3.8713037634408604e-05,-1.0541375708139396
-3.8703037634408602e-05,-1.0205947129515833
-3.8693037634408601e-05,-1.0317756655723727
-3.8683037634408599e-05,-1.0280486813654428
-3.8673037634408604e-05,-1.0466836024000832
-3.8663037634408603e-05,-1.024321697158513
-3.8653037634408601e-05,-1.0578645550208812
-3.8643037634408599e-05,-1.0205947129515833
-3.8633037634408598e-05,-1.0392296339862304
-3.8623037634408603e-05,-1.0355026497793023
-3.8613037634408601e-05,-1.0466836024000916
-3.86030376344086e-05,-1.024321697158513
-3.8593037634408598e-05,-1.0280486813654479
-3.8583037634408603e-05,-1.039229633986227
-3.8573037634408602e-05,-0.45409311349825648
-3.85630376344086e-05,6.444554653528769
-3.8553037634408598e-05,2.1249799576986965
-3.8543037634408604e-05,5.5202625702086401
-3.8533037634408602e-05,2.2852402785951327
-3.85230376344086e-05,5.0581165285508902
-3.8513037634408599e-05,2.9411894990147749
-3.8503037634408604e-05,4.3313546081989509
-3.8493037634408602e-05,3.7573990403323965
-3.8483037634408601e-05,3.5412339563304691
-3.8473037634408599e-05,4.4729800080629145
-3.8463037634408598e-05,2.8852847359117635
-3.8453037634408603e-05,4.9425800181360673
-3.8443037634408601e-05,2.5386752046663581
-3.84330376344086e-05,5.0842054179993994
-3.8423037634408598e-05,2.5461291730812903
-3.8413037634408603e-05,4.9053101760656963
-3.8403037634408602e-05,2.8890117201177574
-3.83930376344086e-05,4.439437150200547
-3.8383037634408598e-05,3.4592403037781949
-3.8373037634408604e-05,3.8580276139193197
-3.8363037634408602e-05,4.0294688874382709
-3.83530376344086e-05,3.3176149039146825
-3.8343037634408599e-05,4.4617990554421256
-3.8333037634408604e-05,2.9747323568778188
-3.8323037634408602e-05,4.6518752499955447
-3.8313037634408601e-05,2.874103783290038
-3.8303037634408599e-05,4.6183323921331763
-3.8293037634408598e-05,3.0045482305332141
-3.8283037634408603e-05,4.3984403239243193
-3.8273037634408601e-05,3.3176149039146825
-3.82630376344086e-05,4.0331958716452005
-3.8253037634408598e-05,3.7350371350907672
-3.8243037634408603e-05,3.6232276088829751
-3.8233037634408602e-05,4.085373650542218
-3.82230376344086e-05,3.2803450618453844
-3.8213037634408598e-05,4.2829038135089759
-3.8203037634408604e-05,3.1387196619825737
-3.8193037634408602e-05,4.3686244502688814
-3.81830376344086e-05,3.1461736303959125
-3.8173037634408599e-05,4.2717228608887066
-3.8163037634408604e-05,3.3064339512943315
-3.8153037634408602e-05,4.0220149190244117
-3.8143037634408601e-05,0.21303705954217442
-3.8133037634408599e-05,-2.0492423540642033
-3.8123037634408598e-05,-0.37582644515304459
-3.8113037634408603e-05,-1.0653185234347406
-3.8103037634408601e-05,-1.5460994861286825
-3.8093037634408599e-05,-0.032943898115191161
-3.8083037634408598e-05,-2.3362201379964911
-3.8073037634408603e-05,0.53355770133813563
-3.8063037634408601e-05,-2.6492868113798975
-3.80530376344086e-05,0.59691643285594187
-3.8043037634408598e-05,-2.5300233167568686
-3.8033037634408603e-05,0.27639579105870427
-3.8023037634408602e-05,-2.0455153698572728
-3.80130376344086e-05,-0.33482961887650348
-3.8003037634408599e-05,-1.348569323161404
-3.7993037634408604e-05,-1.0764994760556537
-3.7983037634408602e-05,-0.61435343439623713
-3.7973037634408601e-05,-1.7138137754405227
-3.7963037634408599e-05,-0.11866453487457614
-3.7953037634408604e-05,-2.0902391803395335
-3.7943037634408603e-05,0.1161354701620001
-3.7933037634408601e-05,-2.1386899750305179
-3.7923037634408599e-05,0.052776738644193813
-3.7913037634408598e-05,-1.9448867962694183
-3.7903037634408603e-05,-0.29383279260027584
-3.7893037634408601e-05,-1.5237375808871036
-3.78830376344086e-05,-0.78952169212193679
-3.7873037634408598e-05,-1.0019597919170715
-3.7863037634408603e-05,-1.3038455126781094
-3.7853037634408602e-05,-0.56590263970614996
-3.78430376344086e-05,-1.6541820281296462
-3.7833037634408599e-05,-0.2863788241864163
-3.7823037634408604e-05,-1.8256233016477161
-3.7813037634408602e-05,-0.26028993473790785
-3.7803037634408601e-05,-1.7510836175098203
-3.7793037634408599e-05,-0.38328041356659059
-3.7783037634408604e-05,-1.523737580886585
-3.7773037634408603e-05,-0.71125502377641137
-3.7763037634408601e-05,-1.1845820180564937
-3.7753037634408599e-05,-1.0541375708139513
-3.7743037634408598e-05,-0.87151534467460889
-3.7733037634408603e-05,-1.348569323161404
-3.7723037634408601e-05,-0.61435343439623713
-3.77130376344086e-05,-1.5349185335078932
-3.7703037634408598e-05,-0.4950899397749739
-3.7693037634408603e-05,-1.572188375576701
-3.7683037634408602e-05,-0.53981375025764144
-3.76730376344086e-05,-1.4752867861970167
-3.7663037634408599e-05,-0.70380105536280768
-3.7653037634408604e-05,-1.266575670608693
-3.7643037634408602e-05,-0.93114709198526846
-3.7633037634408601e-05,-1.0317756655723727
-3.7623037634408599e-05,-1.162220112814915
-3.7613037634408604e-05,-0.83051851839831525
-3.7603037634408602e-05,-1.3299344021267552
-3.7593037634408601e-05,-0.6888931185348327
-3.7583037634408599e-05,-1.4082010704722805
-3.7573037634408598e-05,-0.68143915012129008
-3.7563037634408603e-05,-1.3783851968168424
-3.7553037634408601e-05,-0.76343280267342828
-3.75430376344086e-05,-1.2479407495743
-3.7533037634408598e-05,-0.89387724991606399
-3.7523037634408603e-05,-1.0988613812970154
-3.7513037634408602e-05,-1.0504105866070215
-3.75030376344086e-05,-0.93860106039912805
-3.7493037634408598e-05,-1.188309002263271
-3.7483037634408604e-05,-0.85288042363989569
-3.7473037634408602e-05,-1.2777566232297382
-3.74630376344086e-05,-0.79697566053579638
-3.7453037634408599e-05,-1.2926645600574573
-3.7443037634408604e-05,-0.81561058157066224
-3.7433037634408602e-05,-1.2404867811604403
-3.7423037634408601e-05,-0.90505820253676006
-3.7413037634408599e-05,-1.1361312233664065
-3.7403037634408598e-05,-1.0056867761238777
-3.7393037634408603e-05,-1.0355026497793023
-3.7383037634408601e-05,-1.0914074128832492
-3.73730376344086e-05,-0.93114709198526846
-3.7363037634408598e-05,-1.1659470970217158
-3.7353037634408603e-05,-0.88269629729531007
-3.7343037634408602e-05,-1.2181248759188616
-3.73330376344086e-05,-0.87896931308825155
-3.7323037634408598e-05,-1.1957629706771542
-3.7313037634408604e-05,-0.91251217095074844
-3.7303037634408602e-05,-1.1324042391594766
-3.72930376344086e-05,-0.95723598143377697
-3.7283037634408599e-05,-1.0615915392278108
-3.7273037634408604e-05,-1.0504105866070266
-3.7263037634408602e-05,-1.009413760330794
-3.7253037634408601e-05,-1.0988613812971086
-3.7243037634408599e-05,-0.95723598143377697
-3.7233037634408598e-05,-1.1361312233663132
-3.7223037634408603e-05,-0.93114709198526846
-3.7213037634408601e-05,-1.143585191780266
-3.72030376344086e-05,-0.93487407619219831
-3.7193037634408598e-05,-1.1174963023316933
-3.7183037634408603e-05,-0.97587090246849029
-3.7173037634408602e-05,-1.0727724918486001
-3.71630376344086e-05,-1.0280486813654428
-3.7153037634408598e-05,-1.0429566181931704
-3.7143037634408604e-05,-1.0615915392278024
-3.7133037634408602e-05,-1.0131407445377236
-3.71230376344086e-05,-1.0951343970901788
-3.7113037634408599e-05,-0.97587090246842589
-3.7103037634408604e-05,-1.1174963023316933
-3.7093037634408602e-05,-0.95350899722684723
-3.7083037634408601e-05,-1.0988613812971086
-3.7073037634408599e-05,-0.96468994984763656
-3.7063037634408597e-05,-1.0764994760554927
-3.7053037634408603e-05,-0.99450582350307482
-3.7043037634408601e-05,-1.0504105866070215
-3.7033037634408599e-05,-1.042956618193162
-3.7023037634408598e-05,-1.0131407445377507
-3.7013037634408603e-05,-1.0727724918486001
-3.7003037634408601e-05,-1.0056867761238641
-3.69930376344086e-05,-1.0876804286763193
-3.6983037634408598e-05,-0.983324870882338
-3.6973037634408603e-05,-1.098861381297056
-3.6963037634408602e-05,-0.99077883929614496
-3.69530376344086e-05,-1.0876804286763193
-3.6943037634408599e-05,-1.009413760330794
-3.6933037634408604e-05,-1.0466836024000747
-3.6923037634408602e-05,-1.0168677287446535
-3.6913037634408601e-05,-1.024321697158513
-3.6903037634408599e-05,-1.0727724918486001
-3.6893037634408604e-05,-1.0243216971585349
-3.6883037634408603e-05,-1.0727724918486001
-3.6873037634408601e-05,-1.009413760330794
-3.6863037634408599e-05,-1.0615915392278108
-3.6853037634408598e-05,-0.98332487088231935
-3.6843037634408603e-05,-1.0578645550208812
-3.6833037634408601e-05,-1.0168677287446535
-3.68230376344086e-05,-1.042956618193162
-3.6813037634408598e-05,-1.0094137603308024
-3.6803037634408603e-05,-1.0280486813654344
-3.6793037634408602e-05,-1.0504105866070215
-3.67830376344086e-05,-1.024321697158513
-3.6773037634408599e-05,-1.0541375708139513
-3.6763037634408604e-05,-1.0205947129515986
-3.6753037634408602e-05,-1.0466836024000916
-3.6743037634408601e-05,-1.024321697158513
-3.6733037634408599e-05,-1.0615915392278108
-3.6723037634408604e-05,-1.0131407445377456
-3.6713037634408603e-05,-1.0466836024000916
-3.6703037634408601e-05,-1.0205947129515833
-3.6693037634408599e-05,-1.0541375708139513
-3.6683037634408598e-05,-1.050410586607013
-3.6673037634408603e-05,-1.0317756655723727
-3.6663037634408601e-05,-1.0317756655723727
-3.66530376344086e-05,-1.009413760330794
-3.6643037634408598e-05,-1.0504105866070046
-3.6633037634408603e-05,-1.0131407445377405
-3.6623037634408602e-05,-1.042956618193162
-3.66130376344086e-05,-1.024321697158513
-3.6603037634408599e-05,-1.0466836024000747
-3.6593037634408604e-05,-1.0094137603308109
-3.6583037634408602e-05,-1.0392296339862321
-3.65730376344086e-05,-1.0280486813654428
-3.6563037634408599e-05,-1.0355026497793023
-3.6553037634408604e-05,-1.0541375708139429
-3.6543037634408602e-05,-0.14475342432308461
-3.6533037634408601e-05,6.530275290288154
-3.6523037634408599e-05,2.1137990050763626
-3.6513037634408598e-05,5.4457228860702367
-3.6503037634408603e-05,2.4753164731485517
-3.6493037634408601e-05,4.7748657288242269
-3.64830376344086e-05,3.2728910934315252
-3.6473037634408598e-05,3.9698371401274448
-3.6463037634408603e-05,4.0816466663352369
-3.6453037634408602e-05,3.2058053777067892
-3.64430376344086e-05,4.7338689025479992
-3.6433037634408598e-05,2.6728466361169247
-3.6423037634408604e-05,5.0804784337913738
-3.6413037634408602e-05,2.4939513941832008
-3.64030376344086e-05,5.0804784337924689
-3.6393037634408599e-05,2.6318498098396024
-3.6383037634408604e-05,4.745049855167828
-3.6373037634408602e-05,3.1014498199127551
-3.6363037634408601e-05,4.2120911135778298
-3.6353037634408599e-05,3.7201291982630984
-3.6343037634408598e-05,3.619500624676288
-3.6333037634408603e-05,4.2642688924748473
-3.6323037634408601e-05,3.1387196619820532
-3.63130376344086e-05,4.5959704868915976
-3.6303037634408598e-05,2.8778307674977888
-3.6293037634408603e-05,4.6816911236501628
-3.6283037634408602e-05,2.8815577517038982
-3.62730376344086e-05,4.5736085816500189
-3.6263037634408598e-05,3.1200847409479127
-3.6253037634408604e-05,4.2381800030258301
-3.6243037634408602e-05,3.5002371300542414
-3.62330376344086e-05,3.8468466612987111
-3.6223037634408599e-05,3.9176593612303776
-3.6213037634408604e-05,3.4480593511574384
-3.6203037634408602e-05,4.200910160957041
-3.6193037634408601e-05,3.2058053777067892
-3.6183037634408599e-05,4.3686244502688814
