Power_measurements/Simeck_64_128_csv/simeck_idle_l3_3.csv

#Digilent WaveForms Oscilloscope Acquisition
#Device Name: Discovery2
#Serial Number: SN:210321A1A9F5
#Date Time: 2018-06-28 16:28:04.276
#Sample rate: 1e+08Hz
#Samples: 8192
#Trigger: Source: Channel 1 Type: Edge Condition: Rising Level: 2 V Hyst.: Auto HoldOff: 0 s
#Channel 2: Range: 1 V/div Offset: 0 V

Time (s),Channel 2 (V)
-4.0693400576368874e-05,-1.009413760330794
-4.0683400576368872e-05,-1.0578645550208812
-4.0673400576368871e-05,-1.0094137603308009
-4.0663400576368876e-05,-1.0243216971585061
-4.0653400576368874e-05,-1.009413760330794
-4.0643400576368873e-05,-1.0355026497793023
-4.0633400576368871e-05,-1.0317756655723727
-4.0623400576368876e-05,-1.0205947129515884
-4.0613400576368875e-05,-1.0839534444693895
-4.0603400576368873e-05,0.7087259590638354
-4.0593400576368871e-05,6.3439260799416655
-4.058340057636887e-05,2.4566815521149636
-4.0573400576368875e-05,4.7897736656519463
-4.0563400576368873e-05,3.4629672879849442
-4.0553400576368872e-05,3.6754053877799411
-4.054340057636887e-05,4.4692530238552344
-4.0533400576368875e-05,2.8181990201868423
-4.0523400576368874e-05,5.0916593864132587
-4.0513400576368872e-05,2.4045037732168861
-4.0503400576368871e-05,5.2109228810337793
-4.0493400576368876e-05,2.5014053625982924
-4.0483400576368874e-05,4.9239450971014183
-4.0473400576368873e-05,3.0045482305325804
-4.0463400576368871e-05,4.2269990504055492
-4.0453400576368876e-05,3.8133038034365319
-4.0443400576368875e-05,3.4816022090195924
-4.0433400576368873e-05,4.4990688975114237
-4.0423400576368871e-05,2.9151006095662657
-4.041340057636887e-05,4.823316523513359
-4.0403400576368875e-05,2.721297430805917
-4.0393400576368873e-05,4.7935006498588759
-4.0383400576368872e-05,2.9225545779801259
-4.037340057636887e-05,4.4431641344070041
-4.0363400576368875e-05,3.4033355406745405
-4.0353400576368874e-05,3.9064784086095878
-4.0343400576368872e-05,3.9884720611620432
-4.033340057636887e-05,3.3697926828121583
-4.0323400576368876e-05,4.3798054028892111
-4.0313400576368874e-05,3.0418180726018784
-4.0303400576368872e-05,4.5326117553737912
-4.0293400576368871e-05,3.0082752147395109
-4.0283400576368876e-05,4.4282561975791115
-4.0273400576368874e-05,3.2393482355691567
-4.0263400576368873e-05,4.1040085715768662
-4.0253400576368871e-05,3.6381355457106439
-4.024340057636887e-05,3.6903133246078181
-4.0233400576368875e-05,4.0369228558521302
-4.0223400576368873e-05,3.3362498249493315
-4.0213400576368872e-05,4.2568149240609872
-4.020340057636887e-05,3.1834434724657226
-4.0193400576368875e-05,4.3089927029580046
-4.0183400576368874e-05,2.9821863252910017
-4.0173400576368872e-05,-2.3883979168948128
-4.016340057636887e-05,0.623005322302842
-4.0153400576368876e-05,-2.9139026900703033
-4.0143400576368874e-05,1.0814243797568135
-4.0133400576368872e-05,-3.1337947582807697
-4.0123400576368871e-05,0.94352596410041156
-4.0113400576368876e-05,-2.6269249061366953
-4.0103400576368874e-05,0.090046580713491628
-4.0093400576368873e-05,-1.520010596680174
-4.0083400576368871e-05,-1.1249502707456172
-4.007340057636887e-05,-0.33482961887733903
-4.0063400576368875e-05,-2.1722328328928855
-4.0053400576368873e-05,0.44038309616489107
-4.0043400576368872e-05,-2.6492868113798975
-4.003340057636887e-05,0.60064341706143953
-4.0023400576368875e-05,-2.548658237792794
-4.0013400576368874e-05,0.27639579105998069
-4.0003400576368872e-05,-1.9374328278563095
-3.999340057636887e-05,-0.52490581343016807
-3.9983400576368876e-05,-1.0653185234344948
-3.9973400576368874e-05,-1.4491978967485082
-3.9963400576368872e-05,-0.26028993473790785
-3.9953400576368871e-05,-2.0604233066849922
-3.9943400576368876e-05,0.15713229643721904
-3.9933400576368874e-05,-2.2467725170314816
-3.9923400576368873e-05,0.14222435961050856
-3.9913400576368871e-05,-2.0231534646156941
-3.9903400576368876e-05,-0.24538199791099724
-3.9893400576368875e-05,-1.5051026598524548
-3.9883400576368873e-05,-0.90505820253676006
-3.9873400576368871e-05,-0.83424550260509422
-3.986340057636887e-05,-1.5125566282657703
-3.9853400576368875e-05,-0.31619469784185456
-3.9843400576368873e-05,-1.8666201279246437
-3.9833400576368872e-05,-0.13357247170229525
-3.982340057636887e-05,-1.9113439384070452
-3.9813400576368875e-05,-0.24910898211787424
-3.9803400576368874e-05,-1.6579090123365758
-3.9793400576368872e-05,-0.61808041860316687
-3.9783400576368871e-05,-1.2218518601257355
-3.9773400576368876e-05,-1.0988613812971646
-3.9763400576368874e-05,-0.74107089743184962
-3.9753400576368873e-05,-1.5051026598524548
-3.9743400576368871e-05,-0.4429121608774671
-3.9733400576368876e-05,-1.6877248859914482
-3.9723400576368875e-05,-0.39073438198045018
-3.9713400576368873e-05,-1.6243661544742078
-3.9703400576368871e-05,-0.55099470287843078
-3.969340057636887e-05,-1.389566149437391
-3.9683400576368875e-05,-0.86033439205360263
-3.9673400576368873e-05,-1.0466836024000916
-3.9663400576368872e-05,-1.1994899548842128
-3.965340057636887e-05,-0.73361692901832065
-3.9643400576368875e-05,-1.4603788493689671
-3.9633400576368874e-05,-0.57708359232693929
-3.9623400576368872e-05,-1.5162836124732442
-3.9613400576368871e-05,-0.58826454494811165
-3.9603400576368876e-05,-1.4305629757134761
-3.9593400576368874e-05,-0.77461375529421772
-3.9583400576368873e-05,-1.2069439232980723
-3.9573400576368871e-05,-0.99450582350307482
-3.9563400576368876e-05,-0.95350899722686588
-3.9553400576368875e-05,-1.2367597969535107
-3.9543400576368873e-05,-0.76343280267342828
-3.9533400576368871e-05,-1.367204244196053
-3.952340057636887e-05,-0.68516613432821649
-3.9513400576368875e-05,-1.3746582126099125
-3.9503400576368873e-05,-0.74479788163877947
-3.9493400576368872e-05,-1.2740296390228083
-3.948340057636887e-05,-0.88269629729528132
-3.9473400576368875e-05,-1.1025883655039386
-3.9463400576368874e-05,-1.0615915392278108
-3.9453400576368872e-05,-0.93487407619219831
-3.9443400576368871e-05,-1.2293058285394545
-3.9433400576368876e-05,-0.796975660535993
-3.9423400576368874e-05,-1.2963915442643872
-3.9413400576368873e-05,-0.78579470791500705
-3.9403400576368871e-05,-1.262848686402019
-3.9393400576368876e-05,-0.84915343943300137
-3.9383400576368874e-05,-1.1659470970218446
-3.9373400576368873e-05,-0.96468994984763656
-3.9363400576368871e-05,-1.0392296339862321
-3.935340057636887e-05,-1.0988613812970274
-3.9343400576368875e-05,-0.91996613936447913
-3.9333400576368873e-05,-1.1845820180564937
-3.9323400576368872e-05,-0.86778836046746222
-3.931340057636887e-05,-1.1994899548840552
-3.9303400576368875e-05,-0.8528804236399008
-3.9293400576368874e-05,-1.1883090022634235
-3.9283400576368872e-05,-0.93487407619219831
-3.927340057636887e-05,-1.0839534444693624
-3.9263400576368876e-05,-1.02432169715854
-3.9253400576368874e-05,-0.99823280771000455
-3.9243400576368872e-05,-1.0914074128832492
-3.9233400576368871e-05,-0.91623915515754939
-3.9223400576368876e-05,-1.1622201128148031
-3.9213400576368874e-05,-0.9087851867436898
-3.9203400576368873e-05,-1.1734010654357043
-3.9193400576368871e-05,-0.93487407619219831
-3.918340057636887e-05,-1.1100423339178438
-3.9173400576368875e-05,-0.99077883929614496
-3.9163400576368873e-05,-1.0615915392278108
-3.9153400576368872e-05,-1.042956618193162
-3.914340057636887e-05,-0.99823280771005707
-3.9133400576368875e-05,-1.1137693181248278
-3.9123400576368874e-05,-0.95723598143377697
-3.9113400576368872e-05,-1.1324042391594766
-3.910340057636887e-05,-0.93487407619228136
-3.9093400576368876e-05,-1.1174963023316746
-3.9083400576368874e-05,-0.97959788667535563
-3.9073400576368872e-05,-1.07649947605553
-3.9063400576368871e-05,-1.0280486813654428
-3.9053400576368876e-05,-1.0131407445377305
-3.9043400576368874e-05,-1.0541375708139513
-3.9033400576368873e-05,-0.99823280771000455
-3.9023400576368871e-05,-1.0914074128832492
-3.901340057636887e-05,-0.96841693405462392
-3.9003400576368875e-05,-1.0951343970901788
-3.8993400576368873e-05,-0.98332487088228548
-3.8983400576368872e-05,-1.0839534444693895
-3.897340057636887e-05,-0.98705185508924909
-3.8963400576368875e-05,-1.0615915392278108
-3.8953400576368874e-05,-1.0317756655723727
-3.8943400576368872e-05,-1.0280486813654428
-3.893340057636887e-05,-1.0727724918485646
-3.8923400576368876e-05,-0.99450582350311045
-3.8913400576368874e-05,-1.0839534444693895
-3.8903400576368872e-05,-0.99823280771000455
-3.8893400576368871e-05,-1.0951343970901788
-3.8883400576368876e-05,-1.0019597919169767
-3.8873400576368874e-05,-1.0802264602624598
-3.8863400576368873e-05,-1.024321697158513
-3.8853400576368871e-05,-1.0280486813654428
-3.8843400576368876e-05,-1.0541375708139396
-3.8833400576368875e-05,-1.024321697158513
-3.8823400576368873e-05,-1.0578645550208812
-3.8813400576368871e-05,-0.98705185508921522
-3.880340057636887e-05,-1.0690455076416332
-3.8793400576368875e-05,-0.98705185508921522
-3.8783400576368873e-05,-1.0727724918486001
-3.8773400576368872e-05,-1.0131407445377236
-3.876340057636887e-05,-1.042956618193162
-3.8753400576368875e-05,-1.042956618193162
-3.8743400576368874e-05,-1.042956618193162
-3.8733400576368872e-05,-1.0466836024000916
-3.8723400576368871e-05,-1.0205947129516002
-3.8713400576368876e-05,-1.0578645550208643
-3.8703400576368874e-05,-0.99823280771000455
-3.8693400576368873e-05,-1.0504105866070215
-3.8683400576368871e-05,-1.009413760330794
-3.8673400576368876e-05,-1.0466836024000747
-3.8663400576368875e-05,-1.024321697158513
-3.8653400576368873e-05,-1.042956618193162
-3.8643400576368871e-05,-1.0205947129515833
-3.863340057636887e-05,-1.0280486813654461
-3.8623400576368875e-05,-1.0355026497793023
-3.8613400576368873e-05,-0.99823280771000455
-3.8603400576368872e-05,-1.0615915392278108
-3.859340057636887e-05,-1.0094137603308415
-3.8583400576368875e-05,-1.1137693181247803
-3.8573400576368874e-05,1.9982624946615399
-3.8563400576368872e-05,5.6544340016596557
-3.8553400576368871e-05,3.2430752197763457
-3.8543400576368876e-05,3.8133038034360842
-3.8533400576368874e-05,4.409621276545109
-3.8523400576368873e-05,2.8293799728068807
-3.8513400576368871e-05,5.1326562126894864
-3.8503400576368876e-05,2.352325994321133
-3.8493400576368875e-05,5.307824470415186
-3.8483400576368873e-05,2.4007767890099565
-3.8473400576368871e-05,5.0059387496538736
-3.846340057636887e-05,2.9188275937738455
-3.8453400576368875e-05,4.3462625450273027
-3.8443400576368873e-05,3.7350371350908178
-3.8433400576368872e-05,3.5002371300542414
-3.842340057636887e-05,4.4506181028206342
-3.8413400576368875e-05,2.9076466411531081
-3.8403400576368874e-05,4.849405412962823
-3.8393400576368872e-05,2.6989355255643384
-3.8383400576368871e-05,4.8754943024104147
-3.8373400576368876e-05,2.8591958464632365
-3.8363400576368874e-05,4.5288847711668616
-3.8353400576368872e-05,3.3437037933631908
-3.8343400576368871e-05,3.9512022190927452
-3.8333400576368876e-05,3.954929203299673
-3.8323400576368874e-05,3.3996085564671379
-3.8313400576368873e-05,4.4058942923381785
-3.8303400576368871e-05,3.0306371199810895
-3.829340057636887e-05,4.5885165184769958
-3.8283400576368875e-05,2.9560974358424934
-3.8273400576368873e-05,4.4990688975114237
-3.8263400576368872e-05,3.1685355356374911
-3.825340057636887e-05,4.171094287301341
-3.8243400576368875e-05,3.5971387194346773
-3.8233400576368874e-05,3.7424911035046771
-3.8223400576368872e-05,3.999653013782833
-3.821340057636887e-05,3.3511577617774702
-3.8203400576368876e-05,4.2754498450952161
-3.8193400576368874e-05,3.1648085514305615
-3.8183400576368872e-05,4.3276276239926537
-3.8173400576368871e-05,3.1797164882582809
-3.8163400576368876e-05,4.21209111357736
-3.8153400576368874e-05,2.788383146530653
-3.8143400576368873e-05,-3.2418773002817334
-3.8133400576368871e-05,1.2640466058963729
-3.812340057636887e-05,-3.2157884108312955
-3.8113400576368875e-05,1.0255196166528668
-3.8103400576368873e-05,-2.7051915744838446
-3.8093400576368872e-05,0.16831324905901704
-3.808340057636887e-05,-1.572188375576967
-3.8073400576368875e-05,-1.0802264602624598
-3.8063400576368874e-05,-0.37955342935966085
-3.8053400576368872e-05,-2.1722328328928855
-3.804340057636887e-05,0.45156404878424999
-3.8033400576368876e-05,-2.6940106218616249
-3.8023400576368874e-05,0.68263706961532689
-3.8013400576368872e-05,-2.6306518903452485
-3.8003400576368871e-05,0.34720849099164652
-3.7993400576368876e-05,-2.0156994962007602
-3.7983400576368874e-05,-0.47645501873983515
-3.7973400576368873e-05,-1.0802264602624598
-3.7963400576368871e-05,-1.4380169441277189
-3.7953400576368876e-05,-0.27147088735922753
-3.7943400576368875e-05,-2.0753312435127116
-3.7933400576368873e-05,0.19812912271445529
-3.7923400576368872e-05,-2.310131248549288
-3.791340057636887e-05,0.18694817009262529
-3.7903400576368875e-05,-2.1014201329612199
-3.7893400576368874e-05,-0.20811215584089088
-3.7883400576368872e-05,-1.5386455177148228
-3.787340057636887e-05,-0.87524232888130826
-3.7863400576368875e-05,-0.8454264552258971
-3.7853400576368874e-05,-1.5162836124732442
-3.7843400576368872e-05,-0.30874072942799502
-3.7833400576368871e-05,-1.9299788594424498
-3.7823400576368876e-05,-0.096302629633831183
-3.7813400576368874e-05,-1.9486137804770989
-3.7803400576368873e-05,-0.19693120322010155
-3.7793400576368871e-05,-1.6951788544058737
-3.7783400576368876e-05,-0.57708359232744777
-3.7773400576368875e-05,-1.2591217021950893
-3.7763400576368873e-05,-1.0653185234347406
-3.7753400576368871e-05,-0.7559788342595688
-3.774340057636887e-05,-1.5125566282658178
-3.7733400576368875e-05,-0.42055025563588844
-3.7723400576368873e-05,-1.7361756806821014
-3.7713400576368872e-05,-0.33482961887650348
-3.770340057636887e-05,-1.6839979017845506
-3.7693400576368875e-05,-0.5099978766027371
-3.7683400576368874e-05,-1.4305629757138592
-3.7673400576368872e-05,-0.82306454998430478
-3.7663400576368871e-05,-1.0653185234347915
-3.7653400576368876e-05,-1.1771280496425833
-3.7643400576368874e-05,-0.7224359763972007
-3.7633400576368873e-05,-1.4752867861970167
-3.7623400576368871e-05,-0.56217565549922011
-3.7613400576368876e-05,-1.553553454542091
-3.7603400576368875e-05,-0.55099470287843078
-3.7593400576368873e-05,-1.467832817783157
-3.7583400576368871e-05,-0.70752803956948163
-3.757340057636887e-05,-1.2591217021949554
-3.7563400576368875e-05,-0.96468994984763656
-3.7553400576368873e-05,-0.97959788667535563
-3.7543400576368872e-05,-1.2479407495743
-3.753340057636887e-05,-0.76343280267371472
-3.7523400576368875e-05,-1.3932931336442749
-3.7513400576368874e-05,-0.65907724487939445
-3.7503400576368872e-05,-1.4156550388861402
-3.7493400576368871e-05,-0.71498200798361067
-3.7483400576368876e-05,-1.307572496884907
-3.7473400576368874e-05,-0.84542645522588356
-3.7463400576368873e-05,-1.110042333917898
-3.7453400576368871e-05,-1.07649947605553
-3.7443400576368876e-05,-0.93114709198533452
-3.7433400576368875e-05,-1.2181248759188616
-3.7423400576368873e-05,-0.80815661315658571
-3.7413400576368871e-05,-1.3112994810921061
-3.740340057636887e-05,-0.78206772370830935
-3.7393400576368875e-05,-1.2926645600574573
-3.7383400576368873e-05,-0.83424550260509422
-3.7373400576368872e-05,-1.195762970677283
-3.736340057636887e-05,-0.95723598143381938
-3.7353400576368875e-05,-1.0504105866069791
-3.7343400576368874e-05,-1.1212232865386873
-3.7333400576368872e-05,-0.91623915515754939
-3.7323400576368871e-05,-1.1957629706771287
-3.7313400576368876e-05,-0.8566074078468271
-3.7303400576368874e-05,-1.2367597969535107
-3.7293400576368872e-05,-0.87524232888132181
-3.7283400576368871e-05,-1.1920359864703531
-3.7273400576368876e-05,-0.92742010777845907
-3.7263400576368874e-05,-1.110042333917898
-3.7253400576368873e-05,-1.0205947129515833
-3.7243400576368871e-05,-1.0056867761238641
-3.723340057636887e-05,-1.098861381297034
-3.7223400576368875e-05,-0.93487407619219831
-3.7213400576368873e-05,-1.1659470970218446
-3.7203400576368872e-05,-0.89015026570904088
-3.719340057636887e-05,-1.1622201128148064
-3.7183400576368875e-05,-0.92369312357151745
-3.7173400576368874e-05,-1.110042333917898
-3.7163400576368872e-05,-0.98705185508921522
-3.715340057636887e-05,-1.080226460262443
-3.7143400576368876e-05,-1.0429566181931789
-3.7133400576368874e-05,-1.0019597919169343
-3.7123400576368872e-05,-1.1174963023317577
-3.7113400576368871e-05,-0.94605502881298764
-3.7103400576368876e-05,-1.1324042391593918
-3.7093400576368874e-05,-0.93487407619219831
-3.7083400576368873e-05,-1.1249502707456172
-3.7073400576368871e-05,-0.9684169340545663
-3.706340057636887e-05,-1.1137693181247821
-3.7053400576368875e-05,-1.0131407445377236
-3.7043400576368873e-05,-1.0504105866070215
-3.7033400576368872e-05,-1.0727724918486001
-3.702340057636887e-05,-0.98705185508926097
-3.7013400576368875e-05,-1.0876804286763193
-3.7003400576368874e-05,-0.95723598143377697
-3.6993400576368872e-05,-1.1025883655040385
-3.698340057636887e-05,-0.97214391826155377
-3.6973400576368876e-05,-1.0988613812970511
-3.6963400576368874e-05,-1.0131407445377236
-3.6953400576368872e-05,-1.0727724918486001
-3.6943400576368871e-05,-1.0392296339862321
-3.6933400576368876e-05,-1.0243216971585198
-3.6923400576368874e-05,-1.0578645550208812
-3.6913400576368873e-05,-0.98705185508921522
-3.6903400576368871e-05,-1.0876804286763193
-3.6893400576368876e-05,-0.983324870882333
-3.6883400576368875e-05,-1.0802264602624598
-3.6873400576368873e-05,-0.99077883929614496
-3.6863400576368872e-05,-1.0615915392278108
-3.685340057636887e-05,-1.0168677287446688
-3.6843400576368875e-05,-1.0504105866070215
-3.6833400576368874e-05,-1.0355026497793023
-3.6823400576368872e-05,-1.0205947129515833
-3.681340057636887e-05,-1.0727724918485713
-3.6803400576368875e-05,-1.0094137603308229
-3.6793400576368874e-05,-1.0653185234347406
-3.6783400576368872e-05,-0.99823280771000455
-3.6773400576368871e-05,-1.0578645550208812
-3.6763400576368876e-05,-1.0131407445377441
-3.6753400576368874e-05,-1.0578645550208812
-3.6743400576368873e-05,-1.024321697158513
-3.6733400576368871e-05,-1.0280486813654428
-3.6723400576368876e-05,-1.0466836024000832
-3.6713400576368875e-05,-1.0205947129515833
-3.6703400576368873e-05,-1.0541375708139513
-3.6693400576368871e-05,-1.0019597919169343
-3.668340057636887e-05,-1.0653185234347118
-3.6673400576368875e-05,-1.0019597919169343
-3.6663400576368873e-05,-1.042956618193162
-3.6653400576368872e-05,-1.009413760330794
-3.664340057636887e-05,-1.0355026497792921
-3.6633400576368875e-05,-1.0131407445377338
-3.6623400576368874e-05,-1.024321697158513
-3.6613400576368872e-05,-1.0392296339862321
-3.6603400576368871e-05,-1.0019597919169547
-3.6593400576368876e-05,-1.0466836024000712
-3.6583400576368874e-05,-1.0131407445377236
-3.6573400576368873e-05,-1.042956618193162
-3.6563400576368871e-05,-1.024321697158513
-3.6553400576368876e-05,-1.1473121759871399
-3.6543400576368875e-05,3.5971387194344162
-3.6533400576368873e-05,4.3947133397173896
-3.6523400576368871e-05,4.3388085766134425
-3.651340057636887e-05,2.8554688622564508
-3.6503400576368875e-05,5.1885609757934326
-3.6493400576368873e-05,2.2554244049396948
-3.6483400576368872e-05,5.4196339966230793
-3.647340057636887e-05,2.2852402785964174
-3.6463400576368875e-05,5.1102943074466225
-3.6453400576368874e-05,2.8778307674969685
-3.6443400576368872e-05,4.39098635551046
-3.6433400576368871e-05,3.7424911035045736
-3.6423400576368876e-05,3.5151450668820643
-3.6413400576368874e-05,4.4953419133044932
-3.6403400576368873e-05,2.8778307674969685
-3.6393400576368871e-05,4.9239450971014183
-3.6383400576368876e-05,2.6243958414267889
-3.6373400576368875e-05,4.935126049722208
-3.6363400576368873e-05,2.7995640991514428
-3.6353400576368871e-05,4.5587006448222995
-3.634340057636887e-05,3.3101609355011301
-3.6333400576368875e-05,3.9847450769551136
-3.6323400576368873e-05,3.9623831717135349
-3.6313400576368872e-05,3.3735196670186287
-3.630340057636887e-05,4.4543450870276073
-3.6293400576368875e-05,3.0045482305332394
-3.6283400576368874e-05,4.6556022342024743
-3.6273400576368872e-05,2.9449164832217045
-3.626340057636887e-05,4.532611755373166
-3.6253400576368876e-05,3.1573545830173275
-3.6243400576368874e-05,4.1934561925431817
-3.6233400576368872e-05,3.6008657036413458
-3.6223400576368871e-05,3.7387641192977474
-3.6213400576368876e-05,4.0220149190242829
-3.6203400576368874e-05,3.3362498249493315
