Power_measurements/Simeck_64_128_csv/simeck_active_l3_8.csv

#Digilent WaveForms Oscilloscope Acquisition
#Device Name: Discovery2
#Serial Number: SN:210321A1A9F5
#Date Time: 2018-06-28 16:26:04.374
#Sample rate: 1e+08Hz
#Samples: 8192
#Trigger: Source: Channel 1 Type: Edge Condition: Rising Level: 2 V Hyst.: Auto HoldOff: 0 s
#Channel 2: Range: 1 V/div Offset: 0 V

Time (s),Channel 2 (V)
-4.0692950819672131e-05,-1.0392296339862321
-4.0682950819672129e-05,-1.0205947129515833
-4.0672950819672128e-05,-1.0466836024000747
-4.0662950819672133e-05,-1.0094137603308109
-4.0652950819672131e-05,-1.0392296339862321
-4.064295081967213e-05,-1.0280486813654428
-4.0632950819672128e-05,-1.0355026497793023
-4.0622950819672133e-05,-1.0280486813654461
-4.0612950819672132e-05,-0.54354073446457118
-4.060295081967213e-05,6.3998308430456117
-4.0592950819672129e-05,2.177157736594169
-4.0582950819672127e-05,5.5500784438641135
-4.0572950819672132e-05,2.2330624996981161
-4.0562950819672131e-05,5.155018117931065
-4.0552950819672129e-05,2.7846561623237234
-4.0542950819672127e-05,4.4878879448902254
-4.0532950819672133e-05,3.5896847510209646
-4.0522950819672131e-05,3.6604974509522226
-4.0512950819672129e-05,4.3686244502688814
-4.0502950819672128e-05,2.9747323568780066
-4.0492950819672133e-05,4.8754943024104671
-4.0482950819672131e-05,2.568491078321796
-4.047295081967213e-05,5.0804784337924689
-4.0462950819672128e-05,2.5424021888732877
-4.0452950819672133e-05,4.9723958917904003
-4.0442950819672132e-05,2.8181990201860918
-4.043295081967213e-05,4.5400657237876514
-4.0422950819672129e-05,3.3474307775701204
-4.0412950819672127e-05,3.9623831717135265
-4.0402950819672132e-05,3.9437482506788859
-4.0392950819672131e-05,3.4219704617087165
-4.0382950819672129e-05,4.4133482607520387
-4.0372950819672127e-05,3.0120021989471844
-4.0362950819672133e-05,4.6481482657878699
-4.0352950819672131e-05,2.874103783290038
-4.0342950819672129e-05,4.6332403289608957
-4.0332950819672128e-05,2.9598244200500874
-4.0322950819672133e-05,4.4208022291652336
-4.0312950819672131e-05,3.2579831566038058
-4.030295081967213e-05,4.0779196821283579
-4.0292950819672128e-05,3.6567704667452929
-4.0282950819672133e-05,3.6679514193660769
-4.0272950819672132e-05,4.0220149190244117
-4.026295081967213e-05,3.3399768091562612
-4.0252950819672129e-05,4.2754498450956362
-4.0242950819672127e-05,3.1536275988103242
-4.0232950819672132e-05,4.3686244502688814
-4.0222950819672131e-05,3.1349926777751227
-4.0212950819672129e-05,4.2903577819233556
-4.0202950819672127e-05,3.2691641092249615
-4.0192950819672132e-05,4.0741926979214282
-4.0182950819672131e-05,0.80935453265093948
-4.0172950819672129e-05,-2.5710201430343727
-4.0162950819672128e-05,0.21303705954133886
-4.0152950819672133e-05,-1.6243661544733723
-4.0142950819672131e-05,-0.97587090246842589
-4.013295081967213e-05,-0.50627089239527345
-4.0122950819672128e-05,-1.9747026699256074
-4.0112950819672133e-05,0.26521483843817273
-4.0102950819672132e-05,-2.4927534746888469
-4.009295081967213e-05,0.56337357499357388
-4.0082950819672128e-05,-2.6008360166898106
-4.0072950819672127e-05,0.44783706457749312
-4.0062950819672132e-05,-2.3175852169631472
-4.005295081967213e-05,0.022960864988755561
-4.0042950819672129e-05,-1.7697185385444694
-4.0032950819672127e-05,-0.66280422908648351
-4.0022950819672132e-05,-1.0131407445377236
-4.0012950819672131e-05,-1.3858391652307018
-4.0002950819672129e-05,-0.40191533460123952
-3.9992950819672128e-05,-1.8815280647515085
-3.9982950819672133e-05,-0.003128024460607115
-3.9972950819672131e-05,-2.1200550539958689
-3.996295081967213e-05,0.07141165967884272
-3.9952950819672128e-05,-2.0566963224780626
-3.9942950819672133e-05,-0.096302629633888914
-3.9932950819672132e-05,-1.7659915543375395
-3.992295081967213e-05,-0.51745184501606278
-3.9912950819672128e-05,-1.3038455126782467
-3.9902950819672134e-05,-1.0355026497794242
-3.9892950819672132e-05,-0.80070264474272612
-3.988295081967213e-05,-1.4939217072316655
-3.9872950819672129e-05,-0.42427723984281823
-3.9862950819672127e-05,-1.7324486964745021
-3.9852950819672132e-05,-0.26028993473790785
-3.9842950819672131e-05,-1.8032613964068374
-3.9832950819672129e-05,-0.30874072942799502
-3.9822950819672128e-05,-1.661635996542987
-3.9812950819672133e-05,-0.52117882922351133
-3.9802950819672131e-05,-1.3634772599891232
-3.979295081967213e-05,-0.8416994710189537
-3.9782950819672128e-05,-1.0317756655724557
-3.9772950819672133e-05,-1.2143978917118488
-3.9762950819672132e-05,-0.74479788163877947
-3.975295081967213e-05,-1.4603788493692975
-3.9742950819672128e-05,-0.53981375025764144
-3.9732950819672134e-05,-1.5684613913697933
-3.9722950819672132e-05,-0.50999787660220319
-3.971295081967213e-05,-1.5237375808871036
-3.9702950819672129e-05,-0.62180740281009661
-3.9692950819672127e-05,-1.3821121810235093
-3.9682950819672132e-05,-0.80442962894965597
-3.9672950819672131e-05,-1.162220112814915
-3.9662950819672129e-05,-1.0504105866070215
-3.9652950819672127e-05,-0.92369312357155309
-3.9642950819672133e-05,-1.2404867811602962
-3.9632950819672131e-05,-0.7559788342595688
-3.9622950819672129e-05,-1.3522963073683338
-3.9612950819672128e-05,-0.67771216591437722
-3.9602950819672133e-05,-1.4119280546788766
-3.9592950819672131e-05,-0.71498200798334122
-3.958295081967213e-05,-1.3299344021267552
-3.9572950819672128e-05,-0.81188359736351545
-3.9562950819672133e-05,-1.1883090022632523
-3.9552950819672132e-05,-0.9684169340545663
-3.954295081967213e-05,-1.0392296339862321
-3.9532950819672129e-05,-1.1174963023317577
-3.9522950819672127e-05,-0.90878518674384068
-3.9512950819672132e-05,-1.2404867811604403
-3.9502950819672131e-05,-0.81188359736351545
-3.9492950819672129e-05,-1.262848686402019
-3.9482950819672127e-05,-0.79697566053600821
-3.9472950819672133e-05,-1.2628486864018071
-3.9462950819672131e-05,-0.82679153419123463
-3.9452950819672129e-05,-1.1734010654357043
-3.9442950819672128e-05,-0.96096296564075756
-3.9432950819672133e-05,-1.0727724918485493
-3.9422950819672131e-05,-1.0466836024000916
-3.941295081967213e-05,-0.97959788667535563
-3.9402950819672128e-05,-1.1361312233664065
-3.9392950819672133e-05,-0.91251217095072135
-3.9382950819672132e-05,-1.1883090022634235
-3.937295081967213e-05,-0.89015026570904088
-3.9362950819672129e-05,-1.2181248759188616
-3.9352950819672127e-05,-0.88269629729530841
-3.9342950819672132e-05,-1.162220112814915
-3.9332950819672131e-05,-0.94232804460605779
-3.9322950819672129e-05,-1.110042333917898
-3.9312950819672127e-05,-1.0094137603308109
-3.9302950819672133e-05,-1.0466836024000747
-3.9292950819672131e-05,-1.0839534444693895
-3.9282950819672129e-05,-0.99077883929614496
-3.9272950819672128e-05,-1.1249502707455323
-3.9262950819672133e-05,-0.93860106039921276
-3.9252950819672131e-05,-1.1473121759871958
-3.924295081967213e-05,-0.93860106039912805
-3.9232950819672128e-05,-1.143585191780266
-3.9222950819672133e-05,-0.96468994984771794
-3.9212950819672132e-05,-1.110042333917898
-3.920295081967213e-05,-1.0056867761238641
-3.9192950819672129e-05,-1.07649947605553
-3.9182950819672127e-05,-1.0280486813654293
-3.9172950819672132e-05,-0.99823280771000455
-3.916295081967213e-05,-1.07649947605553
-3.9152950819672129e-05,-0.99823280771000455
-3.9142950819672127e-05,-1.1100423339178369
-3.9132950819672132e-05,-0.97587090246842589
-3.9122950819672131e-05,-1.1249502707456172
-3.9112950819672129e-05,-0.97214391826149615
-3.9102950819672128e-05,-1.0951343970901364
-3.9092950819672133e-05,-1.0019597919169767
-3.9082950819672131e-05,-1.0615915392278108
-3.907295081967213e-05,-1.0317756655723727
-3.9062950819672128e-05,-1.0317756655723727
-3.9052950819672133e-05,-1.0578645550208694
-3.9042950819672132e-05,-1.0019597919169343
-3.903295081967213e-05,-1.0727724918486001
-3.9022950819672128e-05,-0.98332487088228548
-3.9012950819672127e-05,-1.0914074128832052
-3.9002950819672132e-05,-0.99450582350307482
-3.899295081967213e-05,-1.0839534444693895
-3.8982950819672129e-05,-0.99077883929614496
-3.8972950819672127e-05,-1.0653185234347169
-3.8962950819672132e-05,-1.0131407445377236
-3.8952950819672131e-05,-1.0280486813654428
-3.8942950819672129e-05,-1.042956618193162
-3.8932950819672128e-05,-1.0205947129516038
-3.8922950819672133e-05,-1.0653185234347202
-3.8912950819672131e-05,-0.98705185508921522
-3.890295081967213e-05,-1.0690455076416705
-3.8892950819672128e-05,-1.0056867761238641
-3.8882950819672133e-05,-1.0653185234347136
-3.8872950819672132e-05,-1.0019597919169343
-3.886295081967213e-05,-1.0504105866070215
-3.8852950819672128e-05,-1.0019597919169343
-3.8842950819672134e-05,-1.0466836024000712
-3.8832950819672132e-05,-1.0205947129515833
-3.882295081967213e-05,-1.0131407445377236
-3.8812950819672129e-05,-1.0355026497793023
-3.8802950819672127e-05,-0.99823280771003342
-3.8792950819672132e-05,-1.0615915392278108
-3.8782950819672131e-05,-1.0168677287446535
-3.8772950819672129e-05,-1.0466836024000916
-3.8762950819672128e-05,-1.0094137603308193
-3.8752950819672133e-05,-1.0653185234347151
-3.8742950819672131e-05,-1.009413760330794
-3.873295081967213e-05,-1.0355026497793023
-3.8722950819672128e-05,-1.0280486813654377
-3.8712950819672133e-05,-1.0168677287446586
-3.8702950819672132e-05,-1.0466836024000916
-3.869295081967213e-05,-1.024321697158513
-3.8682950819672128e-05,-1.042956618193162
-3.8672950819672133e-05,-1.0131407445377372
-3.8662950819672132e-05,-1.0578645550208812
-3.865295081967213e-05,-1.0280486813654428
-3.8642950819672129e-05,-1.042956618193162
-3.8632950819672127e-05,-1.0243216971585232
-3.8622950819672132e-05,-1.0466836024000916
-3.8612950819672131e-05,-1.0280486813654428
-3.8602950819672129e-05,-1.0578645550208812
-3.8592950819672127e-05,-1.0466836023997086
-3.8582950819672133e-05,-0.20438517163434411
-3.8572950819672131e-05,6.5265483060812244
-3.8562950819672129e-05,2.0988910682486441
-3.8552950819672128e-05,5.4419959018632991
-3.8542950819672133e-05,2.4529545679083324
-3.8532950819672131e-05,4.8195895393073842
-3.852295081967213e-05,3.2430752197760864
-3.8512950819672128e-05,3.9921990453689729
-3.8502950819672133e-05,4.0592847610936786
-3.8492950819672132e-05,3.2132593461206485
-3.848295081967213e-05,4.7189609657202807
-3.8472950819672129e-05,2.6765736203227597
-3.8462950819672127e-05,5.0581165285497205
-3.8452950819672132e-05,2.4864974257693415
-3.8442950819672131e-05,5.0730244653786096
-3.8432950819672129e-05,2.6318498098396024
-3.8422950819672127e-05,4.7935006498580881
-3.8412950819672133e-05,3.0604529936373153
-3.8402950819672131e-05,4.2232720661986196
-3.8392950819672129e-05,3.6865863404007309
-3.8382950819672128e-05,3.6381355457109286
-3.8372950819672133e-05,4.2642688924745622
-3.8362950819672131e-05,3.1312656935681931
-3.835295081967213e-05,4.5736085816500189
-3.8342950819672128e-05,2.8852847359108278
-3.8332950819672133e-05,4.6816911236501655
-3.8322950819672132e-05,2.892738704324687
-3.831295081967213e-05,4.56242762902923
-3.8302950819672129e-05,3.1089037883266144
-3.8292950819672127e-05,4.2568149240606248
-3.8282950819672132e-05,3.4592403037780137
-3.8272950819672131e-05,3.8729355507472203
-3.8262950819672129e-05,3.8841165033680092
-3.8252950819672127e-05,3.4666942721922096
-3.8242950819672133e-05,4.2046371451636348
-3.8232950819672131e-05,3.1946244250859994
-3.8222950819672129e-05,4.372351434475811
-3.8212950819672128e-05,3.1089037883271873
-3.8202950819672133e-05,4.3686244502683085
-3.8192950819672131e-05,3.1797164882582809
-3.818295081967213e-05,4.21954508199169
-3.8172950819672128e-05,3.3958815722602083
-3.8162950819672133e-05,3.9139323770232117
-3.8152950819672132e-05,-0.77834073950114746
-3.814295081967213e-05,-1.0802264602624598
-3.8132950819672128e-05,-1.3262074179198253
-3.8122950819672127e-05,-0.20438517163488309
-3.8112950819672132e-05,-2.2318645802037622
-3.810295081967213e-05,0.50746881188962711
-3.8092950819672129e-05,-2.6753757008284058
-3.8082950819672127e-05,0.68263706961382353
-3.8072950819672132e-05,-2.6231979219313892
-3.8062950819672131e-05,0.41802119092331241
-3.8052950819672129e-05,-2.1647788644790262
-3.8042950819672128e-05,-0.23047406108301194
-3.8032950819672133e-05,-1.4231090072994572
-3.8022950819672131e-05,-1.0355026497793023
-3.801295081967213e-05,-0.66653121329325404
-3.8002950819672128e-05,-1.6951788544058737
-3.7992950819672133e-05,-0.10748358225450882
-3.7982950819672132e-05,-2.0827852119265708
-3.797295081967213e-05,0.11986245436892988
-3.7962950819672128e-05,-2.1796868013067456
-3.7952950819672134e-05,0.078865628091675077
-3.7942950819672132e-05,-2.004518543581046
-3.793295081967213e-05,-0.23792802949632913
-3.7922950819672129e-05,-1.5721883755771908
-3.7912950819672127e-05,-0.73361692901814102
-3.7902950819672132e-05,-1.0653185234347406
-3.7892950819672131e-05,-1.2777566232297382
-3.7882950819672129e-05,-0.57708359232693929
-3.7872950819672128e-05,-1.6467280597151661
-3.7862950819672133e-05,-0.28265183998010679
-3.7852950819672131e-05,-1.8293502858553459
-3.784295081967213e-05,-0.21556612425475047
-3.7832950819672128e-05,-1.7995344121999075
-3.7822950819672133e-05,-0.357191524118738
-3.7812950819672132e-05,-1.5759153597841207
-3.780295081967213e-05,-0.64044232384474553
-3.7792950819672128e-05,-1.2255788443327214
-3.7782950819672134e-05,-1.0243216971586044
-3.7772950819672132e-05,-0.88269629729518129
-3.776295081967213e-05,-1.3336613863336848
-3.7752950819672129e-05,-0.61062645018930728
-3.7742950819672127e-05,-1.5423725019212764
-3.7732950819672132e-05,-0.49508993977448407
-3.7722950819672131e-05,-1.6094582176464887
-3.7712950819672129e-05,-0.5025439081883436
-3.7702950819672128e-05,-1.5088296440590017
-3.7692950819672133e-05,-0.66653121329363707
-3.7682950819672131e-05,-1.2963915442643872
-3.767295081967213e-05,-0.89387724991597073
-3.7662950819672128e-05,-1.0541375708139971
-3.7652950819672133e-05,-1.1547661444010096
-3.7642950819672131e-05,-0.83051851839816437
-3.763295081967213e-05,-1.3522963073683338
-3.7622950819672128e-05,-0.70752803956948163
-3.7612950819672133e-05,-1.4156550388858182
-3.7602950819672132e-05,-0.66653121329325404
-3.759295081967213e-05,-1.4044740862653506
-3.7582950819672129e-05,-0.73734391322491988
-3.7572950819672127e-05,-1.315026465298841
-3.7562950819672132e-05,-0.88642328150211114
-3.7552950819672131e-05,-1.1361312233664065
-3.7542950819672129e-05,-1.0615915392278108
-3.7532950819672127e-05,-0.96468994984773826
-3.7522950819672133e-05,-1.1883090022633218
-3.7512950819672131e-05,-0.87151534467439196
-3.7502950819672129e-05,-1.2852105916435976
-3.7492950819672128e-05,-0.79324867632910057
-3.7482950819672133e-05,-1.3075724968849425
-3.7472950819672131e-05,-0.81188359736351545
-3.746295081967213e-05,-1.2479407495743
-3.7452950819672128e-05,-0.87896931308825155
-3.7442950819672133e-05,-1.1622201128147862
-3.7432950819672132e-05,-0.97959788667535563
-3.742295081967213e-05,-1.0504105866070215
-3.7412950819672129e-05,-1.0802264602624598
-3.7402950819672127e-05,-0.93487407619230678
-3.7392950819672132e-05,-1.1734010654357043
-3.7382950819672131e-05,-0.88642328150211114
-3.7372950819672129e-05,-1.2255788443327214
-3.7362950819672127e-05,-0.86778836046761809
-3.7352950819672133e-05,-1.2106709075048463
-3.7342950819672131e-05,-0.89760423412290047
-3.7332950819672129e-05,-1.143585191780266
-3.7322950819672128e-05,-0.97214391826154867
-3.7312950819672133e-05,-1.0876804286762667
-3.7302950819672131e-05,-1.0578645550208812
-3.729295081967213e-05,-1.024321697158513
-3.7282950819672128e-05,-1.1025883655040385
-3.7272950819672133e-05,-0.95723598143384303
-3.7262950819672132e-05,-1.1249502707456172
-3.725295081967213e-05,-0.91623915515754939
-3.7242950819672129e-05,-1.1584931286079851
-3.7232950819672127e-05,-0.92369312357151401
-3.7222950819672132e-05,-1.1547661444010553
-3.7212950819672131e-05,-0.96096296564070671
-3.7202950819672129e-05,-1.0914074128832492
-3.7192950819672127e-05,-1.0280486813654428
-3.7182950819672133e-05,-1.0280486813654428
-3.7172950819672131e-05,-1.0727724918486001
-3.7162950819672129e-05,-0.99450582350307482
-3.7152950819672128e-05,-1.0988613812970494
-3.7142950819672133e-05,-0.96841693405462559
-3.7132950819672131e-05,-1.128677254952547
-3.712295081967213e-05,-0.96468994984763656
-3.7112950819672128e-05,-1.110042333917898
-3.7102950819672133e-05,-0.97214391826155888
-3.7092950819672132e-05,-1.0876804286763193
-3.708295081967213e-05,-1.0131407445377236
-3.7072950819672128e-05,-1.0578645550208812
-3.7062950819672127e-05,-1.031775665572376
-3.7052950819672132e-05,-1.0392296339862321
-3.704295081967213e-05,-1.0690455076416705
-3.7032950819672129e-05,-0.99823280771000455
-3.7022950819672127e-05,-1.1025883655039876
-3.7012950819672132e-05,-0.99077883929614496
-3.7002950819672131e-05,-1.1025883655040385
-3.6992950819672129e-05,-0.97959788667535563
-3.6982950819672128e-05,-1.0876804286762769
-3.6972950819672133e-05,-0.99450582350311723
-3.6962950819672131e-05,-1.0653185234347406
-3.695295081967213e-05,-1.024321697158513
-3.6942950819672128e-05,-1.0317756655723727
-3.6932950819672133e-05,-1.0429566181931569
-3.6922950819672132e-05,-1.0131407445377236
-3.691295081967213e-05,-1.07649947605553
-3.6902950819672128e-05,-1.0019597919169343
-3.6892950819672134e-05,-1.0839534444693522
-3.6882950819672132e-05,-0.99450582350307482
-3.687295081967213e-05,-1.07649947605553
-3.6862950819672129e-05,-1.0131407445377236
-3.6852950819672127e-05,-1.0466836024000798
-3.6842950819672132e-05,-1.0205947129515833
-3.6832950819672131e-05,-1.0355026497793023
-3.6822950819672129e-05,-1.0392296339862321
-3.6812950819672128e-05,-1.0243216971585198
-3.6802950819672133e-05,-1.0392296339862253
-3.6792950819672131e-05,-1.024321697158513
-3.678295081967213e-05,-1.0653185234347406
-3.6772950819672128e-05,-1.0131407445377236
-3.6762950819672133e-05,-1.0355026497792921
-3.6752950819672132e-05,-1.009413760330794
-3.674295081967213e-05,-1.0615915392278108
-3.6732950819672128e-05,-1.0280486813654428
-3.6722950819672134e-05,-1.039229633986227
-3.6712950819672132e-05,-1.0578645550208812
-3.670295081967213e-05,-1.0131407445377236
-3.6692950819672129e-05,-1.042956618193162
-3.6682950819672127e-05,-1.0205947129515918
-3.6672950819672132e-05,-1.0392296339862321
-3.6662950819672131e-05,-1.0168677287446535
-3.6652950819672129e-05,-1.0280486813654428
-3.6642950819672128e-05,-1.0243216971585214
-3.6632950819672133e-05,-1.0429566181931536
-3.6622950819672131e-05,-1.009413760330794
-3.6612950819672129e-05,-1.0280486813654428
-3.6602950819672128e-05,-1.0168677287446484
-3.6592950819672133e-05,-1.0056867761238693
-3.6582950819672131e-05,-1.024321697158513
-3.657295081967213e-05,-1.0355026497793023
-3.6562950819672128e-05,-1.0690455076416705
-3.6552950819672133e-05,0.38075134885335538
-3.6542950819672132e-05,6.5153673534604355
-3.653295081967213e-05,2.1995196418357477
-3.6522950819672129e-05,5.1773800231726437
-3.6512950819672127e-05,2.9076466411530353
-3.6502950819672132e-05,4.2903577819233556
-3.6492950819672131e-05,3.8468466612987111
-3.6482950819672129e-05,3.4033355406740675
-3.6472950819672127e-05,4.6034244553046317
-3.6462950819672133e-05,2.7883831465314781
-3.6452950819672131e-05,5.0432085917231717
-3.6442950819672129e-05,2.4753164731485517
-3.6432950819672128e-05,5.1550181179298598
-3.6422950819672133e-05,2.5051323468051945
-3.6412950819672131e-05,4.9537609707568571
-3.640295081967213e-05,2.8666498148761788
-3.6392950819672128e-05,4.476706992269845
-3.6382950819672133e-05,3.4741482406061888
-3.6372950819672132e-05,3.8393926928848519
-3.636295081967213e-05,4.0779196821283579
-3.6352950819672129e-05,3.265437125017665
-3.6342950819672127e-05,4.5288847711661244
-3.6332950819672132e-05,2.9076466411524065
-3.6322950819672131e-05,4.7487768393757186
-3.6312950819672129e-05,2.8331069570138112
-3.6302950819672127e-05,4.6705101710294272
-3.6292950819672133e-05,2.9859133094986983
-3.6282950819672131e-05,4.4058942923381785
-3.6272950819672129e-05,3.3362498249493315
-3.6262950819672128e-05,4.0071069821965786
-3.6252950819672133e-05,3.7573990403325102
-3.6242950819672131e-05,3.5710498299859079
-3.623295081967213e-05,4.1300974610253753
-3.6222950819672128e-05,3.2579831566038058
-3.6212950819672133e-05,4.346262545026808
-3.6202950819672132e-05,3.112630772533544
