Power_measurements/Simeck_64_128_csv/simeck_idle_c160_10.csv

#Digilent WaveForms Oscilloscope Acquisition
#Device Name: Discovery2
#Serial Number: SN:210321A1A9F5
#Date Time: 2018-06-28 16:07:58.441
#Sample rate: 1e+08Hz
#Samples: 8192
#Trigger: Source: Channel 1 Type: Edge Condition: Rising Level: 2 V Hyst.: Auto HoldOff: 0 s
#Channel 2: Range: 1 V/div Offset: 0 V

Time (s),Channel 2 (V)
-4.0698267326732672e-05,0.95843390092813074
-4.0688267326732671e-05,0.96961485354892007
-4.0678267326732669e-05,0.98079580616970097
-4.0668267326732674e-05,0.96216088513506892
-4.0658267326732673e-05,0.97706882196277967
-4.0648267326732671e-05,0.98079580616970941
-4.063826732673267e-05,0.95470691672120089
-4.0628267326732675e-05,0.98824977458355379
-4.0618267326732673e-05,0.98079580616970941
-4.0608267326732672e-05,0.97706882196277967
-4.059826732673267e-05,0.96961485354892007
-4.0588267326732668e-05,0.96588786934198867
-4.0578267326732674e-05,0.96216088513506048
-4.0568267326732672e-05,0.97706882196277967
-4.055826732673267e-05,0.97334183775584981
-4.0548267326732669e-05,0.96961485354891841
-4.0538267326732674e-05,0.965887869341992
-4.0528267326732672e-05,0.96961485354892007
-4.0518267326732671e-05,0.97706882196277967
-4.0508267326732669e-05,0.96588786934199033
-4.0498267326732674e-05,0.96588786934199033
-4.0488267326732673e-05,0.97706882196277967
-4.0478267326732671e-05,0.95470691672120089
-4.0468267326732669e-05,0.98452279037663915
-4.0458267326732675e-05,0.9621608851350707
-4.0448267326732673e-05,0.97334183775584981
-4.0438267326732671e-05,0.96961485354892007
-4.042826732673267e-05,0.96961485354892007
-4.0418267326732668e-05,0.977068821962778
-4.0408267326732673e-05,0.97334183775584981
-4.0398267326732672e-05,0.98079580616970941
-4.038826732673267e-05,0.98079580616970941
-4.0378267326732669e-05,0.96961485354891663
-4.0368267326732674e-05,0.96216088513506393
-4.0358267326732672e-05,0.96216088513506048
-4.0348267326732671e-05,0.98079580616970941
-4.0338267326732669e-05,0.9807958061697043
-4.0328267326732674e-05,0.96961485354892518
-4.0318267326732673e-05,0.96961485354892007
-4.0308267326732671e-05,0.97706882196277967
-4.0298267326732669e-05,0.988249774583569
-4.0288267326732675e-05,0.97334183775585659
-4.0278267326732673e-05,0.98452279037663915
-4.0268267326732671e-05,0.97334183775584981
-4.025826732673267e-05,0.98452279037663915
-4.0248267326732668e-05,0.96961485354892007
-4.0238267326732673e-05,0.96961485354892007
-4.0228267326732672e-05,0.98079580616970941
-4.021826732673267e-05,0.98452279037663915
-4.0208267326732669e-05,0.97334183775585825
-4.0198267326732674e-05,0.99197675879049874
-4.0188267326732672e-05,0.98452279037663915
-4.0178267326732671e-05,0.98079580616970941
-4.0168267326732669e-05,0.98452279037664081
-4.0158267326732674e-05,0.98824977458356733
-4.0148267326732673e-05,0.96588786934199033
-4.0138267326732671e-05,0.97706882196277967
-4.0128267326732669e-05,0.98079580616970941
-4.0118267326732675e-05,0.98452279037663748
-4.0108267326732673e-05,0.98452279037663915
-4.0098267326732671e-05,0.98452279037663915
-4.008826732673267e-05,0.97706882196277967
-4.0078267326732668e-05,0.98079580616970941
-4.0068267326732673e-05,0.98079580616970941
-4.0058267326732672e-05,0.97706882196277967
-4.004826732673267e-05,0.98452279037663915
-4.0038267326732669e-05,0.98452279037663237
-4.0028267326732674e-05,0.96961485354892007
-4.0018267326732672e-05,0.99943072720435833
-4.0008267326732671e-05,0.97706882196277967
-3.9998267326732669e-05,0.96961485354891841
-3.9988267326732674e-05,0.965887869341992
-3.9978267326732672e-05,0.96961485354892007
-3.9968267326732671e-05,0.98079580616970941
-3.9958267326732669e-05,0.98079580616970941
-3.9948267326732674e-05,0.96961485354892518
-3.9938267326732673e-05,0.99197675879049874
-3.9928267326732671e-05,0.98079580616970941
-3.991826732673267e-05,0.98452279037663915
-3.9908267326732675e-05,0.98824977458356733
-3.9898267326732673e-05,0.97706882196277967
-3.9888267326732672e-05,0.98452279037663915
-3.987826732673267e-05,0.97334183775584981
-3.9868267326732668e-05,0.96961485354892007
-3.9858267326732674e-05,0.96961485354892007
-3.9848267326732672e-05,0.97706882196277967
-3.983826732673267e-05,0.96961485354892007
-3.9828267326732669e-05,0.99197675879048852
-3.9818267326732674e-05,0.96961485354893029
-3.9808267326732672e-05,0.97334183775584981
-3.9798267326732671e-05,0.98079580616970941
-3.9788267326732669e-05,0.96588786934199033
-3.9778267326732674e-05,0.96588786934199033
-3.9768267326732673e-05,0.98452279037663915
-3.9758267326732671e-05,0.97334183775584981
-3.974826732673267e-05,0.97706882196277967
-3.9738267326732675e-05,0.96961485354892352
-3.9728267326732673e-05,0.97334183775584981
-3.9718267326732672e-05,0.96588786934199033
-3.970826732673267e-05,0.97706882196277967
-3.9698267326732668e-05,0.98452279037663071
-3.9688267326732674e-05,0.96588786934199033
-3.9678267326732672e-05,0.97334183775584981
-3.966826732673267e-05,0.97706882196277967
-3.9658267326732669e-05,0.97334183775584637
-3.9648267326732674e-05,0.96588786934199378
-3.9638267326732672e-05,0.96588786934199033
-3.9628267326732671e-05,0.98079580616970941
-3.9618267326732669e-05,0.97706882196277967
-3.9608267326732674e-05,0.97706882196277967
-3.9598267326732673e-05,0.96588786934199033
-3.9588267326732671e-05,0.96216088513506048
-3.957826732673267e-05,0.95470691672120089
-3.9568267326732675e-05,0.95097993251427282
-3.9558267326732673e-05,0.98452279037663915
-3.9548267326732672e-05,0.95097993251427115
-3.953826732673267e-05,0.988249774583569
-3.9528267326732668e-05,0.98824977458356222
-3.9518267326732674e-05,0.97334183775584981
-3.9508267326732672e-05,0.96216088513506048
-3.949826732673267e-05,0.97706882196277967
-3.9488267326732669e-05,0.97706882196278133
-3.9478267326732674e-05,0.98079580616970774
-3.9468267326732672e-05,0.98452279037663915
-3.9458267326732671e-05,0.96961485354892007
-3.9448267326732669e-05,0.96588786934200388
-3.9438267326732674e-05,0.99570374299741493
-3.9428267326732673e-05,0.96216088513506048
-3.9418267326732671e-05,0.96588786934199033
-3.9408267326732669e-05,0.95843390092813074
-3.9398267326732675e-05,0.95470691672120256
-3.9388267326732673e-05,0.98079580616970941
-3.9378267326732671e-05,0.96961485354892007
-3.936826732673267e-05,0.97334183775584981
-3.9358267326732668e-05,0.97334183775584471
-3.9348267326732673e-05,0.96216088513506048
-3.9338267326732672e-05,0.95843390092813074
-3.932826732673267e-05,0.96216088513506048
-3.9318267326732669e-05,0.98452279037663071
-3.9308267326732674e-05,0.96588786934199877
-3.9298267326732672e-05,0.96588786934199033
-3.9288267326732671e-05,0.96216088513506048
-3.9278267326732669e-05,0.97334183775584815
-3.9268267326732674e-05,0.96961485354892174
-3.9258267326732673e-05,0.96961485354892007
-3.9248267326732671e-05,0.97334183775584981
-3.9238267326732669e-05,0.988249774583569
-3.9228267326732675e-05,0.97334183775585659
-3.9218267326732673e-05,0.96961485354892007
-3.9208267326732671e-05,0.98079580616970941
-3.919826732673267e-05,0.98079580616970941
-3.9188267326732668e-05,0.96216088513506048
-3.9178267326732673e-05,0.96216088513506048
-3.9168267326732672e-05,0.95097993251427115
-3.915826732673267e-05,0.97334183775584981
-3.9148267326732669e-05,0.96216088513507236
-3.9138267326732674e-05,0.988249774583569
-3.9128267326732672e-05,0.95470691672120089
-3.9118267326732671e-05,0.95843390092813074
-3.9108267326732669e-05,0.96216088513505704
-3.9098267326732674e-05,0.95470691672120434
-3.9088267326732673e-05,0.97706882196277967
-3.9078267326732671e-05,0.96216088513506048
-3.9068267326732669e-05,0.97334183775584981
-3.9058267326732675e-05,0.95843390092813752
-3.9048267326732673e-05,0.96961485354892007
-3.9038267326732671e-05,0.95470691672120089
-3.902826732673267e-05,0.98079580616970941
-3.9018267326732668e-05,0.96216088513505882
-3.9008267326732673e-05,0.95843390092813074
-3.8998267326732672e-05,0.96961485354892007
-3.898826732673267e-05,0.96961485354892007
-3.8978267326732669e-05,0.95470691672120434
-3.8968267326732674e-05,0.96216088513506048
-3.8958267326732672e-05,0.96588786934199033
-3.894826732673267e-05,0.98079580616970941
-3.8938267326732669e-05,0.96961485354892352
-3.8928267326732674e-05,0.97706882196277622
-3.8918267326732672e-05,0.96961485354892007
-3.8908267326732671e-05,0.97334183775584981
-3.8898267326732669e-05,0.95470691672120089
-3.8888267326732674e-05,0.96216088513505704
-3.8878267326732673e-05,0.96588786934199033
-3.8868267326732671e-05,0.96216088513506048
-3.885826732673267e-05,0.96216088513506048
-3.8848267326732675e-05,0.98452279037662893
-3.8838267326732673e-05,0.97334183775584981
-3.8828267326732672e-05,0.96961485354892007
-3.881826732673267e-05,0.96588786934199033
-3.8808267326732668e-05,0.96961485354892007
-3.8798267326732674e-05,0.96961485354892007
-3.8788267326732672e-05,0.96216088513506048
-3.877826732673267e-05,0.96961485354892007
-3.8768267326732669e-05,0.95843390092813241
-3.8758267326732674e-05,0.96216088513505882
-3.8748267326732672e-05,0.96216088513506048
-3.8738267326732671e-05,0.97334183775584981
-3.8728267326732669e-05,0.97706882196277622
-3.8718267326732674e-05,0.96961485354892352
-3.8708267326732673e-05,0.97334183775584981
-3.8698267326732671e-05,0.96588786934199033
-3.868826732673267e-05,0.96961485354892007
-3.8678267326732675e-05,0.98824977458356056
-3.8668267326732673e-05,0.96588786934199033
-3.8658267326732672e-05,0.96588786934199033
-3.864826732673267e-05,0.98079580616970941
-3.8638267326732668e-05,0.95097993251428137
-3.8628267326732674e-05,0.97334183775584981
-3.8618267326732672e-05,0.96216088513506048
-3.860826732673267e-05,0.97706882196277967
-3.8598267326732669e-05,0.99197675879048686
-3.8588267326732674e-05,0.96588786934200221
-3.8578267326732672e-05,0.97334183775584981
-3.8568267326732671e-05,0.98452279037663915
-3.8558267326732669e-05,0.97334183775584637
-3.8548267326732674e-05,0.96588786934199378
-3.8538267326732673e-05,0.96961485354892007
-3.8528267326732671e-05,0.96216088513506048
-3.851826732673267e-05,0.97334183775584981
-3.8508267326732675e-05,0.98079580616970596
-3.8498267326732673e-05,0.98079580616970941
-3.8488267326732672e-05,0.988249774583569
-3.847826732673267e-05,0.97334183775584981
-3.8468267326732668e-05,0.97334183775584981
-3.8458267326732673e-05,0.97334183775584981
-3.8448267326732672e-05,0.95843390092813074
-3.843826732673267e-05,0.96961485354892007
-3.8428267326732669e-05,0.95097993251427626
-3.8418267326732674e-05,0.96216088513505538
-3.8408267326732672e-05,0.95843390092813074
-3.8398267326732671e-05,0.97706882196277967
-3.8388267326732669e-05,0.96961485354891663
-3.8378267326732674e-05,0.96216088513506393
-3.8368267326732673e-05,0.96961485354892007
-3.8358267326732671e-05,0.95470691672120089
-3.8348267326732669e-05,0.96216088513506048
-3.8338267326732675e-05,0.97334183775584471
-3.8328267326732673e-05,0.97334183775584981
-3.8318267326732671e-05,0.95843390092813074
-3.830826732673267e-05,0.95470691672120089
-3.8298267326732668e-05,0.96588786934199033
-3.8288267326732673e-05,0.96588786934199033
-3.8278267326732672e-05,0.97706882196277967
-3.826826732673267e-05,0.95470691672120089
-3.8258267326732669e-05,0.96588786934199544
-3.8248267326732674e-05,0.97706882196277456
-3.8238267326732672e-05,0.95470691672120089
-3.8228267326732671e-05,0.96961485354892007
-3.8218267326732669e-05,0.95843390092814096
-3.8208267326732674e-05,0.98079580616969919
-3.8198267326732673e-05,0.96588786934199033
-3.8188267326732671e-05,0.97334183775584981
-3.8178267326732669e-05,0.96961485354892007
-3.8168267326732675e-05,0.96216088513506393
-3.8158267326732673e-05,0.97706882196277967
-3.8148267326732671e-05,0.95470691672120089
-3.813826732673267e-05,0.96961485354892007
-3.8128267326732668e-05,0.98452279037663237
-3.8118267326732673e-05,0.96961485354892007
-3.8108267326732672e-05,0.988249774583569
-3.809826732673267e-05,0.97334183775584981
-3.8088267326732669e-05,0.98079580616970097
-3.8078267326732674e-05,0.96216088513506048
-3.8068267326732672e-05,0.96588786934199033
-3.8058267326732671e-05,0.96216088513506048
-3.8048267326732669e-05,0.95843390092813241
-3.8038267326732674e-05,0.96216088513505882
-3.8028267326732673e-05,0.96588786934199033
-3.8018267326732671e-05,0.98452279037663915
-3.8008267326732669e-05,0.98079580616970941
-3.7998267326732675e-05,0.97334183775585326
-3.7988267326732673e-05,0.98452279037663915
-3.7978267326732671e-05,0.96216088513506048
-3.796826732673267e-05,0.97334183775584981
-3.7958267326732675e-05,0.96216088513506559
-3.7948267326732673e-05,0.97706882196277967
-3.7938267326732672e-05,0.96216088513506048
-3.792826732673267e-05,0.96216088513506048
-3.7918267326732669e-05,0.95470691672121444
-3.7908267326732674e-05,0.98452279037663915
-3.7898267326732672e-05,0.96961485354892007
-3.788826732673267e-05,0.96588786934199033
-3.7878267326732669e-05,0.97706882196278311
-3.7868267326732674e-05,0.9845227903766357
-3.7858267326732672e-05,0.96961485354892007
-3.7848267326732671e-05,0.988249774583569
-3.7838267326732669e-05,0.97334183775584981
-3.7828267326732674e-05,0.99570374299741826
-3.7818267326732673e-05,0.98452279037663915
-3.7808267326732671e-05,0.97706882196277967
-3.779826732673267e-05,0.97334183775584981
-3.7788267326732675e-05,0.98079580616970596
-3.7778267326732673e-05,0.96588786934199033
-3.7768267326732672e-05,0.95470691672120089
-3.775826732673267e-05,0.97706882196277967
-3.7748267326732668e-05,0.96216088513506559
-3.7738267326732674e-05,0.97334183775584981
-3.7728267326732672e-05,0.96588786934199033
-3.771826732673267e-05,0.95470691672120089
-3.7708267326732669e-05,0.96961485354891497
-3.7698267326732674e-05,0.95843390092813585
-3.7688267326732672e-05,0.96961485354892007
-3.7678267326732671e-05,0.97334183775584981
-3.7668267326732669e-05,0.97334183775584815
-3.7658267326732674e-05,0.96961485354892174
-3.7648267326732673e-05,0.97706882196277967
-3.7638267326732671e-05,0.95843390092813074
-3.762826732673267e-05,0.96216088513506048
-3.7618267326732675e-05,0.99570374299741327
-3.7608267326732673e-05,0.97706882196277967
-3.7598267326732672e-05,0.97706882196277967
-3.758826732673267e-05,0.96216088513506048
-3.7578267326732668e-05,0.97706882196277289
-3.7568267326732674e-05,0.96216088513506048
-3.7558267326732672e-05,0.97334183775584981
-3.754826732673267e-05,0.95470691672120089
-3.7538267326732669e-05,0.94725294830735496
-3.7528267326732674e-05,0.97706882196276612
-3.7518267326732672e-05,0.97334183775584981
-3.7508267326732671e-05,0.97706882196277967
-3.7498267326732669e-05,0.97706882196277622
-3.7488267326732674e-05,0.96961485354892352
-3.7478267326732673e-05,0.97706882196277967
-3.7468267326732671e-05,0.98079580616970941
-3.745826732673267e-05,0.97706882196277967
-3.7448267326732675e-05,0.96588786934199544
-3.7438267326732673e-05,0.97334183775584981
-3.7428267326732671e-05,0.98452279037663915
-3.741826732673267e-05,0.98079580616970941
-3.7408267326732668e-05,0.96961485354891841
-3.7398267326732673e-05,0.96588786934199033
-3.7388267326732672e-05,0.97334183775584981
-3.737826732673267e-05,0.96216088513506048
-3.7368267326732669e-05,0.965887869341992
-3.7358267326732674e-05,0.96961485354891841
-3.7348267326732672e-05,0.95470691672120089
-3.7338267326732671e-05,0.98452279037663915
-3.7328267326732669e-05,0.96961485354892685
-3.7318267326732674e-05,0.98452279037663237
-3.7308267326732673e-05,0.98452279037663915
-3.7298267326732671e-05,0.95843390092813074
-3.7288267326732669e-05,0.988249774583569
-3.7278267326732675e-05,0.96961485354892851
-3.7268267326732673e-05,0.97334183775584981
-3.7258267326732671e-05,0.96588786934199033
-3.724826732673267e-05,0.96588786934199033
-3.7238267326732668e-05,0.96216088513506393
-3.7228267326732673e-05,0.96961485354892007
-3.7218267326732672e-05,0.97334183775584981
-3.720826732673267e-05,0.96588786934199033
-3.7198267326732669e-05,0.98824977458356733
-3.7188267326732674e-05,0.98452279037664081
-3.7178267326732672e-05,0.988249774583569
-3.7168267326732671e-05,0.98079580616970941
-3.7158267326732669e-05,0.96216088513506559
-3.7148267326732674e-05,0.97334183775584471
-3.7138267326732673e-05,0.98452279037663915
-3.7128267326732671e-05,0.96588786934199033
-3.7118267326732669e-05,0.96961485354892007
-3.7108267326732675e-05,0.95470691672120767
-3.7098267326732673e-05,0.97334183775584981
-3.7088267326732671e-05,0.96588786934199033
-3.707826732673267e-05,0.95843390092813074
-3.7068267326732668e-05,0.95470691672119923
-3.7058267326732673e-05,0.95097993251427115
-3.7048267326732672e-05,0.96588786934199033
-3.703826732673267e-05,0.97334183775584981
-3.7028267326732669e-05,0.96216088513506559
-3.7018267326732674e-05,0.97334183775584981
-3.7008267326732672e-05,0.96961485354892007
-3.6998267326732671e-05,0.95843390092813074
-3.6988267326732669e-05,0.96961485354892007
-3.6978267326732674e-05,0.96961485354892007
-3.6968267326732673e-05,0.96961485354892007
-3.6958267326732671e-05,0.95097993251427115
-3.6948267326732669e-05,0.96961485354892007
-3.6938267326732674e-05,0.95843390092813585
-3.6928267326732673e-05,0.95470691672120089
-3.6918267326732671e-05,0.96588786934199033
-3.690826732673267e-05,0.94725294830734141
-3.6898267326732675e-05,0.9658878693419819
-3.6888267326732673e-05,0.96216088513506048
-3.6878267326732672e-05,0.96588786934199033
-3.686826732673267e-05,0.96216088513506048
-3.6858267326732668e-05,0.97334183775584471
-3.6848267326732674e-05,0.96216088513506048
-3.6838267326732672e-05,0.97334183775584981
-3.682826732673267e-05,0.98079580616970941
-3.6818267326732669e-05,0.96961485354891164
-3.6808267326732674e-05,0.95097993251427959
-3.6798267326732672e-05,0.94352596410041156
-3.6788267326732671e-05,0.96961485354892007
-3.6778267326732669e-05,0.96588786934199033
-3.6768267326732674e-05,0.97334183775584637
-3.6758267326732673e-05,0.96961485354892007
-3.6748267326732671e-05,0.95843390092813074
-3.673826732673267e-05,0.96588786934199033
-3.6728267326732675e-05,0.96216088513506215
-3.6718267326732673e-05,0.98079580616970941
-3.6708267326732672e-05,0.96216088513506048
-3.669826732673267e-05,0.96961485354892007
-3.6688267326732668e-05,0.96961485354891497
-3.6678267326732674e-05,0.95843390092813074
-3.6668267326732672e-05,0.96588786934199033
-3.665826732673267e-05,0.95843390092813074
-3.6648267326732669e-05,0.95843390092813241
-3.6638267326732674e-05,0.96216088513505882
-3.6628267326732672e-05,0.95470691672120089
-3.6618267326732671e-05,0.97334183775584981
-3.6608267326732669e-05,0.95470691672120767
-3.6598267326732674e-05,0.9696148535489133
-3.6588267326732673e-05,0.96961485354892007
-3.6578267326732671e-05,0.95470691672120089
-3.656826732673267e-05,0.96961485354892007
-3.6558267326732675e-05,0.9807958061697043
-3.6548267326732673e-05,0.96588786934199033
-3.6538267326732672e-05,0.97334183775584981
-3.652826732673267e-05,0.96588786934199033
-3.6518267326732668e-05,0.9696148535489082
-3.6508267326732674e-05,0.94352596410041156
-3.6498267326732672e-05,0.96588786934199033
-3.648826732673267e-05,0.96961485354892007
-3.6478267326732669e-05,0.97334183775584637
-3.6468267326732674e-05,0.96588786934199378
-3.6458267326732672e-05,0.95097993251427115
-3.6448267326732671e-05,0.96961485354892007
-3.6438267326732669e-05,0.9807958061697043
-3.6428267326732674e-05,0.96961485354892518
-3.6418267326732673e-05,0.96216088513506048
-3.6408267326732671e-05,0.96961485354892007
-3.639826732673267e-05,0.96588786934199033
-3.6388267326732675e-05,0.96588786934199033
-3.6378267326732673e-05,0.98079580616970941
-3.6368267326732671e-05,0.96588786934199033
-3.635826732673267e-05,0.96216088513506048
-3.6348267326732668e-05,0.97706882196277967
-3.6338267326732673e-05,0.97706882196277967
-3.6328267326732672e-05,0.97334183775584981
-3.631826732673267e-05,0.95470691672120089
-3.6308267326732669e-05,0.96216088513506393
-3.6298267326732674e-05,0.96961485354891663
-3.6288267326732672e-05,0.95097993251427115
-3.6278267326732671e-05,0.96216088513506048
-3.6268267326732669e-05,0.97334183775584637
-3.6258267326732674e-05,0.96588786934199378
-3.6248267326732673e-05,0.95470691672120089
-3.6238267326732671e-05,0.96588786934199033
-3.6228267326732669e-05,0.96216088513506048
-3.6218267326732675e-05,0.95843390092813241
