Power_measurements/Simeck_64_128_csv/simeck_active_c160_4.csv

#Digilent WaveForms Oscilloscope Acquisition
#Device Name: Discovery2
#Serial Number: SN:210321A1A9F5
#Date Time: 2018-06-28 16:05:23.444
#Sample rate: 1e+08Hz
#Samples: 8192
#Trigger: Source: Channel 1 Type: Edge Condition: Rising Level: 2 V Hyst.: Auto HoldOff: 0 s
#Channel 2: Range: 1 V/div Offset: 0 V

Time (s),Channel 2 (V)
-4.0691007194244604e-05,0.99197675879049874
-4.0681007194244602e-05,0.97334183775584981
-4.0671007194244601e-05,0.98079580616970263
-4.0661007194244606e-05,0.96588786934199711
-4.0651007194244604e-05,0.98452279037663915
-4.0641007194244603e-05,0.96961485354892007
-4.0631007194244601e-05,0.99197675879049874
-4.0621007194244606e-05,0.98079580616971451
-4.0611007194244605e-05,0.99197675879049874
-4.0601007194244603e-05,0.96961485354892007
-4.0591007194244601e-05,0.98452279037663915
-4.05810071942446e-05,0.97334183775584981
-4.0571007194244605e-05,0.97334183775584981
-4.0561007194244603e-05,0.97706882196277967
-4.0551007194244602e-05,0.98079580616970941
-4.05410071942446e-05,0.97334183775584637
-4.0531007194244605e-05,0.96588786934199378
-4.0521007194244604e-05,0.97706882196277967
-4.0511007194244602e-05,0.97706882196277967
-4.0501007194244601e-05,0.9807958061697043
-4.0491007194244606e-05,0.96961485354892518
-4.0481007194244604e-05,0.98452279037663915
-4.0471007194244603e-05,0.98079580616970941
-4.0461007194244601e-05,0.96588786934199033
-4.0451007194244606e-05,0.97334183775584637
-4.0441007194244605e-05,0.97706882196277967
-4.0431007194244603e-05,0.97334183775584981
-4.0421007194244601e-05,0.96588786934199033
-4.04110071942446e-05,0.97334183775584981
-4.0401007194244605e-05,0.97334183775584981
-4.0391007194244603e-05,0.98079580616970941
-4.0381007194244602e-05,0.98079580616970941
-4.03710071942446e-05,0.98452279037663404
-4.0361007194244605e-05,0.97334183775585492
-4.0351007194244604e-05,0.97334183775584981
-4.0341007194244602e-05,0.98452279037663915
-4.03310071942446e-05,0.97334183775585326
-4.0321007194244606e-05,0.98079580616970596
-4.0311007194244604e-05,0.97706882196277967
-4.0301007194244602e-05,0.97334183775584981
-4.0291007194244601e-05,0.96961485354892007
-4.0281007194244606e-05,0.97334183775584815
-4.0271007194244604e-05,0.99197675879049874
-4.0261007194244603e-05,0.97706882196277967
-4.0251007194244601e-05,0.98079580616970941
-4.02410071942446e-05,0.98824977458356222
-4.0231007194244605e-05,0.97334183775584981
-4.0221007194244603e-05,0.97706882196277967
-4.0211007194244602e-05,0.99943072720435833
-4.02010071942446e-05,0.988249774583569
-4.0191007194244605e-05,0.988249774583569
-4.0181007194244604e-05,0.96961485354892007
-4.0171007194244602e-05,0.98079580616970941
-4.01610071942446e-05,1.006884695618206
-4.0151007194244606e-05,0.98079580616972128
-4.0141007194244604e-05,0.98079580616970941
-4.0131007194244602e-05,0.97706882196277967
-4.0121007194244601e-05,0.96961485354892007
-4.0111007194244606e-05,0.98824977458356056
-4.0101007194244604e-05,0.98452279037663915
-4.0091007194244603e-05,0.988249774583569
-4.0081007194244601e-05,0.98452279037663915
-4.00710071942446e-05,0.97334183775585492
-4.0061007194244605e-05,0.98452279037663915
-4.0051007194244603e-05,0.96961485354892007
-4.0041007194244602e-05,0.988249774583569
-4.00310071942446e-05,0.98452279037664936
-4.0021007194244605e-05,1.0068846956182178
-4.0011007194244604e-05,0.98452279037663915
-4.0001007194244602e-05,0.97706882196277967
-3.99910071942446e-05,0.98824977458356222
-3.9981007194244606e-05,0.97334183775585659
-3.9971007194244604e-05,0.98452279037663915
-3.9961007194244602e-05,0.97706882196277967
-3.9951007194244601e-05,0.97334183775584981
-3.9941007194244606e-05,0.977068821962778
-3.9931007194244604e-05,0.988249774583569
-3.9921007194244603e-05,0.96588786934199033
-3.9911007194244601e-05,0.98452279037663915
-3.9901007194244606e-05,0.98079580616971107
-3.9891007194244605e-05,0.97706882196277967
-3.9881007194244603e-05,0.99197675879049874
-3.9871007194244601e-05,0.96961485354892007
-3.98610071942446e-05,0.98079580616971107
-3.9851007194244605e-05,0.98452279037663915
-3.9841007194244603e-05,0.97706882196277967
-3.9831007194244602e-05,0.96961485354892007
-3.98210071942446e-05,0.98452279037663404
-3.9811007194244605e-05,0.97334183775585492
-3.9801007194244604e-05,0.98452279037663915
-3.9791007194244602e-05,0.95097993251427115
-3.9781007194244601e-05,0.97706882196277967
-3.9771007194244606e-05,0.97706882196277967
-3.9761007194244604e-05,0.97706882196277967
-3.9751007194244603e-05,0.97706882196277967
-3.9741007194244601e-05,0.97706882196277967
-3.9731007194244606e-05,0.9845227903766357
-3.9721007194244605e-05,0.96588786934199033
-3.9711007194244603e-05,0.98079580616970941
-3.9701007194244601e-05,0.97706882196277967
-3.96910071942446e-05,0.98079580616970596
-3.9681007194244605e-05,0.97334183775584981
-3.9671007194244603e-05,0.96216088513506048
-3.9661007194244602e-05,0.96588786934199033
-3.96510071942446e-05,0.96216088513505882
-3.9641007194244605e-05,0.95843390092813241
-3.9631007194244604e-05,0.98452279037663915
-3.9621007194244602e-05,0.97706882196277967
-3.9611007194244601e-05,0.9807958061697043
-3.9601007194244606e-05,0.96961485354892518
-3.9591007194244604e-05,0.98079580616970941
-3.9581007194244603e-05,0.97334183775584981
-3.9571007194244601e-05,0.98079580616970941
-3.9561007194244606e-05,0.98452279037663748
-3.9551007194244605e-05,0.98452279037663915
-3.9541007194244603e-05,0.96216088513506048
-3.9531007194244601e-05,0.98079580616970941
-3.95210071942446e-05,0.97706882196277456
-3.9511007194244605e-05,0.96588786934199033
-3.9501007194244603e-05,0.97334183775584981
-3.9491007194244602e-05,0.97706882196277967
-3.94810071942446e-05,0.965887869341992
-3.9471007194244605e-05,0.96961485354891841
-3.9461007194244604e-05,0.96588786934199033
-3.9451007194244602e-05,0.97706882196277967
-3.9441007194244601e-05,0.97706882196277622
-3.9431007194244606e-05,0.96961485354892352
-3.9421007194244604e-05,0.98452279037663915
-3.9411007194244603e-05,0.97706882196277967
-3.9401007194244601e-05,0.97334183775584981
-3.9391007194244606e-05,0.96961485354892174
-3.9381007194244604e-05,0.98452279037663915
-3.9371007194244603e-05,0.96588786934199033
-3.9361007194244601e-05,0.96588786934199033
-3.93510071942446e-05,0.96588786934199033
-3.9341007194244605e-05,0.96588786934199033
-3.9331007194244603e-05,0.98079580616970941
-3.9321007194244602e-05,0.96961485354892007
-3.93110071942446e-05,0.95097993251427959
-3.9301007194244605e-05,0.96961485354891164
-3.9291007194244604e-05,0.988249774583569
-3.9281007194244602e-05,0.95843390092813074
-3.92710071942446e-05,0.97334183775585659
-3.9261007194244606e-05,0.98824977458356222
-3.9251007194244604e-05,0.96961485354892007
-3.9241007194244602e-05,0.97706882196277967
-3.9231007194244601e-05,0.988249774583569
-3.9221007194244606e-05,0.97334183775585659
-3.9211007194244604e-05,0.97334183775584981
-3.9201007194244603e-05,0.988249774583569
-3.9191007194244601e-05,0.97706882196277967
-3.91810071942446e-05,0.96961485354893029
-3.9171007194244605e-05,0.99197675879049874
-3.9161007194244603e-05,0.97334183775584981
-3.9151007194244602e-05,0.96588786934199033
-3.91410071942446e-05,0.97706882196277123
-3.9131007194244605e-05,0.95843390092813074
-3.9121007194244604e-05,0.96961485354892007
-3.9111007194244602e-05,0.98079580616970941
-3.91010071942446e-05,0.97706882196277289
-3.9091007194244606e-05,0.96216088513506726
-3.9081007194244604e-05,0.96588786934199033
-3.9071007194244602e-05,0.97334183775584981
-3.9061007194244601e-05,0.96961485354892007
-3.9051007194244606e-05,0.98824977458356056
-3.9041007194244604e-05,0.97706882196277967
-3.9031007194244603e-05,0.96961485354892007
-3.9021007194244601e-05,0.98079580616970941
-3.90110071942446e-05,0.97334183775585659
-3.9001007194244605e-05,0.988249774583569
-3.8991007194244603e-05,0.97334183775584981
-3.8981007194244602e-05,0.97334183775584981
-3.89710071942446e-05,0.97334183775585148
-3.8961007194244605e-05,0.97706882196277967
-3.8951007194244604e-05,0.97334183775584981
-3.8941007194244602e-05,0.97706882196277967
-3.89310071942446e-05,0.96216088513506215
-3.8921007194244606e-05,0.96588786934198867
-3.8911007194244604e-05,0.96216088513506048
-3.8901007194244602e-05,0.99197675879049874
-3.8891007194244601e-05,0.97334183775584981
-3.8881007194244606e-05,0.95097993251428137
-3.8871007194244604e-05,0.96216088513506048
-3.8861007194244603e-05,0.96588786934199033
-3.8851007194244601e-05,0.98079580616970941
-3.8841007194244606e-05,0.96961485354892518
-3.8831007194244605e-05,0.96216088513506048
-3.8821007194244603e-05,0.97334183775584981
-3.8811007194244601e-05,0.98452279037663915
-3.88010071942446e-05,0.98452279037663915
-3.8791007194244605e-05,0.98452279037663915
-3.8781007194244603e-05,0.97334183775584981
-3.8771007194244602e-05,0.97706882196277967
-3.87610071942446e-05,0.98079580616969919
-3.8751007194244605e-05,0.95843390092814096
-3.8741007194244604e-05,0.97334183775584981
-3.8731007194244602e-05,0.98079580616970941
-3.8721007194244601e-05,0.977068821962778
-3.8711007194244606e-05,0.97334183775585148
-3.8701007194244604e-05,0.97334183775584981
-3.8691007194244603e-05,0.95843390092813074
-3.8681007194244601e-05,0.97706882196277967
-3.8671007194244606e-05,0.98824977458356389
-3.8661007194244605e-05,0.96961485354892007
-3.8651007194244603e-05,0.98452279037663915
-3.8641007194244601e-05,0.96216088513506048
-3.86310071942446e-05,0.96216088513505882
-3.8621007194244605e-05,0.95843390092813074
-3.8611007194244603e-05,0.97334183775584981
-3.8601007194244602e-05,0.96588786934199033
-3.85910071942446e-05,0.95097993251427959
-3.8581007194244605e-05,0.96961485354891164
-3.8571007194244604e-05,0.98079580616970941
-3.8561007194244602e-05,0.98452279037663915
-3.8551007194244601e-05,0.97706882196276779
-3.8541007194244606e-05,0.95097993251428303
-3.8531007194244604e-05,0.96588786934199033
-3.8521007194244603e-05,0.96216088513506048
-3.8511007194244601e-05,0.97334183775584981
-3.8501007194244606e-05,0.96961485354892174
-3.8491007194244605e-05,0.98079580616970941
-3.8481007194244603e-05,0.95470691672120089
-3.8471007194244601e-05,0.97706882196277967
-3.84610071942446e-05,0.94725294830736007
-3.8451007194244605e-05,0.988249774583569
-3.8441007194244603e-05,0.96588786934199033
-3.8431007194244602e-05,0.96588786934199033
-3.84210071942446e-05,0.96216088513505538
-3.8411007194244605e-05,0.95097993251427626
-3.8401007194244604e-05,0.97334183775584981
-3.8391007194244602e-05,0.98452279037663915
-3.8381007194244601e-05,0.95843390092813419
-3.8371007194244606e-05,0.96588786934198689
-3.8361007194244604e-05,0.95470691672120089
-3.8351007194244602e-05,0.97334183775584981
-3.8341007194244601e-05,0.98079580616970941
-3.8331007194244606e-05,0.97706882196278133
-3.8321007194244604e-05,0.97706882196277967
-3.8311007194244603e-05,0.95843390092813074
-3.8301007194244601e-05,0.98452279037663915
-3.82910071942446e-05,0.97334183775584815
-3.8281007194244605e-05,0.96961485354892007
-3.8271007194244603e-05,0.96961485354892007
-3.8261007194244602e-05,0.96588786934199033
-3.82510071942446e-05,0.97706882196278133
-3.8241007194244605e-05,0.98079580616970774
-3.8231007194244604e-05,0.95843390092813074
-3.8221007194244602e-05,0.96216088513506048
-3.82110071942446e-05,0.99197675879049196
-3.8201007194244606e-05,0.97706882196278644
-3.8191007194244604e-05,0.98079580616970941
-3.8181007194244602e-05,0.97706882196277967
-3.8171007194244601e-05,0.99197675879049874
-3.8161007194244606e-05,0.98452279037664259
-3.8151007194244604e-05,0.97334183775584981
-3.8141007194244603e-05,0.95843390092813074
-3.8131007194244601e-05,0.98079580616970941
-3.81210071942446e-05,0.95470691672121111
-3.8111007194244605e-05,0.97706882196277967
-3.8101007194244603e-05,0.96961485354892007
-3.8091007194244602e-05,0.97334183775584981
-3.80810071942446e-05,0.97706882196277456
-3.8071007194244605e-05,0.96588786934199033
-3.8061007194244604e-05,0.96961485354892007
-3.8051007194244602e-05,0.97706882196277967
-3.80410071942446e-05,0.98824977458356222
-3.8031007194244606e-05,0.97334183775585659
-3.8021007194244604e-05,0.96961485354892007
-3.8011007194244602e-05,0.97706882196277967
-3.8001007194244601e-05,0.96588786934199033
-3.7991007194244606e-05,0.97334183775584637
-3.7981007194244604e-05,0.96216088513506048
-3.7971007194244603e-05,0.96961485354892007
-3.7961007194244601e-05,0.988249774583569
-3.7951007194244606e-05,0.988249774583569
-3.7941007194244605e-05,0.96216088513506048
-3.7931007194244603e-05,0.95470691672120089
-3.7921007194244602e-05,0.96961485354892007
-3.79110071942446e-05,0.97334183775584637
-3.7901007194244605e-05,0.96588786934199033
-3.7891007194244604e-05,0.95843390092813074
-3.7881007194244602e-05,0.97334183775584981
-3.78710071942446e-05,0.95843390092813419
-3.7861007194244605e-05,0.96588786934198689
-3.7851007194244604e-05,0.96216088513506048
-3.7841007194244602e-05,0.96961485354892007
-3.7831007194244601e-05,0.98079580616970941
-3.7821007194244606e-05,0.97334183775585326
-3.7811007194244604e-05,0.96216088513506048
-3.7801007194244603e-05,0.96961485354892007
-3.7791007194244601e-05,0.97706882196277967
-3.7781007194244606e-05,0.96216088513506726
-3.7771007194244605e-05,0.98079580616970941
-3.7761007194244603e-05,0.97334183775584981
-3.7751007194244601e-05,0.95843390092813074
-3.77410071942446e-05,0.95843390092813752
-3.7731007194244605e-05,0.97334183775584981
-3.7721007194244603e-05,0.98079580616970941
-3.7711007194244602e-05,0.988249774583569
-3.77010071942446e-05,0.95843390092813419
-3.7691007194244605e-05,0.96588786934198689
-3.7681007194244604e-05,0.96216088513506048
-3.7671007194244602e-05,0.96588786934199033
-3.7661007194244601e-05,0.96961485354892174
-3.7651007194244606e-05,0.97334183775584815
-3.7641007194244604e-05,0.96588786934199033
-3.7631007194244603e-05,0.96588786934199033
-3.7621007194244601e-05,0.95843390092813074
-3.7611007194244606e-05,0.95843390092813074
-3.7601007194244605e-05,0.96216088513506048
-3.7591007194244603e-05,0.96588786934199033
-3.7581007194244601e-05,0.96588786934199033
-3.75710071942446e-05,0.96588786934199711
-3.7561007194244605e-05,0.98079580616970941
-3.7551007194244603e-05,0.97334183775584981
-3.7541007194244602e-05,0.96961485354892007
-3.75310071942446e-05,0.96216088513505538
-3.7521007194244605e-05,0.95097993251427626
-3.7511007194244604e-05,0.97334183775584981
-3.7501007194244602e-05,0.96961485354892007
-3.7491007194244601e-05,0.96961485354892007
-3.7481007194244606e-05,0.96961485354892007
-3.7471007194244604e-05,0.96961485354892007
-3.7461007194244603e-05,0.96216088513506048
-3.7451007194244601e-05,0.96961485354892007
-3.7441007194244606e-05,0.96216088513506393
-3.7431007194244605e-05,0.988249774583569
-3.7421007194244603e-05,0.97706882196277967
-3.7411007194244601e-05,0.97334183775584981
-3.74010071942446e-05,0.96961485354892851
-3.7391007194244605e-05,0.988249774583569
-3.7381007194244603e-05,0.96961485354892007
-3.7371007194244602e-05,0.96216088513506048
-3.73610071942446e-05,0.96961485354891841
-3.7351007194244605e-05,0.965887869341992
-3.7341007194244604e-05,0.98079580616970941
-3.7331007194244602e-05,0.96961485354892007
-3.7321007194244601e-05,0.96588786934199544
-3.7311007194244606e-05,0.97706882196277456
-3.7301007194244604e-05,0.95843390092813074
-3.7291007194244602e-05,0.988249774583569
-3.7281007194244601e-05,0.988249774583569
-3.7271007194244606e-05,0.96961485354892851
-3.7261007194244604e-05,0.96961485354892007
-3.7251007194244603e-05,0.96961485354892007
-3.7241007194244601e-05,0.96961485354892007
-3.72310071942446e-05,0.97706882196277967
-3.7221007194244605e-05,0.97706882196277967
-3.7211007194244603e-05,0.97706882196277967
-3.7201007194244602e-05,0.96216088513506048
-3.71910071942446e-05,0.98452279037662893
-3.7181007194244605e-05,0.9621608851350707
-3.7171007194244604e-05,0.97706882196277967
-3.7161007194244602e-05,0.96961485354892007
-3.71510071942446e-05,0.97706882196277622
-3.7141007194244606e-05,0.96961485354892352
-3.7131007194244604e-05,0.96961485354892007
-3.7121007194244602e-05,0.97334183775584981
-3.7111007194244601e-05,0.96216088513506048
-3.7101007194244606e-05,0.99197675879048519
-3.7091007194244604e-05,0.95470691672120089
-3.7081007194244603e-05,0.95097993251427115
-3.7071007194244601e-05,0.96588786934199033
-3.70610071942446e-05,0.96961485354892685
-3.7051007194244605e-05,0.98452279037663915
-3.7041007194244603e-05,0.96216088513506048
-3.7031007194244602e-05,0.96961485354892007
-3.70210071942446e-05,0.96588786934199544
-3.7011007194244605e-05,0.97706882196277967
-3.7001007194244604e-05,0.98079580616970941
-3.6991007194244602e-05,0.98079580616970941
-3.69810071942446e-05,0.96216088513506559
-3.6971007194244606e-05,0.97334183775584471
-3.6961007194244604e-05,0.97706882196277967
-3.6951007194244602e-05,0.95843390092813074
-3.6941007194244601e-05,0.96961485354892007
-3.6931007194244606e-05,0.97334183775584815
-3.6921007194244604e-05,0.96216088513506048
-3.6911007194244603e-05,0.95470691672120089
-3.6901007194244601e-05,0.96961485354892007
-3.6891007194244606e-05,0.97334183775584815
-3.6881007194244605e-05,0.97334183775584981
-3.6871007194244603e-05,0.97706882196277967
-3.6861007194244602e-05,0.96588786934199033
-3.68510071942446e-05,0.977068821962778
-3.6841007194244605e-05,0.97334183775584981
-3.6831007194244604e-05,0.95843390092813074
-3.6821007194244602e-05,0.96216088513506048
-3.68110071942446e-05,0.97706882196277456
-3.6801007194244605e-05,0.96588786934199544
-3.6791007194244604e-05,0.97334183775584981
-3.6781007194244602e-05,0.97334183775584981
-3.6771007194244601e-05,0.96588786934199033
-3.6761007194244606e-05,0.97706882196277456
-3.6751007194244604e-05,0.94725294830734141
-3.6741007194244603e-05,0.95843390092813074
-3.6731007194244601e-05,0.95097993251427115
-3.6721007194244606e-05,0.98079580616969586
-3.6711007194244605e-05,0.96588786934199033
-3.6701007194244603e-05,0.95470691672120089
-3.6691007194244601e-05,0.95843390092813074
-3.66810071942446e-05,0.96216088513506559
-3.6671007194244605e-05,0.97334183775584981
-3.6661007194244603e-05,0.96961485354892007
-3.6651007194244602e-05,0.98452279037663915
-3.66410071942446e-05,0.97706882196277967
-3.6631007194244605e-05,0.97706882196277967
-3.6621007194244604e-05,0.95470691672120089
-3.6611007194244602e-05,0.98079580616970941
-3.6601007194244601e-05,0.97706882196277967
-3.6591007194244606e-05,0.97706882196277967
-3.6581007194244604e-05,0.97706882196277967
-3.6571007194244603e-05,0.96588786934199033
-3.6561007194244601e-05,0.96961485354892007
-3.6551007194244606e-05,0.97706882196277622
-3.6541007194244605e-05,0.96216088513506048
-3.6531007194244603e-05,0.96961485354892007
-3.6521007194244601e-05,0.96588786934199033
-3.65110071942446e-05,0.9584339009281273
-3.6501007194244605e-05,0.95097993251427115
-3.6491007194244603e-05,0.95470691672120089
-3.6481007194244602e-05,0.96961485354892007
-3.64710071942446e-05,0.95843390092812908
-3.6461007194244605e-05,0.95470691672120256
-3.6451007194244604e-05,0.95097993251427115
-3.6441007194244602e-05,0.96961485354892007
-3.6431007194244601e-05,0.96588786934200055
-3.6421007194244606e-05,0.98824977458355878
-3.6411007194244604e-05,0.96588786934199033
-3.6401007194244603e-05,0.96588786934199033
-3.6391007194244601e-05,0.96216088513506048
-3.6381007194244606e-05,0.96216088513506048
-3.6371007194244605e-05,0.95470691672120089
-3.6361007194244603e-05,0.96588786934199033
-3.6351007194244601e-05,0.98452279037663915
-3.63410071942446e-05,0.98452279037662727
-3.6331007194244605e-05,0.95843390092813074
-3.6321007194244603e-05,0.96216088513506048
-3.6311007194244602e-05,0.98079580616970941
-3.63010071942446e-05,0.95843390092813419
-3.6291007194244605e-05,0.96588786934198689
-3.6281007194244604e-05,0.96961485354892007
-3.6271007194244602e-05,0.95843390092813074
-3.62610071942446e-05,0.98452279037663071
-3.6251007194244606e-05,0.96588786934199877
-3.6241007194244604e-05,0.96961485354892007
-3.6231007194244602e-05,0.96216088513506048
-3.6221007194244601e-05,0.96961485354892007
-3.6211007194244606e-05,0.95843390092813585
-3.6201007194244604e-05,0.98079580616970941
