Power_measurements/Simeck_64_128_csv/simeck_active_c160_7.csv

#Digilent WaveForms Oscilloscope Acquisition
#Device Name: Discovery2
#Serial Number: SN:210321A1A9F5
#Date Time: 2018-06-28 16:05:38.443
#Sample rate: 1e+08Hz
#Samples: 8192
#Trigger: Source: Channel 1 Type: Edge Condition: Rising Level: 2 V Hyst.: Auto HoldOff: 0 s
#Channel 2: Range: 1 V/div Offset: 0 V

Time (s),Channel 2 (V)
-4.0692838709677422e-05,0.97706882196277967
-4.0682838709677421e-05,0.98079580616970941
-4.0672838709677419e-05,0.95843390092813419
-4.0662838709677424e-05,0.96588786934198689
-4.0652838709677423e-05,0.94725294830734141
-4.0642838709677421e-05,0.96216088513506048
-4.0632838709677419e-05,0.95097993251427115
-4.0622838709677425e-05,0.96961485354891164
-4.0612838709677423e-05,0.96216088513506048
-4.0602838709677421e-05,0.97334183775584981
-4.059283870967742e-05,0.96961485354892007
-4.0582838709677418e-05,0.96961485354891663
-4.0572838709677423e-05,0.96216088513506048
-4.0562838709677422e-05,0.96216088513506048
-4.055283870967742e-05,0.96588786934199033
-4.0542838709677419e-05,0.96588786934199033
-4.0532838709677424e-05,0.96588786934199033
-4.0522838709677422e-05,0.95470691672120089
-4.0512838709677421e-05,0.97334183775584981
-4.0502838709677419e-05,0.96216088513505704
-4.0492838709677424e-05,0.95470691672120434
-4.0482838709677423e-05,0.97706882196277967
-4.0472838709677421e-05,0.95843390092813074
-4.0462838709677419e-05,0.96961485354892007
-4.0452838709677424e-05,0.95843390092813585
-4.0442838709677423e-05,0.96588786934199033
-4.0432838709677421e-05,0.97334183775584981
-4.042283870967742e-05,0.97706882196277967
-4.0412838709677418e-05,0.96588786934199033
-4.0402838709677423e-05,0.96588786934199033
-4.0392838709677422e-05,0.94725294830734141
-4.038283870967742e-05,0.96216088513506048
-4.0372838709677418e-05,0.95843390092813419
-4.0362838709677424e-05,0.96588786934198689
-4.0352838709677422e-05,0.97706882196277967
-4.034283870967742e-05,0.96216088513506048
-4.0332838709677419e-05,0.965887869341992
-4.0322838709677424e-05,0.96961485354891841
-4.0312838709677422e-05,0.97706882196277967
-4.0302838709677421e-05,0.95843390092813074
-4.0292838709677419e-05,0.97334183775584981
-4.0282838709677424e-05,0.95843390092813752
-4.0272838709677423e-05,0.96216088513506048
-4.0262838709677421e-05,0.96216088513506048
-4.025283870967742e-05,0.96961485354892007
-4.0242838709677418e-05,0.954706916721206
-4.0232838709677423e-05,0.96588786934199033
-4.0222838709677422e-05,0.95843390092813074
-4.021283870967742e-05,0.95470691672120089
-4.0202838709677418e-05,0.97706882196277289
-4.0192838709677424e-05,0.96216088513506048
-4.0182838709677422e-05,0.95470691672120089
-4.017283870967742e-05,0.95097993251427115
-4.0162838709677419e-05,0.96216088513505371
-4.0152838709677424e-05,0.94725294830734819
-4.0142838709677422e-05,0.95470691672120089
-4.0132838709677421e-05,0.94725294830734141
-4.0122838709677419e-05,0.97334183775584981
-4.0112838709677424e-05,0.96588786934199378
-4.0102838709677423e-05,0.95097993251427115
-4.0092838709677421e-05,0.94725294830734141
-4.008283870967742e-05,0.96216088513506048
-4.0072838709677418e-05,0.96961485354891841
-4.0062838709677423e-05,0.96588786934199033
-4.0052838709677422e-05,0.97706882196277967
-4.004283870967742e-05,0.94725294830734141
-4.0032838709677418e-05,0.96588786934199378
-4.0022838709677424e-05,0.97334183775584981
-4.0012838709677422e-05,0.96588786934199033
-4.000283870967742e-05,0.95470691672120089
-3.9992838709677419e-05,0.95470691672120256
-3.9982838709677424e-05,0.95843390092812908
-3.9972838709677422e-05,0.95097993251427115
-3.9962838709677421e-05,0.96216088513506048
-3.9952838709677419e-05,0.95843390092813074
-3.9942838709677424e-05,0.96588786934198689
-3.9932838709677423e-05,0.97334183775584981
-3.9922838709677421e-05,0.96216088513506048
-3.9912838709677419e-05,0.95470691672120089
-3.9902838709677425e-05,0.97334183775584138
-3.9892838709677423e-05,0.94725294830734141
-3.9882838709677421e-05,0.97334183775584981
-3.987283870967742e-05,0.97706882196277967
-3.9862838709677418e-05,0.95843390092813918
-3.9852838709677423e-05,0.97706882196277967
-3.9842838709677422e-05,0.96216088513506048
-3.983283870967742e-05,0.96961485354892007
-3.9822838709677419e-05,0.96216088513505882
-3.9812838709677424e-05,0.95843390092813241
-3.9802838709677422e-05,0.96588786934199033
-3.9792838709677421e-05,0.97706882196277967
-3.9782838709677419e-05,0.96588786934198523
-3.9772838709677424e-05,0.954706916721206
-3.9762838709677423e-05,0.97334183775584981
-3.9752838709677421e-05,0.94725294830734141
-3.9742838709677419e-05,0.95470691672120089
-3.9732838709677425e-05,0.97334183775584138
-3.9722838709677423e-05,0.95470691672120089
-3.9712838709677421e-05,0.94725294830734141
-3.970283870967742e-05,0.96588786934199033
-3.9692838709677418e-05,0.96961485354891841
-3.9682838709677423e-05,0.96588786934199033
-3.9672838709677422e-05,0.97334183775584981
-3.966283870967742e-05,0.96588786934199033
-3.9652838709677419e-05,0.96961485354892685
-3.9642838709677424e-05,0.98452279037663237
-3.9632838709677422e-05,0.95843390092813074
-3.9622838709677421e-05,0.95843390092813074
-3.9612838709677419e-05,0.98452279037663404
-3.9602838709677424e-05,0.97334183775585492
-3.9592838709677423e-05,0.97706882196277967
-3.9582838709677421e-05,0.97334183775584981
-3.9572838709677419e-05,0.98452279037663915
-3.9562838709677425e-05,0.9472529483073584
-3.9552838709677423e-05,0.97334183775584981
-3.9542838709677421e-05,0.97334183775584981
-3.953283870967742e-05,0.95843390092813074
-3.9522838709677418e-05,0.96216088513506393
-3.9512838709677423e-05,0.96961485354892007
-3.9502838709677422e-05,0.96588786934199033
-3.949283870967742e-05,0.98079580616970941
-3.9482838709677419e-05,0.96961485354892352
-3.9472838709677424e-05,0.97706882196277622
-3.9462838709677422e-05,0.96216088513506048
-3.9452838709677421e-05,0.96588786934199033
-3.9442838709677419e-05,0.96216088513506215
-3.9432838709677424e-05,0.96588786934198867
-3.9422838709677422e-05,0.96961485354892007
-3.9412838709677421e-05,0.96216088513506048
-3.9402838709677419e-05,0.96588786934199033
-3.9392838709677424e-05,0.97706882196277456
-3.9382838709677423e-05,0.95470691672120089
-3.9372838709677421e-05,0.96588786934199033
-3.936283870967742e-05,0.96961485354892007
-3.9352838709677418e-05,0.97334183775584637
-3.9342838709677423e-05,0.96588786934199033
-3.9332838709677422e-05,0.96216088513506048
-3.932283870967742e-05,0.96588786934199033
-3.9312838709677418e-05,0.97706882196276779
-3.9302838709677424e-05,0.95097993251428303
-3.9292838709677422e-05,0.95843390092813074
-3.928283870967742e-05,0.96961485354892007
-3.9272838709677419e-05,0.95097993251428137
-3.9262838709677424e-05,0.9733418377558396
-3.9252838709677422e-05,0.97334183775584981
-3.9242838709677421e-05,0.96961485354892007
-3.9232838709677419e-05,0.96216088513506048
-3.9222838709677424e-05,0.96961485354891663
-3.9212838709677423e-05,0.97334183775584981
-3.9202838709677421e-05,0.96588786934199033
-3.919283870967742e-05,0.96961485354892007
-3.9182838709677418e-05,0.97706882196277967
-3.9172838709677423e-05,0.97706882196277967
-3.9162838709677422e-05,0.96216088513506048
-3.915283870967742e-05,0.96216088513506048
-3.9142838709677418e-05,0.96961485354891164
-3.9132838709677424e-05,0.95097993251427115
-3.9122838709677422e-05,0.95843390092813074
-3.911283870967742e-05,0.96216088513506048
-3.9102838709677419e-05,0.96216088513506048
-3.9092838709677424e-05,0.96216088513506048
-3.9082838709677422e-05,0.96216088513506048
-3.9072838709677421e-05,0.96961485354892007
-3.9062838709677419e-05,0.97706882196277967
-3.9052838709677424e-05,0.96216088513506726
-3.9042838709677423e-05,0.96961485354892007
-3.9032838709677421e-05,0.95470691672120089
-3.902283870967742e-05,0.98079580616970941
-3.9012838709677418e-05,0.96588786934199711
-3.9002838709677423e-05,0.98079580616970941
-3.8992838709677422e-05,0.95843390092813074
-3.898283870967742e-05,0.96588786934199033
-3.8972838709677418e-05,0.95470691672120434
-3.8962838709677424e-05,0.96216088513506048
-3.8952838709677422e-05,0.96216088513506048
-3.894283870967742e-05,0.97334183775584981
-3.8932838709677419e-05,0.97706882196276446
-3.8922838709677424e-05,0.94352596410042677
-3.8912838709677422e-05,0.95843390092813074
-3.8902838709677421e-05,0.96961485354892007
-3.8892838709677419e-05,0.99197675879049874
-3.8882838709677424e-05,0.95470691672121788
-3.8872838709677423e-05,0.99570374299742848
-3.8862838709677421e-05,0.98452279037663915
-3.8852838709677419e-05,0.97334183775584981
-3.8842838709677425e-05,0.95843390092813752
-3.8832838709677423e-05,0.97334183775584981
-3.8822838709677421e-05,0.95470691672120089
-3.881283870967742e-05,0.96216088513506048
-3.8802838709677418e-05,0.95470691672121277
-3.8792838709677423e-05,0.98079580616970941
-3.8782838709677422e-05,0.96961485354892007
-3.877283870967742e-05,0.97334183775584981
-3.8762838709677419e-05,0.96961485354892174
-3.8752838709677424e-05,0.97334183775584815
-3.8742838709677422e-05,0.95470691672120089
-3.8732838709677421e-05,0.96588786934199033
-3.8722838709677419e-05,0.977068821962778
-3.8712838709677424e-05,0.97334183775585148
-3.8702838709677423e-05,0.97334183775584981
-3.8692838709677421e-05,0.97706882196277967
-3.8682838709677419e-05,0.988249774583569
-3.8672838709677425e-05,0.97706882196278477
-3.8662838709677423e-05,0.97706882196277967
-3.8652838709677421e-05,0.97334183775584981
-3.864283870967742e-05,0.98452279037663915
-3.8632838709677418e-05,0.96961485354892685
-3.8622838709677423e-05,0.98452279037663915
-3.8612838709677422e-05,0.96961485354892007
-3.860283870967742e-05,0.98079580616970941
-3.8592838709677419e-05,0.97334183775584637
-3.8582838709677424e-05,0.96588786934199378
-3.8572838709677422e-05,0.95470691672120089
-3.8562838709677421e-05,0.97706882196277967
-3.8552838709677419e-05,0.95470691672120089
-3.8542838709677424e-05,0.95470691672120089
-3.8532838709677423e-05,0.96961485354892007
-3.8522838709677421e-05,0.95843390092813074
-3.8512838709677419e-05,0.98452279037663915
-3.8502838709677425e-05,0.97706882196278311
-3.8492838709677423e-05,0.96961485354892007
-3.8482838709677421e-05,0.95843390092813074
-3.847283870967742e-05,0.96216088513506048
-3.8462838709677418e-05,0.98824977458356555
-3.8452838709677423e-05,0.98079580616970941
-3.8442838709677422e-05,0.96961485354892007
-3.843283870967742e-05,0.98452279037663915
-3.8422838709677419e-05,0.97706882196277456
-3.8412838709677424e-05,0.96588786934199544
-3.8402838709677422e-05,0.97706882196277967
-3.839283870967742e-05,0.97334183775584981
-3.8382838709677419e-05,0.98079580616970941
-3.8372838709677424e-05,0.98079580616970941
-3.8362838709677422e-05,0.96961485354892007
-3.8352838709677421e-05,0.96961485354892007
-3.8342838709677419e-05,0.97706882196277967
-3.8332838709677424e-05,0.97706882196277967
-3.8322838709677423e-05,0.96961485354892007
-3.8312838709677421e-05,0.96961485354892007
-3.830283870967742e-05,0.95843390092813074
-3.8292838709677418e-05,0.98824977458356056
-3.8282838709677423e-05,0.96961485354892007
-3.8272838709677422e-05,0.98079580616970941
-3.826283870967742e-05,0.97334183775584981
-3.8252838709677418e-05,0.96588786934199544
-3.8242838709677424e-05,0.97706882196277456
-3.8232838709677422e-05,0.97334183775584981
-3.822283870967742e-05,0.98079580616970941
-3.8212838709677419e-05,0.97334183775584981
-3.8202838709677424e-05,0.97334183775584981
-3.8192838709677422e-05,0.96588786934199033
-3.8182838709677421e-05,0.98079580616970941
-3.8172838709677419e-05,0.98079580616970941
-3.8162838709677424e-05,0.97706882196278133
-3.8152838709677423e-05,0.97706882196277967
-3.8142838709677421e-05,0.97706882196277967
-3.813283870967742e-05,0.96588786934199033
-3.8122838709677418e-05,0.96961485354890986
-3.8112838709677423e-05,0.94725294830734141
-3.8102838709677422e-05,0.97706882196277967
-3.809283870967742e-05,0.97706882196277967
-3.8082838709677418e-05,0.965887869341992
-3.8072838709677424e-05,0.96961485354892007
-3.8062838709677422e-05,0.97334183775584981
-3.805283870967742e-05,0.96961485354892007
-3.8042838709677419e-05,0.98079580616970774
-3.8032838709677424e-05,0.97706882196278133
-3.8022838709677422e-05,0.98079580616970941
-3.8012838709677421e-05,0.95843390092813074
-3.8002838709677419e-05,0.98452279037663915
-3.7992838709677424e-05,0.96588786934199877
-3.7982838709677423e-05,0.98079580616970941
-3.7972838709677421e-05,0.96588786934199033
-3.796283870967742e-05,0.96961485354892007
-3.7952838709677425e-05,0.98824977458356056
-3.7942838709677423e-05,0.95843390092813074
-3.7932838709677422e-05,0.97706882196277967
-3.792283870967742e-05,0.96961485354892007
-3.7912838709677418e-05,0.98079580616970774
-3.7902838709677423e-05,0.97706882196277967
-3.7892838709677422e-05,0.98452279037663915
-3.788283870967742e-05,0.95843390092813074
-3.7872838709677419e-05,0.98079580616970941
-3.7862838709677424e-05,0.98079580616970941
-3.7852838709677422e-05,0.97334183775584981
-3.7842838709677421e-05,0.97706882196277967
-3.7832838709677419e-05,0.96588786934199033
-3.7822838709677424e-05,0.97706882196277456
-3.7812838709677423e-05,0.97334183775584981
-3.7802838709677421e-05,0.97706882196277967
-3.7792838709677419e-05,0.97706882196277967
-3.7782838709677425e-05,0.98079580616970774
-3.7772838709677423e-05,0.99197675879049874
-3.7762838709677421e-05,0.97334183775584981
-3.775283870967742e-05,0.97334183775584981
-3.7742838709677418e-05,0.98452279037663915
-3.7732838709677423e-05,0.98452279037663915
-3.7722838709677422e-05,0.98079580616970941
-3.771283870967742e-05,0.96961485354892007
-3.7702838709677419e-05,0.96588786934199544
-3.7692838709677424e-05,0.97706882196277456
-3.7682838709677422e-05,0.97706882196277967
-3.7672838709677421e-05,0.98079580616970941
-3.7662838709677419e-05,0.977068821962778
-3.7652838709677424e-05,0.97334183775585148
-3.7642838709677423e-05,0.97706882196277967
-3.7632838709677421e-05,0.96588786934199033
-3.7622838709677419e-05,0.95843390092813074
-3.7612838709677425e-05,0.96961485354891497
-3.7602838709677423e-05,0.96961485354892007
-3.7592838709677421e-05,0.96961485354892007
-3.758283870967742e-05,0.98079580616970941
-3.7572838709677418e-05,0.98824977458356733
-3.7562838709677423e-05,0.98452279037663915
-3.7552838709677422e-05,0.97334183775584981
-3.754283870967742e-05,0.98452279037663915
-3.7532838709677419e-05,0.98079580616970774
-3.7522838709677424e-05,0.97706882196278133
-3.7512838709677422e-05,0.96588786934199033
-3.7502838709677421e-05,0.97706882196277967
-3.7492838709677419e-05,0.97334183775585326
-3.7482838709677424e-05,0.98079580616970596
-3.7472838709677423e-05,0.97706882196277967
-3.7462838709677421e-05,0.98452279037663915
-3.7452838709677419e-05,0.97706882196277967
-3.7442838709677425e-05,0.96216088513506726
-3.7432838709677423e-05,0.97706882196277967
-3.7422838709677421e-05,0.97334183775584981
-3.741283870967742e-05,0.98452279037663915
-3.7402838709677418e-05,0.98824977458356056
-3.7392838709677423e-05,0.96961485354892007
-3.7382838709677422e-05,0.97706882196277967
-3.737283870967742e-05,0.96216088513506048
-3.7362838709677418e-05,0.96961485354892174
-3.7352838709677424e-05,0.97334183775584815
-3.7342838709677422e-05,0.96588786934199033
-3.733283870967742e-05,0.96216088513506048
-3.7322838709677419e-05,0.98079580616970263
-3.7312838709677424e-05,0.96588786934199711
-3.7302838709677422e-05,0.96961485354892007
-3.7292838709677421e-05,0.95843390092813074
-3.7282838709677419e-05,0.98079580616970941
-3.7272838709677424e-05,0.97334183775585326
-3.7262838709677423e-05,0.96961485354892007
-3.7252838709677421e-05,0.97706882196277967
-3.724283870967742e-05,0.96961485354892007
-3.7232838709677418e-05,0.97706882196277622
-3.7222838709677423e-05,0.96961485354892007
-3.7212838709677422e-05,0.96961485354892007
-3.720283870967742e-05,0.98452279037663915
-3.7192838709677418e-05,0.96961485354891841
-3.7182838709677424e-05,0.965887869341992
-3.7172838709677422e-05,0.96588786934199033
-3.716283870967742e-05,0.98452279037663915
-3.7152838709677419e-05,0.98079580616970596
-3.7142838709677424e-05,0.97334183775585326
-3.7132838709677422e-05,0.97334183775584981
-3.7122838709677421e-05,0.97334183775584981
-3.7112838709677419e-05,0.97334183775584981
-3.7102838709677424e-05,0.98079580616970596
-3.7092838709677423e-05,0.97706882196277967
-3.7082838709677421e-05,0.98452279037663915
-3.707283870967742e-05,0.97334183775584981
-3.7062838709677418e-05,0.95843390092813752
-3.7052838709677423e-05,0.97334183775584981
-3.7042838709677422e-05,0.95843390092813074
-3.703283870967742e-05,0.96216088513506048
-3.7022838709677418e-05,0.97334183775584637
-3.7012838709677424e-05,0.96588786934199033
-3.7002838709677422e-05,0.96216088513506048
-3.699283870967742e-05,0.96588786934199033
-3.6982838709677419e-05,0.97706882196278133
-3.6972838709677424e-05,0.98079580616970774
-3.6962838709677422e-05,0.99570374299742848
-3.6952838709677421e-05,0.97334183775584981
-3.6942838709677419e-05,0.96216088513506048
-3.6932838709677424e-05,0.95470691672120434
-3.6922838709677423e-05,0.97334183775584981
-3.6912838709677421e-05,0.95470691672120089
-3.690283870967742e-05,0.97706882196277967
-3.6892838709677425e-05,0.96588786934199544
-3.6882838709677423e-05,0.98452279037663915
-3.6872838709677421e-05,0.96961485354892007
-3.686283870967742e-05,0.96961485354892007
-3.6852838709677418e-05,0.98079580616970596
-3.6842838709677423e-05,0.97334183775584981
-3.6832838709677422e-05,0.96961485354892007
-3.682283870967742e-05,0.97334183775584981
-3.6812838709677419e-05,0.95843390092813241
-3.6802838709677424e-05,0.96216088513505882
-3.6792838709677422e-05,0.95843390092813074
-3.6782838709677421e-05,0.97334183775584981
-3.6772838709677419e-05,0.97706882196277967
-3.6762838709677424e-05,0.97706882196277967
-3.6752838709677423e-05,0.97334183775584981
-3.6742838709677421e-05,0.96961485354892007
-3.6732838709677419e-05,0.96961485354892007
-3.6722838709677425e-05,0.9807958061697043
-3.6712838709677423e-05,0.98079580616970941
-3.6702838709677421e-05,0.97706882196277967
-3.669283870967742e-05,0.97334183775584981
-3.6682838709677418e-05,0.96588786934198867
-3.6672838709677423e-05,0.96216088513506048
-3.6662838709677422e-05,0.96961485354892007
-3.665283870967742e-05,0.98079580616970941
-3.6642838709677419e-05,0.95843390092813419
-3.6632838709677424e-05,0.96588786934198689
-3.6622838709677422e-05,0.95843390092813074
-3.6612838709677421e-05,0.98452279037663915
-3.6602838709677419e-05,0.96588786934199877
-3.6592838709677424e-05,0.98452279037663071
-3.6582838709677423e-05,0.97334183775584981
-3.6572838709677421e-05,0.96961485354892007
-3.6562838709677419e-05,0.96588786934199033
-3.6552838709677425e-05,0.96588786934199033
-3.6542838709677423e-05,0.98452279037663915
-3.6532838709677421e-05,0.97334183775584981
-3.652283870967742e-05,0.96588786934199033
-3.6512838709677418e-05,0.96588786934199378
-3.6502838709677423e-05,0.97334183775584981
-3.6492838709677422e-05,0.95097993251427115
-3.648283870967742e-05,0.96961485354892007
-3.6472838709677419e-05,0.96588786934199378
-3.6462838709677424e-05,0.97334183775584637
-3.6452838709677422e-05,0.97334183775584981
-3.6442838709677421e-05,0.95843390092813074
-3.6432838709677419e-05,0.9696148535489133
-3.6422838709677424e-05,0.95470691672120767
-3.6412838709677423e-05,0.96216088513506048
-3.6402838709677421e-05,0.95843390092813074
-3.6392838709677419e-05,0.95843390092813074
-3.6382838709677424e-05,0.95843390092813074
-3.6372838709677423e-05,0.98079580616970941
-3.6362838709677421e-05,0.97706882196277967
-3.635283870967742e-05,0.96961485354892007
-3.6342838709677418e-05,0.98079580616972128
-3.6332838709677423e-05,1.0068846956182178
-3.6322838709677422e-05,0.96588786934199033
-3.631283870967742e-05,0.98452279037663915
-3.6302838709677418e-05,0.96961485354892685
-3.6292838709677424e-05,0.98452279037663237
-3.6282838709677422e-05,0.96588786934199033
-3.627283870967742e-05,0.96216088513506048
-3.6262838709677419e-05,0.97334183775584981
-3.6252838709677424e-05,0.97334183775584981
-3.6242838709677422e-05,0.98452279037663915
-3.6232838709677421e-05,0.96961485354892007
-3.6222838709677419e-05,0.95470691672120089
