Power_measurements/Simeck_64_128_csv/simeck_active_l3_4.csv

#Digilent WaveForms Oscilloscope Acquisition
#Device Name: Discovery2
#Serial Number: SN:210321A1A9F5
#Date Time: 2018-06-28 16:26:04.298
#Sample rate: 1e+08Hz
#Samples: 8192
#Trigger: Source: Channel 1 Type: Edge Condition: Rising Level: 2 V Hyst.: Auto HoldOff: 0 s
#Channel 2: Range: 1 V/div Offset: 0 V

Time (s),Channel 2 (V)
-4.0693238636363638e-05,-1.0317756655723727
-4.0683238636363637e-05,-1.0541375708139513
-4.0673238636363635e-05,-1.0131407445377354
-4.066323863636364e-05,-1.0392296339862204
-4.0653238636363639e-05,-1.0280486813654428
-4.0643238636363637e-05,-1.042956618193162
-4.0633238636363635e-05,-1.024321697158513
-4.0623238636363641e-05,-1.0168677287446568
-4.0613238636363639e-05,-1.0355026497793023
-4.0603238636363637e-05,-0.50627089239527345
-4.0593238636363636e-05,6.4147387798733311
-4.0583238636363634e-05,2.1697037681818419
-4.0573238636363639e-05,5.5388974912448328
-4.0563238636363638e-05,2.2516974207327651
-4.0553238636363636e-05,5.1289292284825567
-4.0543238636363635e-05,2.848014893842238
-4.053323863636364e-05,4.4058942923374698
-4.0523238636363638e-05,3.6679514193660818
-4.0513238636363637e-05,3.6008657036413458
-4.0503238636363635e-05,4.4357101659929254
-4.049323863636364e-05,2.9151006095669572
-4.0483238636363639e-05,4.9239450971014183
-4.0473238636363637e-05,2.5535831414940775
-4.0463238636363635e-05,5.0916593864132587
-4.0453238636363641e-05,2.5498561572883029
-4.0443238636363639e-05,4.9388530339291377
-4.0433238636363637e-05,2.8591958464623195
-4.0423238636363636e-05,4.4841609606837043
-4.0413238636363634e-05,3.4219704617089421
-4.0403238636363639e-05,3.9176593612303776
-4.0393238636363638e-05,3.9921990453689729
-4.0383238636363636e-05,3.3735196670186287
-4.0373238636363635e-05,4.4319831817860349
-4.036323863636364e-05,2.9970942621193739
-4.0353238636363638e-05,4.6630562026163336
-4.0343238636363637e-05,2.874103783290038
-4.0333238636363635e-05,4.6295133447532217
-4.032323863636364e-05,2.9933672779125358
-4.0313238636363639e-05,4.3984403239243193
-4.0303238636363637e-05,3.2877990302592446
-4.0293238636363635e-05,4.0555577768867792
-4.0283238636363641e-05,3.6940403088147544
-4.0273238636363639e-05,3.6344085615037143
-4.0263238636363637e-05,4.0630117453006394
-4.0253238636363636e-05,3.3064339512938927
-4.0243238636363634e-05,4.2829038135089794
-4.0233238636363639e-05,3.1461736303959125
-4.0223238636363638e-05,4.3686244502688814
-4.0213238636363636e-05,3.1349926777751227
-4.0203238636363635e-05,4.2866307977159703
-4.019323863636364e-05,3.2840720460523141
-4.0183238636363638e-05,4.0518307926798496
-4.0173238636363636e-05,-0.17456929797852286
-4.0163238636363635e-05,-1.7026328228192977
-4.015323863636364e-05,-0.74479788163921501
-4.0143238636363638e-05,-0.71498200798334122
-4.0133238636363637e-05,-1.8405312384761352
-4.0123238636363635e-05,0.20185610692138506
-4.011323863636364e-05,-2.4964804588945495
-4.0103238636363639e-05,0.61555135389059079
-4.0093238636363637e-05,-2.6567407797937577
-4.0083238636363636e-05,0.55219262237278455
-4.0073238636363634e-05,-2.4070328379283095
-4.0063238636363639e-05,0.12731642278278943
-4.0053238636363638e-05,-1.8330772700622757
-4.0043238636363636e-05,-0.59199152915465836
-4.0033238636363634e-05,-1.0951343970902907
-4.002323863636364e-05,-1.3411153547475445
-4.0013238636363638e-05,-0.41682327142895864
-4.0003238636363636e-05,-1.8703471121315733
-3.9993238636363635e-05,-0.014308977081506616
-3.998323863636364e-05,-2.1349629908226238
-3.9973238636363638e-05,0.090046580713491628
-3.9963238636363637e-05,-2.1051471171681495
-3.9953238636363635e-05,-0.059032787563699632
-3.994323863636364e-05,-1.8181693332337565
-3.9933238636363639e-05,-0.46900105032597561
-3.9923238636363637e-05,-1.3597502757821933
-3.9913238636363636e-05,-0.98332487088228548
-3.9903238636363641e-05,-0.83797248681209002
-3.9893238636363639e-05,-1.4603788493692975
-3.9883238636363638e-05,-0.4429121608774671
-3.9873238636363636e-05,-1.7436296490959609
-3.9863238636363634e-05,-0.27147088735940561
-3.985323863636364e-05,-1.8293502858553459
-3.9843238636363638e-05,-0.27892485577255677
-3.9833238636363636e-05,-1.6989058386128035
-3.9823238636363635e-05,-0.48763597136104825
-3.981323863636364e-05,-1.4193820230926462
-3.9803238636363638e-05,-0.81188359736351545
-3.9793238636363637e-05,-1.0727724918486001
-3.9783238636363635e-05,-1.1845820180563056
-3.977323863636364e-05,-0.77088677108747605
-3.9763238636363639e-05,-1.4268359915069295
-3.9753238636363637e-05,-0.55099470287843078
-3.9743238636363636e-05,-1.5610074229564015
-3.9733238636363641e-05,-0.49136295556804077
-3.9723238636363639e-05,-1.5460994861286825
-3.9713238636363638e-05,-0.57335660812000944
-3.9703238636363636e-05,-1.4119280546792103
-3.9693238636363634e-05,-0.78579470791518669
-3.9683238636363639e-05,-1.1808550338495638
-3.9673238636363638e-05,-1.009413760330794
-3.9663238636363636e-05,-0.94605502881298764
-3.9653238636363635e-05,-1.2330328127463741
-3.964323863636364e-05,-0.77834073950135418
-3.9633238636363638e-05,-1.367204244196053
-3.9623238636363637e-05,-0.65535026067246471
-3.9613238636363635e-05,-1.4119280546788782
-3.960323863636364e-05,-0.68143915012130529
-3.9593238636363639e-05,-1.367204244196053
-3.9583238636363637e-05,-0.80442962894965597
-3.9573238636363635e-05,-1.2069439232980723
-3.9563238636363641e-05,-0.94978201302003429
-3.9553238636363639e-05,-1.0205947129515833
-3.9543238636363637e-05,-1.1025883655040385
-3.9533238636363636e-05,-0.90505820253676006
-3.9523238636363634e-05,-1.221851860125605
-3.9513238636363639e-05,-0.81188359736351545
-3.9503238636363638e-05,-1.2889375758505275
-3.9493238636363636e-05,-0.78579470791500705
-3.9483238636363635e-05,-1.2665756706087523
-3.947323863636364e-05,-0.83424550260529085
-3.9463238636363638e-05,-1.2032169390911425
-3.9453238636363637e-05,-0.92369312357140898
-3.9443238636363635e-05,-1.0951343970901433
-3.943323863636364e-05,-1.016867728744689
-3.9423238636363639e-05,-0.98332487088228548
-3.9413238636363637e-05,-1.1212232865386873
-3.9403238636363635e-05,-0.9087851867436898
-3.9393238636363641e-05,-1.1883090022632965
-3.9383238636363639e-05,-0.87524232888132181
-3.9373238636363637e-05,-1.1994899548842128
-3.9363238636363636e-05,-0.86778836046746222
-3.9353238636363634e-05,-1.1808550338494588
-3.9343238636363639e-05,-0.94978201301991738
-3.9333238636363638e-05,-1.1137693181248278
-3.9323238636363636e-05,-1.009413760330794
-3.9313238636363635e-05,-1.0317756655723931
-3.930323863636364e-05,-1.0764994760555096
-3.9293238636363638e-05,-0.99077883929614496
-3.9283238636363637e-05,-1.1324042391594766
-3.9273238636363635e-05,-0.93487407619230001
-3.926323863636364e-05,-1.1584931286078834
-3.9253238636363639e-05,-0.94232804460605779
-3.9243238636363637e-05,-1.1510391601941257
-3.9233238636363635e-05,-0.9684169340545663
-3.922323863636364e-05,-1.11749630233169
-3.9213238636363639e-05,-0.98705185508921522
-3.9203238636363637e-05,-1.07649947605553
-3.9193238636363636e-05,-1.0280486813654428
-3.9183238636363634e-05,-1.0019597919169632
-3.9173238636363639e-05,-1.0653185234347406
-3.9163238636363638e-05,-0.98705185508921522
-3.9153238636363636e-05,-1.1174963023317577
-3.9143238636363634e-05,-0.9795978866754167
-3.913323863636364e-05,-1.1137693181248278
-3.9123238636363638e-05,-0.96096296564070671
-3.9113238636363636e-05,-1.1025883655040385
-3.9103238636363635e-05,-0.99077883929617716
-3.909323863636364e-05,-1.0615915392277786
-3.9083238636363638e-05,-1.024321697158513
-3.9073238636363637e-05,-1.0504105866070215
-3.9063238636363635e-05,-1.0653185234347406
-3.905323863636364e-05,-1.0019597919169632
-3.9043238636363639e-05,-1.0615915392278108
-3.9033238636363637e-05,-0.98332487088228548
-3.9023238636363636e-05,-1.0914074128832492
-3.9013238636363634e-05,-0.9721439182615419
-3.9003238636363639e-05,-1.0727724918486001
-3.8993238636363638e-05,-0.98705185508921522
-3.8983238636363636e-05,-1.0727724918486001
-3.8973238636363634e-05,-1.0019597919169563
-3.896323863636364e-05,-1.0504105866070215
-3.8953238636363638e-05,-1.0355026497793023
-3.8943238636363636e-05,-1.009413760330794
-3.8933238636363635e-05,-1.0690455076416383
-3.892323863636364e-05,-0.99823280771003675
-3.8913238636363638e-05,-1.0541375708139513
-3.8903238636363637e-05,-0.98332487088228548
-3.8893238636363635e-05,-1.0727724918486001
-3.888323863636364e-05,-1.0094137603308229
-3.8873238636363639e-05,-1.0541375708139513
-3.8863238636363637e-05,-1.0019597919169343
-3.8853238636363636e-05,-1.0504105866070215
-3.8843238636363641e-05,-1.0205947129515969
-3.8833238636363639e-05,-1.0392296339862321
-3.8823238636363638e-05,-1.0317756655723727
-3.8813238636363636e-05,-1.0056867761238641
-3.8803238636363634e-05,-1.046683602400073
-3.879323863636364e-05,-1.0056867761238641
-3.8783238636363638e-05,-1.0615915392278108
-3.8773238636363636e-05,-1.009413760330794
-3.8763238636363635e-05,-1.0504105866070097
-3.875323863636364e-05,-1.0243216971585247
-3.8743238636363638e-05,-1.0392296339862321
-3.8733238636363637e-05,-1.009413760330794
-3.8723238636363635e-05,-1.0355026497792972
-3.871323863636364e-05,-1.0243216971585181
-3.8703238636363639e-05,-1.0056867761238641
-3.8693238636363637e-05,-1.042956618193162
-3.8683238636363636e-05,-1.0131407445377236
-3.8673238636363641e-05,-1.0466836024000763
-3.8663238636363639e-05,-0.99823280771000455
-3.8653238636363637e-05,-1.0317756655723727
-3.8643238636363636e-05,-1.0168677287446535
-3.8633238636363634e-05,-1.0541375708139293
-3.8623238636363639e-05,-1.0056867761238641
-3.8613238636363638e-05,-1.0392296339862321
-3.8603238636363636e-05,-1.0317756655723727
-3.8593238636363635e-05,-1.0168677287446721
-3.858323863636364e-05,-1.0578645550208625
-3.8573238636363638e-05,-0.13357247170229525
-3.8563238636363637e-05,6.5414562429089438
-3.8553238636363635e-05,2.0877101156293731
-3.854323863636364e-05,5.4270879650354198
-3.8533238636363639e-05,2.4902244099762711
-3.8523238636363637e-05,4.7525038235826482
-3.8513238636363635e-05,3.3064339512938927
-3.8503238636363641e-05,3.9251133296439553
-3.8493238636363639e-05,4.1002815873699365
-3.8483238636363637e-05,3.1685355356374911
-3.8473238636363636e-05,4.7711387446172973
-3.8463238636363634e-05,2.6542117150822842
-3.8453238636363639e-05,5.0804784337924689
-3.8443238636363638e-05,2.4678625047346925
-3.8433238636363636e-05,5.06929748117168
-3.8423238636363635e-05,2.6318498098405652
-3.841323863636364e-05,4.7487768393747558
-3.8403238636363638e-05,3.0977228357058255
-3.8393238636363637e-05,4.2232720661986196
-3.8383238636363635e-05,3.7275831666769026
-3.837323863636364e-05,3.6045926878483314
-3.8363238636363639e-05,4.2530879398540575
-3.8353238636363637e-05,3.1312656935681931
-3.8343238636363635e-05,4.5996974710985272
-3.8333238636363641e-05,2.8591958464631109
-3.8323238636363639e-05,4.6854181078579122
-3.8313238636363637e-05,2.8778307674969685
-3.8303238636363636e-05,4.5698815974430893
-3.8293238636363634e-05,3.1312656935687033
-3.8283238636363639e-05,4.2530879398540575
-3.8273238636363638e-05,3.5076910984681016
-3.8263238636363636e-05,3.8617545981264305
-3.8253238636363635e-05,3.9102053928163003
-3.824323863636364e-05,3.4331514143297222
-3.8233238636363638e-05,4.2232720661986196
-3.8223238636363637e-05,3.2020783934998596
-3.8213238636363635e-05,4.372351434475231
-3.820323863636364e-05,3.0977228357064051
-3.8193238636363639e-05,4.372351434475811
-3.8183238636363637e-05,3.1946244250859994
-3.8173238636363635e-05,4.21954508199169
-3.816323863636364e-05,3.4182434775021511
-3.8153238636363639e-05,3.895297455988799
-3.8143238636363637e-05,-0.66653121329325404
-3.8133238636363636e-05,-1.1808550338495638
-3.8123238636363634e-05,-1.247940749573861
-3.8113238636363639e-05,-0.28265183997948651
-3.8103238636363638e-05,-2.1759598170998151
-3.8093238636363636e-05,0.47392595402725912
-3.8083238636363634e-05,-2.6567407797922322
-3.807323863636364e-05,0.69754500644304596
-3.8063238636363638e-05,-2.6641947482076169
-3.8053238636363636e-05,0.46274500140646979
-3.8043238636363635e-05,-2.2132296591681744
-3.803323863636364e-05,-0.14848040853095323
-3.8023238636363638e-05,-1.5051026598524548
-3.8013238636363637e-05,-0.93860106039912805
-3.8003238636363635e-05,-0.74852486584570921
-3.799323863636364e-05,-1.6280931386807378
-3.7983238636363639e-05,-0.1633883453577335
-3.7973238636363637e-05,-2.0566963224780626
-3.7963238636363636e-05,0.11240848595507032
-3.7953238636363641e-05,-2.1945947381334152
-3.7943238636363639e-05,0.10122753333428097
-3.7933238636363638e-05,-2.0380614014434135
-3.7923238636363636e-05,-0.17829628218545263
-3.7913238636363634e-05,-1.620639170266839
-3.790323863636364e-05,-0.65535026067246471
-3.7893238636363638e-05,-1.1063153497109683
-3.7883238636363636e-05,-1.2032169390911425
-3.7873238636363635e-05,-0.62553438701747732
-3.786323863636364e-05,-1.6169121860598974
-3.7853238636363638e-05,-0.30501374522106522
-3.7843238636363637e-05,-1.8218963174414864
-3.7833238636363635e-05,-0.21929310846168024
-3.782323863636364e-05,-1.8144423490269013
-3.7813238636363639e-05,-0.31246771363492476
-3.7803238636363637e-05,-1.5833693281979804
-3.7793238636363636e-05,-0.58826454494772862
-3.7783238636363641e-05,-1.2665756706086404
-3.7773238636363639e-05,-0.97214391826149615
-3.7763238636363638e-05,-0.89760423412290047
-3.7753238636363636e-05,-1.3112994810921061
-3.7743238636363634e-05,-0.62553438701743835
-3.773323863636364e-05,-1.5311915493009634
-3.7723238636363638e-05,-0.47272803453290535
-3.7713238636363636e-05,-1.5945502808187697
-3.7703238636363635e-05,-0.49136295556802034
-3.769323863636364e-05,-1.5162836124727781
-3.7683238636363638e-05,-0.63671533963781579
-3.7673238636363637e-05,-1.3112994810921061
-3.7663238636363635e-05,-0.85660740784676948
-3.765323863636364e-05,-1.0690455076415739
-3.7643238636363639e-05,-1.1212232865386873
-3.7633238636363637e-05,-0.8491534394328133
-3.7623238636363635e-05,-1.3112994810921061
-3.7613238636363641e-05,-0.71870899219054041
-3.7603238636363639e-05,-1.4380169441277189
-3.7593238636363637e-05,-0.66280422908632419
-3.7583238636363636e-05,-1.4119280546792103
-3.7573238636363634e-05,-0.71870899219054218
-3.7563238636363639e-05,-1.315026465299036
-3.7553238636363638e-05,-0.83797248681202396
-3.7543238636363636e-05,-1.1324042391594766
-3.7533238636363635e-05,-1.0243216971584892
-3.752323863636364e-05,-0.97214391826151991
-3.7513238636363638e-05,-1.162220112814915
-3.7503238636363637e-05,-0.85660740784667289
-3.7493238636363635e-05,-1.281483607436446
-3.748323863636364e-05,-0.79324867632908869
-3.7473238636363639e-05,-1.3224804337128955
-3.7463238636363637e-05,-0.79697566053579638
-3.7453238636363635e-05,-1.2442137653673702
-3.7443238636363641e-05,-0.83424550260528063
-3.7433238636363639e-05,-1.162220112814915
-3.7423238636363637e-05,-0.9684169340545663
-3.7413238636363636e-05,-1.0466836024000916
-3.7403238636363634e-05,-1.0764994760554707
-3.7393238636363639e-05,-0.94605502881298764
-3.7383238636363638e-05,-1.1659470970218446
-3.7373238636363636e-05,-0.88642328150211114
-3.7363238636363635e-05,-1.206943923297908
-3.735323863636364e-05,-0.84542645522604798
-3.7343238636363638e-05,-1.195762970677283
-3.7333238636363637e-05,-0.88642328150211114
-3.7323238636363635e-05,-1.1622201128148166
-3.731323863636364e-05,-0.94605502881308601
-3.7303238636363639e-05,-1.0876804286763193
-3.7293238636363637e-05,-1.0392296339862321
-3.7283238636363635e-05,-1.024321697158513
-3.7273238636363641e-05,-1.0839534444693624
-3.7263238636363639e-05,-0.95723598143377697
-3.7253238636363637e-05,-1.1510391601941257
-3.7243238636363636e-05,-0.93487407619219831
-3.7233238636363634e-05,-1.1883090022632981
-3.7223238636363639e-05,-0.91251217095061965
-3.7213238636363638e-05,-1.1473121759871958
-3.7203238636363636e-05,-0.94605502881298764
-3.7193238636363635e-05,-1.0839534444693539
-3.718323863636364e-05,-1.0056867761238997
-3.7173238636363638e-05,-1.0504105866070215
-3.7163238636363637e-05,-1.0504105866070215
-3.7153238636363635e-05,-1.0019597919169749
-3.714323863636364e-05,-1.0914074128832085
-3.7133238636363638e-05,-0.96096296564070671
-3.7123238636363637e-05,-1.1174963023317577
-3.7113238636363635e-05,-0.94978201301991738
-3.710323863636364e-05,-1.1063153497108971
-3.7093238636363639e-05,-0.9684169340545663
-3.7083238636363637e-05,-1.0839534444693895
-3.7073238636363636e-05,-1.0056867761238641
-3.7063238636363634e-05,-1.0541375708139444
-3.7053238636363639e-05,-1.0392296339862321
-3.7043238636363638e-05,-1.009413760330794
-3.7033238636363636e-05,-1.0727724918486001
-3.7023238636363634e-05,-1.005686776123893
-3.701323863636364e-05,-1.0690455076416705
-3.7003238636363638e-05,-0.97214391826149615
-3.6993238636363636e-05,-1.0951343970901788
-3.6983238636363635e-05,-0.96841693405461038
-3.697323863636364e-05,-1.0653185234346967
-3.6963238636363638e-05,-1.009413760330794
-3.6953238636363637e-05,-1.0578645550208812
-3.6943238636363635e-05,-1.0168677287446535
-3.693323863636364e-05,-1.0466836024000781
-3.6923238636363639e-05,-1.0466836024000916
-3.6913238636363637e-05,-1.0168677287446535
-3.6903238636363636e-05,-1.0541375708139513
-3.6893238636363641e-05,-1.0056867761238861
-3.6883238636363639e-05,-1.07649947605553
-3.6873238636363638e-05,-0.97959788667535563
-3.6863238636363636e-05,-1.0690455076416705
-3.6853238636363634e-05,-1.0094137603308178
-3.684323863636364e-05,-1.0615915392278108
-3.6833238636363638e-05,-0.99823280771000455
-3.6823238636363636e-05,-1.0355026497793023
-3.6813238636363635e-05,-1.0131407445377218
-3.680323863636364e-05,-1.0094137603307958
-3.6793238636363638e-05,-1.0466836024000916
-3.6783238636363637e-05,-1.009413760330794
-3.6773238636363635e-05,-1.0392296339862321
-3.676323863636364e-05,-0.99077883929616695
-3.6753238636363639e-05,-1.0690455076416705
-3.6743238636363637e-05,-1.0019597919169343
-3.6733238636363636e-05,-1.0392296339862321
-3.6723238636363641e-05,-1.0094137603308075
-3.6713238636363639e-05,-1.042956618193162
-3.6703238636363638e-05,-1.0317756655723727
-3.6693238636363636e-05,-1.0168677287446535
-3.6683238636363634e-05,-1.0504105866070061
-3.667323863636364e-05,-1.0168677287446535
-3.6663238636363638e-05,-1.0317756655723727
-3.6653238636363636e-05,-1.009413760330794
-3.6643238636363635e-05,-1.0429566181931416
-3.663323863636364e-05,-0.99823280771002487
-3.6623238636363638e-05,-1.0317756655723727
-3.6613238636363637e-05,-1.0056867761238641
-3.6603238636363635e-05,-1.0429566181931484
-3.659323863636364e-05,-1.0131407445377372
-3.6583238636363639e-05,-1.0392296339862321
-3.6573238636363637e-05,-1.0280486813654428
-3.6563238636363635e-05,-1.0168677287446535
-3.6553238636363641e-05,-1.0578645550208625
-3.6543238636363639e-05,0.81308151685786922
-3.6533238636363637e-05,6.4072848114594718
-3.6523238636363636e-05,2.3560529785267992
-3.6513238636363634e-05,4.9202181128937399
-3.6503238636363639e-05,3.2728910934315252
-3.6493238636363638e-05,3.9325672980580961
-3.6483238636363636e-05,4.2046371451639706
-3.6473238636363635e-05,3.0939958514996992
-3.646323863636364e-05,4.8605863655828081
-3.6453238636363638e-05,2.587125999356445
-3.6443238636363637e-05,5.1624720863449243
-3.6433238636363635e-05,2.4305926626666299
-3.642323863636364e-05,5.1475641495159703
-3.6413238636363639e-05,2.5945799677703052
-3.6403238636363637e-05,4.8158625551004546
-3.6393238636363635e-05,3.0902688672919654
-3.6383238636363641e-05,4.2269990504050323
-3.6373238636363639e-05,3.7089482456423095
-3.6363238636363637e-05,3.6157736404690652
-3.6353238636363636e-05,4.3089927029580046
-3.6343238636363634e-05,3.1089037883273143
-3.6333238636363639e-05,4.6481482657886142
-3.6323238636363638e-05,2.8442879096346001
-3.6313238636363636e-05,4.7674117604103676
-3.6303238636363635e-05,2.8442879096354083
-3.629323863636364e-05,4.6220593763392976
-3.6283238636363638e-05,3.0828148988781061
-3.6273238636363637e-05,4.2717228608887066
-3.6263238636363635e-05,3.4816022090197585
-3.625323863636364e-05,3.846846661298545
-3.6243238636363639e-05,3.9400212664719563
-3.6233238636363637e-05,3.4517863353641545
-3.6223238636363635e-05,4.2493609556471279
-3.6213238636363641e-05,3.1797164882587676
-3.6203238636363639e-05,4.4021673081312489
