Power_measurements/Simeck_64_128_csv/simeck_active_c160_5.csv

#Digilent WaveForms Oscilloscope Acquisition
#Device Name: Discovery2
#Serial Number: SN:210321A1A9F5
#Date Time: 2018-06-28 16:05:28.444
#Sample rate: 1e+08Hz
#Samples: 8192
#Trigger: Source: Channel 1 Type: Edge Condition: Rising Level: 2 V Hyst.: Auto HoldOff: 0 s
#Channel 2: Range: 1 V/div Offset: 0 V

Time (s),Channel 2 (V)
-4.0694800000000002e-05,0.97334183775584981
-4.0684800000000001e-05,0.96961485354892007
-4.0674799999999999e-05,0.965887869341992
-4.0664800000000004e-05,0.96961485354891841
-4.0654800000000002e-05,0.95843390092813074
-4.0644800000000001e-05,0.98079580616970941
-4.0634799999999999e-05,0.95470691672120089
-4.0624800000000004e-05,0.96588786934198523
-4.0614800000000003e-05,0.95843390092813074
-4.0604800000000001e-05,0.96588786934199033
-4.05948e-05,0.98079580616970941
-4.0584799999999998e-05,0.96588786934198867
-4.0574800000000003e-05,0.96216088513506048
-4.0564800000000002e-05,0.95097993251427115
-4.05548e-05,0.95470691672120089
-4.0544799999999998e-05,0.96961485354892685
-4.0534800000000004e-05,0.98452279037663237
-4.0524800000000002e-05,0.96216088513506048
-4.05148e-05,0.98079580616970941
-4.0504799999999999e-05,0.95470691672121444
-4.0494800000000004e-05,0.9845227903766256
-4.0484800000000002e-05,0.98452279037663915
-4.0474800000000001e-05,0.96216088513506048
-4.0464799999999999e-05,0.98452279037663915
-4.0454800000000004e-05,0.97706882196278311
-4.0444800000000003e-05,0.96588786934199033
-4.0434800000000001e-05,0.96216088513506048
-4.04248e-05,0.96216088513506048
-4.0414799999999998e-05,0.96216088513506393
-4.0404800000000003e-05,0.96961485354892007
-4.0394800000000002e-05,0.97706882196277967
-4.03848e-05,0.96216088513506048
-4.0374799999999998e-05,0.965887869341992
-4.0364800000000004e-05,0.96961485354891841
-4.0354800000000002e-05,0.96216088513506048
-4.03448e-05,0.96961485354892007
-4.0334799999999999e-05,0.98079580616970941
-4.0324800000000004e-05,0.98079580616970941
-4.0314800000000002e-05,0.98452279037663915
-4.0304800000000001e-05,0.97706882196277967
-4.0294799999999999e-05,0.97706882196277967
-4.0284800000000004e-05,0.98079580616970774
-4.0274800000000003e-05,0.96588786934199033
-4.0264800000000001e-05,0.98079580616970941
-4.02548e-05,0.97334183775584981
-4.0244799999999998e-05,0.95843390092813585
-4.0234800000000003e-05,0.96961485354892007
-4.0224800000000002e-05,0.98079580616970941
-4.02148e-05,0.96961485354892007
-4.0204799999999998e-05,0.96961485354892174
-4.0194800000000004e-05,0.97334183775584981
-4.0184800000000002e-05,0.98079580616970941
-4.01748e-05,0.95843390092813074
-4.0164799999999999e-05,0.97334183775584815
-4.0154800000000004e-05,0.96961485354892174
-4.0144800000000002e-05,0.96961485354892007
-4.0134800000000001e-05,0.97334183775584981
-4.0124799999999999e-05,0.98452279037663915
-4.0114800000000004e-05,0.97706882196278311
-4.0104800000000003e-05,0.96961485354892007
-4.0094800000000001e-05,0.96588786934199033
-4.0084799999999999e-05,0.97334183775584981
-4.0074799999999998e-05,0.95843390092813074
-4.0064800000000003e-05,0.95843390092813074
-4.0054800000000001e-05,0.96216088513506048
-4.00448e-05,0.95097993251427115
-4.0034799999999998e-05,0.96961485354892174
-4.0024800000000003e-05,0.97334183775584981
-4.0014800000000002e-05,0.98079580616970941
-4.00048e-05,0.97334183775584981
-3.9994799999999999e-05,0.99197675879048686
-3.9984800000000004e-05,0.96588786934200221
-3.9974800000000002e-05,0.97334183775584981
-3.9964800000000001e-05,0.96961485354892007
-3.9954799999999999e-05,0.97334183775584981
-3.9944800000000004e-05,0.96216088513506559
-3.9934800000000003e-05,0.96961485354892007
-3.9924800000000001e-05,0.96216088513506048
-3.9914799999999999e-05,0.96216088513506048
-3.9904800000000005e-05,0.97334183775584471
-3.9894800000000003e-05,0.98452279037663915
-3.9884800000000001e-05,0.96961485354892007
-3.98748e-05,0.96216088513506048
-3.9864799999999998e-05,0.97334183775585326
-3.9854800000000003e-05,0.98079580616970941
-3.9844800000000002e-05,0.98452279037663915
-3.98348e-05,0.96588786934199033
-3.9824799999999999e-05,0.95843390092813241
-3.9814800000000004e-05,0.96216088513505882
-3.9804800000000002e-05,0.97706882196277967
-3.9794800000000001e-05,0.95843390092813074
-3.9784799999999999e-05,0.96961485354892352
-3.9774800000000004e-05,0.97706882196277622
-3.9764800000000003e-05,0.97334183775584981
-3.9754800000000001e-05,0.94725294830734141
-3.9744799999999999e-05,0.96961485354892007
-3.9734800000000005e-05,0.97706882196277622
-3.9724800000000003e-05,0.988249774583569
-3.9714800000000001e-05,0.96961485354892007
-3.97048e-05,0.988249774583569
-3.9694799999999998e-05,0.98079580616970774
-3.9684800000000003e-05,0.97706882196277967
-3.9674800000000002e-05,0.97706882196277967
-3.96648e-05,0.97334183775584981
-3.9654799999999999e-05,0.98824977458355878
-3.9644800000000004e-05,0.96588786934200055
-3.9634800000000002e-05,0.96961485354892007
-3.96248e-05,0.97334183775584981
-3.9614799999999999e-05,0.96961485354891841
-3.9604800000000004e-05,0.965887869341992
-3.9594800000000002e-05,0.95843390092813074
-3.9584800000000001e-05,0.96216088513506048
-3.9574799999999999e-05,0.97706882196277967
-3.9564800000000004e-05,0.93979897989349881
-3.9554800000000003e-05,0.96961485354892007
-3.9544800000000001e-05,0.96588786934199033
-3.95348e-05,0.97706882196277967
-3.9524799999999998e-05,0.9547069167212161
-3.9514800000000003e-05,0.988249774583569
-3.9504800000000002e-05,0.96961485354892007
-3.94948e-05,0.95843390092813074
-3.9484799999999998e-05,0.96588786934198689
-3.9474800000000004e-05,0.95843390092813419
-3.9464800000000002e-05,0.97334183775584981
-3.94548e-05,0.988249774583569
-3.9444799999999999e-05,0.97334183775584637
-3.9434800000000004e-05,0.96588786934199378
-3.9424800000000002e-05,0.96961485354892007
-3.9414800000000001e-05,0.95470691672120089
-3.9404799999999999e-05,0.95470691672120089
-3.9394800000000004e-05,0.9696148535489133
-3.9384800000000003e-05,0.95470691672120089
-3.9374800000000001e-05,0.95097993251427115
-3.93648e-05,0.95470691672120089
-3.9354799999999998e-05,0.94725294830734985
-3.9344800000000003e-05,0.96588786934199033
-3.9334800000000002e-05,0.95470691672120089
-3.93248e-05,0.96216088513506048
-3.9314799999999998e-05,0.97334183775584304
-3.9304800000000004e-05,0.95843390092813752
-3.9294800000000002e-05,0.95843390092813074
-3.92848e-05,0.98079580616970941
-3.9274799999999999e-05,0.9509799325142746
-3.9264800000000004e-05,0.9584339009281273
-3.9254800000000002e-05,0.96216088513506048
-3.9244800000000001e-05,0.97706882196277967
-3.9234799999999999e-05,0.95843390092813074
-3.9224800000000004e-05,0.96588786934198689
-3.9214800000000003e-05,0.98079580616970941
-3.9204800000000001e-05,0.94352596410041156
-3.91948e-05,0.988249774583569
-3.9184799999999998e-05,0.96216088513505704
-3.9174800000000003e-05,0.95470691672120089
-3.9164800000000002e-05,0.96588786934199033
-3.91548e-05,0.97706882196277967
-3.9144799999999998e-05,0.95097993251427115
-3.9134800000000003e-05,0.95097993251427115
-3.9124800000000002e-05,0.95843390092813074
-3.91148e-05,0.95470691672120089
-3.9104799999999999e-05,0.95843390092813752
-3.9094800000000004e-05,0.97334183775584304
-3.9084800000000002e-05,0.96216088513506048
-3.9074800000000001e-05,0.95843390092813074
-3.9064799999999999e-05,0.97334183775584981
-3.9054800000000004e-05,0.97334183775584981
-3.9044800000000003e-05,0.96588786934199033
-3.9034800000000001e-05,0.96961485354892007
-3.9024799999999999e-05,0.94725294830734141
-3.9014799999999998e-05,0.96961485354892007
-3.9004800000000003e-05,0.96961485354892007
-3.8994800000000001e-05,0.97706882196277967
-3.89848e-05,0.95470691672120089
-3.8974799999999998e-05,0.97706882196277967
-3.8964800000000003e-05,0.97706882196277967
-3.8954800000000002e-05,0.96961485354892007
-3.89448e-05,0.96961485354892007
-3.8934799999999999e-05,0.97334183775584981
-3.8924800000000004e-05,0.97334183775584981
-3.8914800000000002e-05,0.96588786934199033
-3.8904800000000001e-05,0.96216088513506048
-3.8894799999999999e-05,0.95843390092813074
-3.8884800000000004e-05,0.96216088513505882
-3.8874800000000003e-05,0.96588786934199033
-3.8864800000000001e-05,0.96961485354892007
-3.8854799999999999e-05,0.97706882196277967
-3.8844800000000005e-05,0.96216088513506726
-3.8834800000000003e-05,0.94725294830734141
-3.8824800000000001e-05,0.96588786934199033
-3.88148e-05,0.95470691672120089
-3.8804799999999998e-05,0.96588786934199544
-3.8794800000000003e-05,0.97706882196277967
-3.8784800000000002e-05,0.96961485354892007
-3.87748e-05,0.97334183775584981
-3.8764799999999999e-05,0.95470691672120767
-3.8754800000000004e-05,0.9696148535489133
-3.8744800000000002e-05,0.97706882196277967
-3.8734800000000001e-05,0.95097993251427115
-3.8724799999999999e-05,0.95470691672119923
-3.8714800000000004e-05,0.95097993251427282
-3.8704800000000003e-05,0.96961485354892007
-3.8694800000000001e-05,0.96588786934199033
-3.8684799999999999e-05,0.97706882196277967
-3.8674800000000005e-05,0.96961485354892352
-3.8664800000000003e-05,0.96588786934199033
-3.8654800000000001e-05,0.96216088513506048
-3.86448e-05,0.96961485354892007
-3.8634799999999998e-05,0.9509799325142746
-3.8624800000000003e-05,0.95843390092813074
-3.8614800000000002e-05,0.95843390092813074
-3.86048e-05,0.97334183775584981
-3.8594799999999998e-05,0.96961485354892007
-3.8584800000000004e-05,0.96961485354892007
-3.8574800000000002e-05,0.98452279037663915
-3.85648e-05,0.96961485354892007
-3.8554799999999999e-05,0.96588786934199033
-3.8544800000000004e-05,0.96588786934199033
-3.8534800000000002e-05,0.95843390092813074
-3.8524800000000001e-05,0.97334183775584981
-3.8514799999999999e-05,0.96588786934199033
-3.8504800000000004e-05,0.95843390092813419
-3.8494800000000003e-05,0.96216088513506048
-3.8484800000000001e-05,0.96216088513506048
-3.84748e-05,0.96588786934199033
-3.8464799999999998e-05,0.97706882196277456
-3.8454800000000003e-05,0.96588786934199033
-3.8444800000000002e-05,0.96588786934199033
-3.84348e-05,0.96961485354892007
-3.8424799999999998e-05,0.96961485354892518
-3.8414800000000004e-05,0.9807958061697043
-3.8404800000000002e-05,0.95470691672120089
-3.83948e-05,0.97706882196277967
-3.8384799999999999e-05,0.95470691672120933
-3.8374800000000004e-05,0.97334183775584138
-3.8364800000000002e-05,0.95843390092813074
-3.8354800000000001e-05,0.97334183775584981
-3.8344799999999999e-05,0.96588786934199033
-3.8334800000000004e-05,0.97706882196277456
-3.8324800000000003e-05,0.96216088513506048
-3.8314800000000001e-05,0.97706882196277967
-3.83048e-05,0.95843390092813074
-3.8294799999999998e-05,0.97706882196277123
-3.8284800000000003e-05,0.95843390092813074
-3.8274800000000002e-05,0.99197675879049874
-3.82648e-05,0.98079580616970941
-3.8254799999999998e-05,0.98079580616971107
-3.8244800000000004e-05,0.98452279037663748
-3.8234800000000002e-05,0.96588786934199033
-3.82248e-05,0.96588786934199033
-3.8214799999999999e-05,0.96961485354892007
-3.8204800000000004e-05,0.96961485354892007
-3.8194800000000002e-05,0.96216088513506048
-3.8184800000000001e-05,0.98079580616970941
-3.8174799999999999e-05,0.95843390092813074
-3.8164800000000004e-05,0.98824977458355545
-3.8154800000000003e-05,0.98452279037663915
-3.8144800000000001e-05,0.96216088513506048
-3.81348e-05,0.96216088513506048
-3.8124799999999998e-05,0.9845227903766256
-3.8114800000000003e-05,0.95470691672120089
-3.8104800000000001e-05,0.95470691672120089
-3.80948e-05,0.98452279037663915
-3.8084799999999998e-05,0.97334183775584138
-3.8074800000000003e-05,0.95470691672120089
-3.8064800000000002e-05,0.96961485354892007
-3.80548e-05,0.96216088513506048
-3.8044799999999999e-05,0.95470691672120933
-3.8034800000000004e-05,0.97334183775584138
-3.8024800000000002e-05,0.96216088513506048
-3.8014800000000001e-05,0.97334183775584981
-3.8004799999999999e-05,0.96961485354892007
-3.7994800000000004e-05,0.98824977458356056
-3.7984800000000003e-05,0.99197675879049874
-3.7974800000000001e-05,0.98452279037663915
-3.7964799999999999e-05,0.97334183775584981
-3.7954800000000005e-05,0.95097993251428137
-3.7944800000000003e-05,0.99197675879049874
-3.7934800000000001e-05,0.97334183775584981
-3.79248e-05,0.97334183775584981
-3.7914799999999998e-05,0.96216088513506559
-3.7904800000000003e-05,0.97334183775584981
-3.7894800000000002e-05,0.97334183775584981
-3.78848e-05,0.97334183775584981
-3.7874799999999999e-05,0.965887869341992
-3.7864800000000004e-05,0.96961485354891841
-3.7854800000000002e-05,0.97334183775584981
-3.7844800000000001e-05,0.96961485354892007
-3.7834799999999999e-05,0.97706882196277967
-3.7824800000000004e-05,0.96961485354892352
-3.7814800000000003e-05,0.96216088513506048
-3.7804800000000001e-05,0.97334183775584981
-3.7794799999999999e-05,0.98452279037663915
-3.7784800000000005e-05,0.96961485354892685
-3.7774800000000003e-05,0.98452279037663915
-3.7764800000000001e-05,0.97334183775584981
-3.77548e-05,0.95097993251427115
-3.7744799999999998e-05,0.97334183775584815
-3.7734800000000003e-05,0.96961485354892007
-3.7724800000000002e-05,0.96216088513506048
-3.77148e-05,0.97706882196277967
-3.7704799999999999e-05,0.97706882196278133
-3.7694800000000004e-05,0.98079580616970774
-3.7684800000000002e-05,0.96961485354892007
-3.7674800000000001e-05,0.96588786934199033
-3.7664799999999999e-05,0.97706882196277289
-3.7654800000000004e-05,0.96216088513506726
-3.7644800000000003e-05,0.98079580616970941
-3.7634800000000001e-05,0.96961485354892007
-3.7624799999999999e-05,0.99197675879049874
-3.7614800000000004e-05,0.96961485354893029
-3.7604800000000003e-05,0.98079580616970941
-3.7594800000000001e-05,0.97334183775584981
-3.75848e-05,0.95843390092813074
-3.7574799999999998e-05,0.96216088513506892
-3.7564800000000003e-05,0.98079580616970941
-3.7554800000000002e-05,0.95470691672120089
-3.75448e-05,0.95843390092813074
-3.7534799999999998e-05,0.96588786934199378
-3.7524800000000004e-05,0.97334183775584637
-3.7514800000000002e-05,0.95470691672120089
-3.75048e-05,0.988249774583569
-3.7494799999999999e-05,0.97334183775584304
-3.7484800000000004e-05,0.95843390092813752
-3.7474800000000002e-05,0.96588786934199033
-3.7464800000000001e-05,0.97706882196277967
-3.7454799999999999e-05,0.96216088513506048
-3.7444800000000004e-05,0.96216088513506048
-3.7434800000000003e-05,0.95843390092813074
-3.7424800000000001e-05,0.96961485354892007
-3.74148e-05,0.96961485354892007
-3.7404799999999998e-05,0.9807958061697043
-3.7394800000000003e-05,0.96961485354892007
-3.7384800000000002e-05,0.96588786934199033
-3.73748e-05,0.96216088513506048
-3.7364799999999998e-05,0.96961485354892174
-3.7354800000000004e-05,0.97334183775584815
-3.7344800000000002e-05,0.97334183775584981
-3.73348e-05,0.96588786934199033
-3.7324799999999999e-05,0.977068821962778
-3.7314800000000004e-05,0.97334183775585148
-3.7304800000000002e-05,0.95843390092813074
-3.7294800000000001e-05,0.97334183775584981
-3.7284799999999999e-05,0.95470691672120089
-3.7274800000000004e-05,0.9696148535489133
-3.7264800000000003e-05,0.988249774583569
-3.7254800000000001e-05,0.98452279037663915
-3.72448e-05,0.96216088513506048
-3.7234799999999998e-05,0.95843390092813918
-3.7224800000000003e-05,0.97706882196277967
-3.7214800000000002e-05,0.98079580616970941
-3.72048e-05,0.98079580616970941
-3.7194799999999998e-05,0.99943072720434478
-3.7184800000000004e-05,0.96961485354893362
-3.7174800000000002e-05,0.96961485354892007
-3.71648e-05,0.97706882196277967
-3.7154799999999999e-05,0.98079580616971451
-3.7144800000000004e-05,0.99197675879049363
-3.7134800000000002e-05,0.97706882196277967
-3.7124800000000001e-05,0.96216088513506048
-3.7114799999999999e-05,0.98079580616970941
-3.7104800000000004e-05,0.97706882196278133
-3.7094800000000003e-05,0.96961485354892007
-3.7084800000000001e-05,0.97706882196277967
-3.7074799999999999e-05,0.96588786934199033
-3.7064799999999998e-05,0.98452279037663915
-3.7054800000000003e-05,0.98452279037663915
-3.7044800000000001e-05,0.96588786934199033
-3.70348e-05,0.97334183775584981
-3.7024799999999998e-05,0.97334183775585148
-3.7014800000000003e-05,0.97706882196277967
-3.7004800000000002e-05,0.96588786934199033
-3.69948e-05,0.97706882196277967
-3.6984799999999999e-05,0.98824977458356555
-3.6974800000000004e-05,0.98079580616971285
-3.6964800000000002e-05,0.96588786934199033
-3.6954800000000001e-05,0.96961485354892007
-3.6944799999999999e-05,0.98079580616970941
-3.6934800000000004e-05,0.97334183775585326
-3.6924800000000003e-05,0.97334183775584981
-3.6914800000000001e-05,0.97334183775584981
-3.6904799999999999e-05,0.96961485354892007
-3.6894800000000005e-05,0.96961485354892007
-3.6884800000000003e-05,0.988249774583569
-3.6874800000000001e-05,0.98452279037663915
-3.68648e-05,0.96216088513506048
-3.6854799999999998e-05,0.96961485354891164
-3.6844800000000003e-05,0.95097993251427115
-3.6834800000000002e-05,0.97334183775584981
-3.68248e-05,0.95843390092813074
-3.6814799999999999e-05,0.96961485354892352
-3.6804800000000004e-05,0.97706882196277622
-3.6794800000000002e-05,0.96588786934199033
-3.6784800000000001e-05,0.97706882196277967
-3.6774799999999999e-05,0.95843390092813074
-3.6764800000000004e-05,0.97706882196277123
-3.6754800000000003e-05,0.98079580616970941
-3.6744800000000001e-05,0.96588786934199033
-3.6734799999999999e-05,0.96216088513506048
-3.6724800000000005e-05,0.95843390092813241
-3.6714800000000003e-05,0.97334183775584981
-3.6704800000000001e-05,0.96961485354892007
-3.66948e-05,0.98452279037663915
-3.6684799999999998e-05,0.96961485354892352
-3.6674800000000003e-05,0.97706882196277967
-3.6664800000000002e-05,0.98079580616970941
-3.66548e-05,0.96588786934199033
-3.6644799999999999e-05,0.97706882196277622
-3.6634800000000004e-05,0.96961485354892352
-3.6624800000000002e-05,0.96961485354892007
-3.6614800000000001e-05,0.96961485354892007
-3.6604799999999999e-05,0.96961485354892007
-3.6594800000000004e-05,0.96961485354892007
-3.6584800000000002e-05,0.95843390092813074
-3.6574800000000001e-05,0.98079580616970941
-3.6564799999999999e-05,0.95843390092813074
-3.6554800000000004e-05,0.97706882196277123
-3.6544800000000003e-05,0.98079580616970941
-3.6534800000000001e-05,0.96588786934199033
-3.65248e-05,0.96961485354892007
-3.6514799999999998e-05,0.98079580616969919
-3.6504800000000003e-05,0.95843390092813074
-3.6494800000000002e-05,0.98452279037663915
-3.64848e-05,0.96961485354892007
-3.6474799999999998e-05,0.97334183775585659
-3.6464800000000004e-05,0.98824977458356222
-3.6454800000000002e-05,0.96588786934199033
-3.64448e-05,0.96588786934199033
-3.6434799999999999e-05,0.96588786934198523
-3.6424800000000004e-05,0.954706916721206
-3.6414800000000002e-05,0.98079580616970941
-3.6404800000000001e-05,0.99197675879049874
-3.6394799999999999e-05,0.97334183775584981
-3.6384800000000004e-05,0.96961485354892174
-3.6374800000000003e-05,0.96961485354892007
-3.6364800000000001e-05,0.988249774583569
-3.63548e-05,0.98452279037663915
-3.6344799999999998e-05,0.98079580616971107
-3.6334800000000003e-05,0.98452279037663915
-3.6324800000000002e-05,0.96216088513506048
-3.63148e-05,0.96216088513506048
-3.6304799999999998e-05,0.98452279037662216
-3.6294800000000004e-05,0.9472529483073584
-3.6284800000000002e-05,0.96216088513506048
-3.62748e-05,0.96961485354892007
-3.6264799999999999e-05,0.96961485354891663
-3.6254800000000004e-05,0.96216088513506393
-3.6244800000000002e-05,0.97334183775584981
-3.6234800000000001e-05,0.96216088513506048
-3.6224799999999999e-05,0.96961485354892007
-3.6214800000000004e-05,0.965887869341992
-3.6204800000000003e-05,0.97706882196277967
-3.6194800000000001e-05,0.97334183775584981
-3.61848e-05,0.97334183775584981
-3.6174799999999998e-05,0.96216088513506726
-3.6164800000000003e-05,0.97706882196277967
-3.6154800000000002e-05,0.988249774583569
-3.61448e-05,0.96588786934199033
-3.6134799999999998e-05,0.96961485354891841
-3.6124800000000004e-05,0.96588786934199033
-3.6114800000000002e-05,0.98079580616970941
-3.61048e-05,0.96961485354892007
-3.6094799999999999e-05,0.97334183775585825
-3.6084800000000004e-05,0.9919767587904903
-3.6074800000000002e-05,0.96216088513506048
-3.6064800000000001e-05,0.95843390092813074
-3.6054799999999999e-05,0.95470691672120089
