Power_measurements/Simeck_64_128_csv/simeck_idle_c160_9.csv

#Digilent WaveForms Oscilloscope Acquisition
#Device Name: Discovery2
#Serial Number: SN:210321A1A9F5
#Date Time: 2018-06-28 16:07:53.440
#Sample rate: 1e+08Hz
#Samples: 8192
#Trigger: Source: Channel 1 Type: Edge Condition: Rising Level: 2 V Hyst.: Auto HoldOff: 0 s
#Channel 2: Range: 1 V/div Offset: 0 V

Time (s),Channel 2 (V)
-4.0697939393939393e-05,0.98079580616970941
-4.0687939393939391e-05,0.96961485354892007
-4.067793939393939e-05,0.96216088513506215
-4.0667939393939395e-05,0.96588786934198867
-4.0657939393939393e-05,0.988249774583569
-4.0647939393939392e-05,0.95843390092813074
-4.063793939393939e-05,0.96588786934199033
-4.0627939393939395e-05,0.96216088513506215
-4.0617939393939394e-05,0.96961485354892007
-4.0607939393939392e-05,0.96961485354892007
-4.0597939393939391e-05,0.96961485354892007
-4.0587939393939389e-05,0.96961485354892851
-4.0577939393939394e-05,0.988249774583569
-4.0567939393939393e-05,0.98079580616970941
-4.0557939393939391e-05,0.988249774583569
-4.0547939393939389e-05,0.97706882196277967
-4.0537939393939395e-05,0.97706882196277967
-4.0527939393939393e-05,0.98079580616970941
-4.0517939393939391e-05,0.98079580616970941
-4.050793939393939e-05,0.97706882196277289
-4.0497939393939395e-05,0.96216088513506726
-4.0487939393939393e-05,0.96961485354892007
-4.0477939393939392e-05,0.95843390092813074
-4.046793939393939e-05,0.97706882196277967
-4.0457939393939395e-05,0.96588786934199544
-4.0447939393939394e-05,0.95097993251427115
-4.0437939393939392e-05,0.97334183775584981
-4.0427939393939391e-05,0.96961485354892007
-4.0417939393939389e-05,0.95843390092813074
-4.0407939393939394e-05,0.95843390092813074
-4.0397939393939393e-05,0.96961485354892007
-4.0387939393939391e-05,0.95843390092813074
-4.0377939393939389e-05,0.97334183775585148
-4.0367939393939395e-05,0.977068821962778
-4.0357939393939393e-05,0.97706882196277967
-4.0347939393939391e-05,0.95470691672120089
-4.033793939393939e-05,0.96216088513506892
-4.0327939393939395e-05,0.98079580616970097
-4.0317939393939393e-05,0.96588786934199033
-4.0307939393939392e-05,0.95470691672120089
-4.029793939393939e-05,0.96961485354892007
-4.0287939393939395e-05,0.97334183775584815
-4.0277939393939394e-05,0.96216088513506048
-4.0267939393939392e-05,0.96216088513506048
-4.0257939393939391e-05,0.95470691672120089
-4.0247939393939389e-05,0.96961485354891497
-4.0237939393939394e-05,0.95843390092813074
-4.0227939393939392e-05,0.97706882196277967
-4.0217939393939391e-05,0.96961485354892007
-4.0207939393939389e-05,0.95097993251427959
-4.0197939393939394e-05,0.96961485354892007
-4.0187939393939393e-05,0.96588786934199033
-4.0177939393939391e-05,0.96588786934199033
-4.016793939393939e-05,0.96961485354891497
-4.0157939393939395e-05,0.95843390092813585
-4.0147939393939393e-05,0.96961485354892007
-4.0137939393939392e-05,0.96216088513506048
-4.012793939393939e-05,0.97334183775584981
-4.0117939393939395e-05,0.95470691672120933
-4.0107939393939394e-05,0.95097993251427115
-4.0097939393939392e-05,0.96588786934199033
-4.008793939393939e-05,0.97334183775584981
-4.0077939393939389e-05,0.97334183775584815
-4.0067939393939394e-05,0.96961485354892007
-4.0057939393939392e-05,0.97334183775584981
-4.0047939393939391e-05,0.97706882196277967
-4.0037939393939389e-05,0.9658878693419819
-4.0027939393939394e-05,0.94725294830734141
-4.0017939393939393e-05,0.96961485354892007
-4.0007939393939391e-05,0.96961485354892007
-3.999793939393939e-05,0.95843390092814096
-3.9987939393939395e-05,0.98079580616969919
-3.9977939393939393e-05,0.94725294830734141
-3.9967939393939392e-05,0.96588786934199033
-3.995793939393939e-05,0.96216088513506048
-3.9947939393939395e-05,0.95097993251427626
-3.9937939393939394e-05,0.97334183775584981
-3.9927939393939392e-05,0.96588786934199033
-3.991793939393939e-05,0.96588786934199033
-3.9907939393939396e-05,0.96961485354891841
-3.9897939393939394e-05,0.96216088513506048
-3.9887939393939392e-05,0.99197675879049874
-3.9877939393939391e-05,0.98079580616970941
-3.9867939393939389e-05,0.98079580616971107
-3.9857939393939394e-05,0.98452279037663915
-3.9847939393939393e-05,0.96961485354892007
-3.9837939393939391e-05,0.97334183775584981
-3.982793939393939e-05,0.98079580616971107
-3.9817939393939395e-05,0.98452279037663748
-3.9807939393939393e-05,0.97706882196277967
-3.9797939393939392e-05,0.96961485354892007
-3.978793939393939e-05,0.98079580616970596
-3.9777939393939395e-05,0.97334183775585326
-3.9767939393939394e-05,0.98452279037663915
-3.9757939393939392e-05,0.96961485354892007
-3.974793939393939e-05,0.97706882196277967
-3.9737939393939395e-05,0.95843390092813918
-3.9727939393939394e-05,0.96961485354892007
-3.9717939393939392e-05,0.96588786934199033
-3.9707939393939391e-05,0.97334183775584981
-3.9697939393939389e-05,0.96216088513507236
-3.9687939393939394e-05,0.988249774583569
-3.9677939393939393e-05,0.96961485354892007
-3.9667939393939391e-05,0.96588786934199033
-3.9657939393939389e-05,0.96961485354892518
-3.9647939393939395e-05,0.9807958061697043
-3.9637939393939393e-05,0.97706882196277967
-3.9627939393939391e-05,0.98452279037663915
-3.961793939393939e-05,1.0031577114112797
-3.9607939393939395e-05,0.98452279037664758
-3.9597939393939393e-05,0.96588786934199033
-3.9587939393939392e-05,0.97706882196277967
-3.957793939393939e-05,0.96961485354892007
-3.9567939393939395e-05,0.97334183775584815
-3.9557939393939394e-05,0.98452279037663915
-3.9547939393939392e-05,0.95843390092813074
-3.9537939393939391e-05,0.96961485354892007
-3.9527939393939389e-05,0.95843390092813241
-3.9517939393939394e-05,0.96216088513506048
-3.9507939393939393e-05,0.96961485354892007
-3.9497939393939391e-05,0.96961485354892007
-3.9487939393939389e-05,0.96961485354892685
-3.9477939393939395e-05,0.98452279037663237
-3.9467939393939393e-05,0.98452279037663915
-3.9457939393939391e-05,0.96216088513506048
-3.944793939393939e-05,0.97706882196277622
-3.9437939393939395e-05,0.96961485354892352
-3.9427939393939393e-05,0.95843390092813074
-3.9417939393939392e-05,0.98452279037663915
-3.940793939393939e-05,0.97706882196277967
-3.9397939393939395e-05,0.97706882196277967
-3.9387939393939394e-05,0.97706882196277967
-3.9377939393939392e-05,0.97706882196277967
-3.9367939393939391e-05,0.96216088513506048
-3.9357939393939389e-05,0.9621608851350707
-3.9347939393939394e-05,0.98452279037663915
-3.9337939393939393e-05,0.95843390092813074
-3.9327939393939391e-05,0.97334183775584981
-3.9317939393939389e-05,0.96216088513506559
-3.9307939393939395e-05,0.97334183775584471
-3.9297939393939393e-05,0.97706882196277967
-3.9287939393939391e-05,0.96961485354892007
-3.927793939393939e-05,0.97334183775584471
-3.9267939393939395e-05,0.96216088513506559
-3.9257939393939393e-05,0.96961485354892007
-3.9247939393939392e-05,0.95843390092813074
-3.923793939393939e-05,0.97706882196277967
-3.9227939393939395e-05,0.98079580616970774
-3.9217939393939394e-05,0.97706882196277967
-3.9207939393939392e-05,0.99570374299742848
-3.919793939393939e-05,0.95097993251427115
-3.9187939393939389e-05,0.97706882196278133
-3.9177939393939394e-05,0.98079580616970941
-3.9167939393939392e-05,0.96961485354892007
-3.9157939393939391e-05,0.96961485354892007
-3.9147939393939389e-05,0.97334183775584471
-3.9137939393939394e-05,0.96216088513506048
-3.9127939393939393e-05,0.96588786934199033
-3.9117939393939391e-05,0.96588786934199033
-3.910793939393939e-05,0.96961485354891663
-3.9097939393939395e-05,0.96216088513506393
-3.9087939393939393e-05,0.95843390092813074
-3.9077939393939392e-05,0.96588786934199033
-3.906793939393939e-05,0.95097993251427115
-3.9057939393939395e-05,0.99943072720433634
-3.9047939393939394e-05,0.94725294830734141
-3.9037939393939392e-05,0.96961485354892007
-3.902793939393939e-05,0.96588786934199033
-3.9017939393939389e-05,0.94352596410042
-3.9007939393939394e-05,0.96216088513506048
-3.8997939393939392e-05,0.97706882196277967
-3.8987939393939391e-05,0.96961485354892007
-3.8977939393939389e-05,0.95097993251428137
-3.8967939393939394e-05,0.97334183775584981
-3.8957939393939393e-05,0.96961485354892007
-3.8947939393939391e-05,0.96961485354892007
-3.893793939393939e-05,0.98079580616970097
-3.8927939393939395e-05,0.96216088513506892
-3.8917939393939393e-05,0.96216088513506048
-3.8907939393939392e-05,0.96961485354892007
-3.889793939393939e-05,0.96588786934199033
-3.8887939393939395e-05,0.94725294830734985
-3.8877939393939394e-05,0.94725294830734141
-3.8867939393939392e-05,0.93234501147962223
-3.885793939393939e-05,0.95843390092813074
-3.8847939393939396e-05,0.95470691672120256
-3.8837939393939394e-05,0.97706882196277967
-3.8827939393939392e-05,0.96588786934199033
-3.8817939393939391e-05,0.96961485354892007
-3.8807939393939389e-05,0.96216088513506393
-3.8797939393939394e-05,0.96961485354892007
-3.8787939393939393e-05,0.95843390092813074
-3.8777939393939391e-05,0.988249774583569
-3.876793939393939e-05,0.95843390092813752
-3.8757939393939395e-05,0.97334183775584304
-3.8747939393939393e-05,0.96961485354892007
-3.8737939393939392e-05,0.97334183775584981
-3.872793939393939e-05,0.965887869341992
-3.8717939393939395e-05,0.96961485354891841
-3.8707939393939393e-05,0.96216088513506048
-3.8697939393939392e-05,0.988249774583569
-3.868793939393939e-05,0.95843390092813074
-3.8677939393939395e-05,0.97706882196277123
-3.8667939393939394e-05,0.96216088513506048
-3.8657939393939392e-05,0.96216088513506048
-3.8647939393939391e-05,0.96961485354892007
-3.8637939393939389e-05,0.96216088513505538
-3.8627939393939394e-05,0.95097993251427115
-3.8617939393939393e-05,0.96588786934199033
-3.8607939393939391e-05,0.95843390092813074
-3.8597939393939389e-05,0.94725294830734652
-3.8587939393939395e-05,0.95843390092812564
-3.8577939393939393e-05,0.95097993251427115
-3.8567939393939391e-05,0.97706882196277967
-3.855793939393939e-05,0.95843390092813585
-3.8547939393939395e-05,0.96961485354891497
-3.8537939393939393e-05,0.98079580616970941
-3.8527939393939392e-05,0.97334183775584981
-3.851793939393939e-05,0.96588786934199033
-3.8507939393939395e-05,0.97334183775584637
-3.8497939393939394e-05,0.96961485354892007
-3.8487939393939392e-05,0.96588786934199033
-3.8477939393939391e-05,0.95470691672120089
-3.8467939393939389e-05,0.96961485354892352
-3.8457939393939394e-05,0.97706882196277967
-3.8447939393939393e-05,0.95097993251427115
-3.8437939393939391e-05,0.95097993251427115
-3.8427939393939389e-05,0.95097993251428137
-3.8417939393939395e-05,0.9733418377558396
-3.8407939393939393e-05,0.95843390092813074
-3.8397939393939391e-05,0.95097993251427115
-3.838793939393939e-05,0.96961485354891841
-3.8377939393939395e-05,0.965887869341992
-3.8367939393939393e-05,0.95470691672120089
-3.8357939393939392e-05,0.96216088513506048
-3.834793939393939e-05,0.95843390092813074
-3.8337939393939395e-05,0.98079580616969919
-3.8327939393939394e-05,0.95097993251427115
-3.8317939393939392e-05,0.95470691672120089
-3.8307939393939391e-05,0.94352596410041156
-3.8297939393939389e-05,0.95470691672120767
-3.8287939393939394e-05,0.96961485354892007
-3.8277939393939393e-05,0.96588786934199033
-3.8267939393939391e-05,0.96216088513506048
-3.8257939393939389e-05,0.95843390092813241
-3.8247939393939395e-05,0.96216088513505882
-3.8237939393939393e-05,0.96961485354892007
-3.8227939393939391e-05,0.96216088513506048
-3.821793939393939e-05,0.94725294830734819
-3.8207939393939395e-05,0.96216088513505371
-3.8197939393939393e-05,0.95470691672120089
-3.8187939393939392e-05,0.98452279037663915
-3.817793939393939e-05,0.97334183775584981
-3.8167939393939395e-05,0.96961485354892174
-3.8157939393939394e-05,0.96961485354892007
-3.8147939393939392e-05,0.95843390092813074
-3.813793939393939e-05,0.95470691672120089
-3.8127939393939389e-05,0.96216088513506048
-3.8117939393939394e-05,0.96216088513506048
-3.8107939393939392e-05,0.97334183775584981
-3.8097939393939391e-05,0.96588786934199033
-3.8087939393939389e-05,0.95843390092814262
-3.8077939393939394e-05,0.98452279037663915
-3.8067939393939393e-05,0.94725294830734141
-3.8057939393939391e-05,0.95843390092813074
-3.804793939393939e-05,0.98079580616969753
-3.8037939393939395e-05,0.95470691672121277
-3.8027939393939393e-05,0.96961485354892007
-3.8017939393939392e-05,0.97334183775584981
-3.800793939393939e-05,0.95843390092813074
-3.7997939393939395e-05,0.97334183775584304
-3.7987939393939394e-05,0.98452279037663915
-3.7977939393939392e-05,0.96588786934199033
-3.796793939393939e-05,0.96588786934199033
-3.7957939393939396e-05,0.96961485354891841
-3.7947939393939394e-05,0.97334183775584981
-3.7937939393939392e-05,0.95843390092813074
-3.7927939393939391e-05,0.94725294830734141
-3.7917939393939389e-05,0.98079580616970596
-3.7907939393939394e-05,0.97334183775584981
-3.7897939393939393e-05,0.95470691672120089
-3.7887939393939391e-05,0.96588786934199033
-3.787793939393939e-05,0.97334183775585148
-3.7867939393939395e-05,0.977068821962778
-3.7857939393939393e-05,0.95843390092813074
-3.7847939393939392e-05,0.97334183775584981
-3.783793939393939e-05,0.95097993251427115
-3.7827939393939395e-05,0.96961485354891164
-3.7817939393939394e-05,0.95470691672120089
-3.7807939393939392e-05,0.95843390092813074
-3.779793939393939e-05,0.96216088513506048
-3.7787939393939396e-05,0.97706882196277289
-3.7777939393939394e-05,0.95470691672120089
-3.7767939393939392e-05,0.96961485354892007
-3.7757939393939391e-05,0.95843390092813074
-3.7747939393939389e-05,0.96216088513506559
-3.7737939393939394e-05,0.97334183775584981
-3.7727939393939393e-05,0.96588786934199033
-3.7717939393939391e-05,0.95843390092813074
-3.770793939393939e-05,0.97334183775584471
-3.7697939393939395e-05,0.96216088513506559
-3.7687939393939393e-05,0.95843390092813074
-3.7677939393939391e-05,0.96216088513506048
-3.766793939393939e-05,0.97706882196277456
-3.7657939393939395e-05,0.96588786934199544
-3.7647939393939393e-05,0.95843390092813074
-3.7637939393939392e-05,0.96961485354892007
-3.762793939393939e-05,0.96216088513506048
-3.7617939393939395e-05,0.97706882196277289
-3.7607939393939394e-05,0.96588786934199033
-3.7597939393939392e-05,0.96216088513506048
-3.7587939393939391e-05,0.97334183775584981
-3.7577939393939389e-05,0.96216088513505704
-3.7567939393939394e-05,0.95470691672120089
-3.7557939393939393e-05,0.96961485354892007
-3.7547939393939391e-05,0.96588786934199033
-3.7537939393939389e-05,0.96588786934198867
-3.7527939393939395e-05,0.96216088513506215
-3.7517939393939393e-05,0.96588786934199033
-3.7507939393939391e-05,0.97334183775584981
-3.749793939393939e-05,0.94725294830735163
-3.7487939393939395e-05,0.96961485354890986
-3.7477939393939393e-05,0.95097993251427115
-3.7467939393939392e-05,0.97334183775584981
-3.745793939393939e-05,0.94725294830734141
-3.7447939393939395e-05,0.95097993251426949
-3.7437939393939394e-05,0.96216088513506048
-3.7427939393939392e-05,0.95097993251427115
-3.7417939393939391e-05,0.96216088513506048
-3.7407939393939389e-05,0.97334183775585492
-3.7397939393939394e-05,0.98452279037663915
-3.7387939393939393e-05,0.94725294830734141
-3.7377939393939391e-05,0.96588786934199033
-3.7367939393939389e-05,0.95843390092813241
-3.7357939393939395e-05,0.96216088513505882
-3.7347939393939393e-05,0.97706882196277967
-3.7337939393939391e-05,0.95843390092813074
-3.732793939393939e-05,0.96588786934198689
-3.7317939393939395e-05,0.95843390092813419
-3.7307939393939393e-05,0.97706882196277967
-3.7297939393939392e-05,0.98079580616970941
-3.728793939393939e-05,0.96588786934199033
-3.7277939393939395e-05,0.97334183775584637
-3.7267939393939394e-05,0.97706882196277967
-3.7257939393939392e-05,0.97334183775584981
-3.7247939393939391e-05,0.97334183775584981
-3.7237939393939389e-05,0.95843390092813419
-3.7227939393939394e-05,0.96588786934199033
-3.7217939393939393e-05,0.95843390092813074
-3.7207939393939391e-05,0.96216088513506048
-3.7197939393939389e-05,0.96216088513505538
-3.7187939393939394e-05,0.95097993251427626
-3.7177939393939393e-05,0.988249774583569
-3.7167939393939391e-05,0.97334183775584981
-3.715793939393939e-05,0.98452279037662394
-3.7147939393939395e-05,0.95097993251428636
-3.7137939393939393e-05,0.96588786934199033
-3.7127939393939392e-05,0.95843390092813074
-3.711793939393939e-05,0.96961485354892007
-3.7107939393939395e-05,0.97334183775584815
-3.7097939393939394e-05,0.95843390092813074
-3.7087939393939392e-05,0.97706882196277967
-3.707793939393939e-05,0.98079580616970941
-3.7067939393939389e-05,0.95843390092813585
-3.7057939393939394e-05,0.96961485354892007
-3.7047939393939392e-05,0.97334183775584981
-3.7037939393939391e-05,0.97706882196277967
-3.7027939393939389e-05,0.95470691672121111
-3.7017939393939394e-05,0.97706882196277967
-3.7007939393939393e-05,0.95843390092813074
-3.6997939393939391e-05,0.97334183775584981
-3.698793939393939e-05,0.965887869341992
-3.6977939393939395e-05,0.96961485354891841
-3.6967939393939393e-05,0.98452279037663915
-3.6957939393939392e-05,0.96216088513506048
-3.694793939393939e-05,0.98452279037663915
-3.6937939393939395e-05,0.95843390092814262
-3.6927939393939394e-05,0.95843390092813074
-3.6917939393939392e-05,0.95843390092813074
-3.690793939393939e-05,0.96216088513506048
-3.6897939393939396e-05,0.98079580616970097
-3.6887939393939394e-05,0.97706882196277967
-3.6877939393939392e-05,0.97706882196277967
-3.6867939393939391e-05,0.97706882196277967
-3.6857939393939389e-05,0.96588786934198867
-3.6847939393939394e-05,0.96216088513506048
-3.6837939393939393e-05,0.96216088513506048
-3.6827939393939391e-05,0.97706882196277967
-3.681793939393939e-05,0.95843390092813074
-3.6807939393939395e-05,0.95843390092813074
-3.6797939393939393e-05,0.98452279037663915
-3.6787939393939392e-05,0.98079580616970941
-3.677793939393939e-05,0.97706882196277967
-3.6767939393939395e-05,0.95843390092813918
-3.6757939393939394e-05,0.95470691672120089
-3.6747939393939392e-05,0.94725294830734141
-3.673793939393939e-05,0.96961485354892007
-3.6727939393939396e-05,0.965887869341992
-3.6717939393939394e-05,0.96961485354892007
-3.6707939393939392e-05,0.95470691672120089
-3.6697939393939391e-05,0.97706882196277967
-3.6687939393939389e-05,0.94352596410042511
-3.6677939393939394e-05,0.97334183775584981
-3.6667939393939393e-05,0.98079580616970941
-3.6657939393939391e-05,0.96588786934199033
-3.6647939393939389e-05,0.95843390092813241
-3.6637939393939395e-05,0.96216088513505882
-3.6627939393939393e-05,0.97334183775584981
-3.6617939393939391e-05,0.97334183775584981
-3.660793939393939e-05,0.96216088513506215
-3.6597939393939395e-05,0.96588786934198867
-3.6587939393939393e-05,0.98079580616970941
-3.6577939393939392e-05,0.95843390092813074
-3.656793939393939e-05,0.96961485354892007
-3.6557939393939395e-05,0.99197675879048852
-3.6547939393939394e-05,0.96588786934199033
-3.6537939393939392e-05,0.98079580616970941
-3.6527939393939391e-05,0.96961485354892007
-3.6517939393939389e-05,0.97706882196277289
-3.6507939393939394e-05,0.96216088513506048
-3.6497939393939393e-05,0.97334183775584981
-3.6487939393939391e-05,0.98079580616970941
-3.6477939393939389e-05,0.96216088513506393
-3.6467939393939395e-05,0.96961485354891663
-3.6457939393939393e-05,0.97334183775584981
-3.6447939393939391e-05,0.97706882196277967
-3.643793939393939e-05,0.96216088513506393
-3.6427939393939395e-05,0.96961485354891663
-3.6417939393939393e-05,0.98079580616970941
-3.6407939393939392e-05,0.98079580616970941
-3.639793939393939e-05,0.97706882196277967
-3.6387939393939395e-05,0.96961485354892352
-3.6377939393939394e-05,0.95843390092813074
-3.6367939393939392e-05,0.97706882196277967
-3.6357939393939391e-05,0.96961485354892007
-3.6347939393939389e-05,0.97334183775584637
-3.6337939393939394e-05,0.96588786934199033
-3.6327939393939393e-05,0.988249774583569
-3.6317939393939391e-05,0.97706882196277967
-3.6307939393939389e-05,0.96216088513506559
-3.6297939393939395e-05,0.97334183775584471
-3.6287939393939393e-05,0.96216088513506048
-3.6277939393939391e-05,0.96216088513506048
-3.626793939393939e-05,0.95470691672120767
-3.6257939393939395e-05,0.9696148535489133
-3.6247939393939393e-05,0.97334183775584981
-3.6237939393939392e-05,0.95843390092813074
-3.622793939393939e-05,0.98452279037663915
-3.6217939393939395e-05,0.96588786934199877
