Power_measurements/Simeck_64_128_csv/simeck_active_c160_8.csv

#Digilent WaveForms Oscilloscope Acquisition
#Device Name: Discovery2
#Serial Number: SN:210321A1A9F5
#Date Time: 2018-06-28 16:05:43.444
#Sample rate: 1e+08Hz
#Samples: 8192
#Trigger: Source: Channel 1 Type: Edge Condition: Rising Level: 2 V Hyst.: Auto HoldOff: 0 s
#Channel 2: Range: 1 V/div Offset: 0 V

Time (s),Channel 2 (V)
-4.0692653061224492e-05,0.96588786934199033
-4.0682653061224491e-05,0.95097993251427115
-4.0672653061224489e-05,0.97706882196276612
-4.0662653061224494e-05,0.94725294830735496
-4.0652653061224493e-05,0.95843390092813074
-4.0642653061224491e-05,0.96961485354892007
-4.063265306122449e-05,0.95843390092813074
-4.0622653061224495e-05,0.96216088513505882
-4.0612653061224493e-05,0.96216088513506048
-4.0602653061224492e-05,0.94352596410041156
-4.059265306122449e-05,0.95843390092813074
-4.0582653061224488e-05,0.94352596410041834
-4.0572653061224494e-05,0.95843390092813074
-4.0562653061224492e-05,0.96961485354892007
-4.055265306122449e-05,0.95470691672120089
-4.0542653061224489e-05,0.97706882196276945
-4.0532653061224494e-05,0.95470691672121111
-4.0522653061224492e-05,0.95470691672120089
-4.0512653061224491e-05,0.94352596410041156
-4.0502653061224489e-05,0.96961485354890653
-4.0492653061224494e-05,0.93979897989349537
-4.0482653061224493e-05,0.96588786934199033
-4.0472653061224491e-05,0.97334183775584981
-4.046265306122449e-05,0.96961485354892007
-4.0452653061224495e-05,0.95470691672120767
-4.0442653061224493e-05,0.96588786934199033
-4.0432653061224492e-05,0.95843390092813074
-4.042265306122449e-05,0.95843390092813074
-4.0412653061224488e-05,0.96961485354891497
-4.0402653061224494e-05,0.95843390092813074
-4.0392653061224492e-05,0.95470691672120089
-4.038265306122449e-05,0.94352596410041156
-4.0372653061224489e-05,0.95843390092813585
-4.0362653061224494e-05,0.96961485354891497
-4.0352653061224492e-05,0.96961485354892007
-4.0342653061224491e-05,0.95470691672120089
-4.0332653061224489e-05,0.96588786934198523
-4.0322653061224494e-05,0.954706916721206
-4.0312653061224493e-05,0.96961485354892007
-4.0302653061224491e-05,0.96588786934199033
-4.029265306122449e-05,0.96961485354892007
-4.0282653061224495e-05,0.96961485354892007
-4.0272653061224493e-05,0.97334183775584981
-4.0262653061224491e-05,0.96588786934199033
-4.025265306122449e-05,0.96216088513506048
-4.0242653061224488e-05,0.95843390092813241
-4.0232653061224493e-05,0.96216088513506048
-4.0222653061224492e-05,0.96961485354892007
-4.021265306122449e-05,0.98079580616970941
-4.0202653061224489e-05,0.95843390092813241
-4.0192653061224494e-05,0.96216088513506048
-4.0182653061224492e-05,0.96961485354892007
-4.0172653061224491e-05,0.94725294830734141
-4.0162653061224489e-05,0.96216088513505027
-4.0152653061224494e-05,0.93979897989349204
-4.0142653061224493e-05,0.96961485354892007
-4.0132653061224491e-05,0.95470691672120089
-4.0122653061224489e-05,0.98452279037663915
-4.0112653061224495e-05,0.9621608851350707
-4.0102653061224493e-05,0.98452279037663915
-4.0092653061224491e-05,0.96588786934199033
-4.008265306122449e-05,0.96961485354892007
-4.0072653061224488e-05,0.97706882196277967
-4.0062653061224493e-05,0.97706882196277967
-4.0052653061224492e-05,0.96588786934199033
-4.004265306122449e-05,0.96216088513506048
-4.0032653061224489e-05,0.96588786934199378
-4.0022653061224494e-05,0.97334183775584981
-4.0012653061224492e-05,0.96961485354892007
-4.0002653061224491e-05,0.95843390092813074
-3.9992653061224489e-05,0.97334183775584304
-3.9982653061224494e-05,0.95843390092813752
-3.9972653061224493e-05,0.96216088513506048
-3.9962653061224491e-05,0.95470691672120089
-3.9952653061224489e-05,0.95470691672120089
-3.9942653061224495e-05,0.97334183775584138
-3.9932653061224493e-05,0.95843390092813074
-3.9922653061224491e-05,0.97334183775584981
-3.991265306122449e-05,0.97706882196277967
-3.9902653061224495e-05,0.96216088513506726
-3.9892653061224493e-05,0.95843390092813074
-3.9882653061224492e-05,0.96961485354892007
-3.987265306122449e-05,0.96588786934199033
-3.9862653061224489e-05,0.96961485354892352
-3.9852653061224494e-05,0.97706882196277967
-3.9842653061224492e-05,0.96961485354892007
-3.9832653061224491e-05,0.97334183775584981
-3.9822653061224489e-05,0.96216088513506215
-3.9812653061224494e-05,0.96588786934198867
-3.9802653061224493e-05,0.96588786934199033
-3.9792653061224491e-05,0.988249774583569
-3.9782653061224489e-05,0.98824977458355712
-3.9772653061224494e-05,0.96216088513507236
-3.9762653061224493e-05,0.98079580616970941
-3.9752653061224491e-05,0.96961485354892007
-3.974265306122449e-05,0.96588786934199033
-3.9732653061224495e-05,0.96216088513506215
-3.9722653061224493e-05,0.98452279037663915
-3.9712653061224492e-05,0.97334183775584981
-3.970265306122449e-05,0.98452279037663915
-3.9692653061224488e-05,0.95843390092814595
-3.9682653061224494e-05,0.99197675879049874
-3.9672653061224492e-05,0.97334183775584981
-3.966265306122449e-05,0.95843390092813074
-3.9652653061224489e-05,0.96961485354891663
-3.9642653061224494e-05,0.96216088513506393
-3.9632653061224492e-05,0.97334183775584981
-3.9622653061224491e-05,0.96961485354892007
-3.9612653061224489e-05,0.97334183775584304
-3.9602653061224494e-05,0.95843390092813752
-3.9592653061224493e-05,0.96961485354892007
-3.9582653061224491e-05,0.96961485354892007
-3.957265306122449e-05,0.96961485354892007
-3.9562653061224495e-05,0.97706882196277622
-3.9552653061224493e-05,0.96961485354892007
-3.9542653061224492e-05,0.97706882196277967
-3.953265306122449e-05,0.96588786934199033
-3.9522653061224488e-05,0.97334183775584815
-3.9512653061224494e-05,0.96961485354892007
-3.9502653061224492e-05,0.97706882196277967
-3.949265306122449e-05,0.95097993251427115
-3.9482653061224489e-05,0.96216088513506048
-3.9472653061224494e-05,0.96216088513506048
-3.9462653061224492e-05,0.95843390092813074
-3.9452653061224491e-05,0.96961485354892007
-3.9442653061224489e-05,0.988249774583569
-3.9432653061224494e-05,0.988249774583569
-3.9422653061224493e-05,0.96588786934199033
-3.9412653061224491e-05,0.98079580616970941
-3.940265306122449e-05,0.95843390092813074
-3.9392653061224495e-05,0.99197675879048353
-3.9382653061224493e-05,0.96216088513506048
-3.9372653061224492e-05,0.97706882196277967
-3.936265306122449e-05,0.98079580616970941
-3.9352653061224488e-05,0.94352596410042178
-3.9342653061224494e-05,0.96588786934199033
-3.9332653061224492e-05,0.988249774583569
-3.932265306122449e-05,0.96961485354892007
-3.9312653061224489e-05,0.97706882196277123
-3.9302653061224494e-05,0.95843390092813918
-3.9292653061224492e-05,0.96588786934199033
-3.9282653061224491e-05,0.97706882196277967
-3.9272653061224489e-05,0.97706882196277289
-3.9262653061224494e-05,0.96216088513506726
-3.9252653061224493e-05,0.98079580616970941
-3.9242653061224491e-05,0.95470691672120089
-3.9232653061224489e-05,0.96216088513506048
-3.9222653061224495e-05,0.98452279037662893
-3.9212653061224493e-05,0.96961485354892007
-3.9202653061224491e-05,0.96961485354892007
-3.919265306122449e-05,0.96588786934199033
-3.9182653061224488e-05,0.97334183775585659
-3.9172653061224493e-05,0.988249774583569
-3.9162653061224492e-05,0.988249774583569
-3.915265306122449e-05,0.97706882196277967
-3.9142653061224489e-05,0.97334183775584471
-3.9132653061224494e-05,0.96216088513506048
-3.9122653061224492e-05,0.96216088513506048
-3.9112653061224491e-05,0.97706882196277967
-3.9102653061224489e-05,0.95843390092813918
-3.9092653061224494e-05,0.97706882196277123
-3.9082653061224493e-05,0.96588786934199033
-3.9072653061224491e-05,0.97334183775584981
-3.9062653061224489e-05,0.97334183775584981
-3.9052653061224495e-05,0.96588786934199378
-3.9042653061224493e-05,0.97334183775584981
-3.9032653061224491e-05,0.98452279037663915
-3.902265306122449e-05,0.95843390092813074
-3.9012653061224488e-05,0.96216088513506048
-3.9002653061224493e-05,0.96216088513506048
-3.8992653061224492e-05,0.94725294830734141
-3.898265306122449e-05,0.96588786934199033
-3.8972653061224489e-05,0.95843390092813585
-3.8962653061224494e-05,0.96961485354892007
-3.8952653061224492e-05,0.97706882196277967
-3.8942653061224491e-05,0.988249774583569
-3.8932653061224489e-05,0.96216088513506048
-3.8922653061224494e-05,0.96216088513506048
-3.8912653061224493e-05,0.95843390092813074
-3.8902653061224491e-05,0.97334183775584981
-3.8892653061224489e-05,0.96961485354892007
-3.8882653061224495e-05,0.97706882196277622
-3.8872653061224493e-05,0.97334183775584981
-3.8862653061224491e-05,0.96216088513506048
-3.885265306122449e-05,0.96588786934199033
-3.8842653061224495e-05,0.96961485354891841
-3.8832653061224493e-05,0.97334183775584981
-3.8822653061224492e-05,0.97334183775584981
-3.881265306122449e-05,0.96588786934199033
-3.8802653061224489e-05,0.95097993251427793
-3.8792653061224494e-05,0.96588786934199033
-3.8782653061224492e-05,0.988249774583569
-3.8772653061224491e-05,0.96961485354892007
-3.8762653061224489e-05,0.96961485354892007
-3.8752653061224494e-05,0.96961485354892007
-3.8742653061224492e-05,0.96216088513506048
-3.8732653061224491e-05,0.96961485354892007
-3.8722653061224489e-05,0.95470691672120933
-3.8712653061224494e-05,0.97334183775584138
-3.8702653061224493e-05,0.96961485354892007
-3.8692653061224491e-05,0.97334183775584981
-3.868265306122449e-05,0.98452279037663915
-3.8672653061224495e-05,0.95843390092814262
-3.8662653061224493e-05,0.97706882196277967
-3.8652653061224492e-05,0.95097993251427115
-3.864265306122449e-05,0.97334183775584981
-3.8632653061224488e-05,0.96588786934199544
-3.8622653061224494e-05,0.97706882196277967
-3.8612653061224492e-05,0.98079580616970941
-3.860265306122449e-05,0.98079580616970941
-3.8592653061224489e-05,0.98824977458355878
-3.8582653061224494e-05,0.96588786934200055
-3.8572653061224492e-05,0.95843390092813074
-3.8562653061224491e-05,0.97706882196277967
-3.8552653061224489e-05,0.96216088513506892
-3.8542653061224494e-05,0.98079580616970097
-3.8532653061224493e-05,0.97334183775584981
-3.8522653061224491e-05,0.96588786934199033
-3.851265306122449e-05,0.96216088513506048
-3.8502653061224495e-05,0.98824977458355712
-3.8492653061224493e-05,0.95843390092813074
-3.8482653061224492e-05,0.95843390092813074
-3.847265306122449e-05,0.97706882196277967
-3.8462653061224488e-05,0.98452279037662727
-3.8452653061224494e-05,0.95843390092813074
-3.8442653061224492e-05,0.96961485354892007
-3.843265306122449e-05,0.97706882196277967
-3.8422653061224489e-05,0.98079580616970263
-3.8412653061224494e-05,0.96588786934199711
-3.8402653061224492e-05,0.97706882196277967
-3.8392653061224491e-05,0.95470691672120089
-3.8382653061224489e-05,0.95843390092813918
-3.8372653061224494e-05,0.97706882196277123
-3.8362653061224493e-05,0.96588786934199033
-3.8352653061224491e-05,0.96588786934199033
-3.834265306122449e-05,0.95843390092813074
-3.8332653061224495e-05,0.98079580616969919
-3.8322653061224493e-05,0.96961485354892007
-3.8312653061224492e-05,0.988249774583569
-3.830265306122449e-05,0.96588786934199033
-3.8292653061224488e-05,0.954706916721206
-3.8282653061224494e-05,0.96588786934199033
-3.8272653061224492e-05,0.95097993251427115
-3.826265306122449e-05,0.96961485354892007
-3.8252653061224489e-05,0.9807958061697043
-3.8242653061224494e-05,0.96961485354892518
-3.8232653061224492e-05,0.96961485354892007
-3.8222653061224491e-05,0.95843390092813074
-3.8212653061224489e-05,0.96216088513506215
-3.8202653061224494e-05,0.96588786934198867
-3.8192653061224493e-05,0.96216088513506048
-3.8182653061224491e-05,0.96588786934199033
-3.8172653061224489e-05,0.95843390092813074
-3.8162653061224495e-05,0.98079580616969919
-3.8152653061224493e-05,0.96961485354892007
-3.8142653061224491e-05,0.97334183775584981
-3.813265306122449e-05,0.96588786934199033
-3.8122653061224488e-05,0.96216088513506048
-3.8112653061224493e-05,0.96216088513506048
-3.8102653061224492e-05,0.97334183775584981
-3.809265306122449e-05,0.97334183775584981
-3.8082653061224489e-05,0.96588786934199033
-3.8072653061224494e-05,0.96588786934199033
-3.8062653061224492e-05,0.96961485354892007
-3.8052653061224491e-05,0.97334183775584981
-3.8042653061224489e-05,0.96216088513506215
-3.8032653061224494e-05,0.96588786934198867
-3.8022653061224493e-05,0.98079580616970941
-3.8012653061224491e-05,0.988249774583569
-3.8002653061224489e-05,0.96961485354892007
-3.7992653061224495e-05,0.965887869341992
-3.7982653061224493e-05,0.96216088513506048
-3.7972653061224491e-05,0.97334183775584981
-3.796265306122449e-05,0.94352596410041156
-3.7952653061224495e-05,0.96216088513505205
-3.7942653061224493e-05,0.98079580616970941
-3.7932653061224492e-05,0.96216088513506048
-3.792265306122449e-05,0.96216088513506048
-3.7912653061224489e-05,0.95843390092813241
-3.7902653061224494e-05,0.96216088513506048
-3.7892653061224492e-05,0.94725294830734141
-3.7882653061224491e-05,0.96588786934199033
-3.7872653061224489e-05,0.96216088513506215
-3.7862653061224494e-05,0.96588786934198867
-3.7852653061224493e-05,0.97706882196277967
-3.7842653061224491e-05,0.98452279037663915
-3.7832653061224489e-05,0.97706882196277967
-3.7822653061224495e-05,0.95843390092813918
-3.7812653061224493e-05,0.98079580616970941
-3.7802653061224491e-05,0.97706882196277967
-3.779265306122449e-05,0.94725294830734141
-3.7782653061224495e-05,0.97334183775583794
-3.7772653061224493e-05,0.96588786934199033
-3.7762653061224492e-05,0.97706882196277967
-3.775265306122449e-05,0.96588786934199033
-3.7742653061224489e-05,0.96588786934199544
-3.7732653061224494e-05,0.97706882196277967
-3.7722653061224492e-05,0.95470691672120089
-3.771265306122449e-05,0.95097993251427115
-3.7702653061224489e-05,0.96961485354891497
-3.7692653061224494e-05,0.95843390092813585
-3.7682653061224492e-05,0.97334183775584981
-3.7672653061224491e-05,0.97334183775584981
-3.7662653061224489e-05,0.95097993251427959
-3.7652653061224494e-05,0.96961485354891164
-3.7642653061224493e-05,0.95843390092813074
-3.7632653061224491e-05,0.97334183775584981
-3.762265306122449e-05,0.95843390092813074
-3.7612653061224495e-05,0.96216088513505882
-3.7602653061224493e-05,0.97334183775584981
-3.7592653061224492e-05,0.95843390092813074
-3.758265306122449e-05,0.98079580616970941
-3.7572653061224488e-05,0.96588786934198356
-3.7562653061224494e-05,0.95097993251427115
-3.7552653061224492e-05,0.96588786934199033
-3.754265306122449e-05,0.97334183775584981
-3.7532653061224489e-05,0.97334183775585492
-3.7522653061224494e-05,0.98452279037663404
-3.7512653061224492e-05,0.95097993251427115
-3.7502653061224491e-05,0.97706882196277967
-3.7492653061224489e-05,0.96588786934200732
-3.7482653061224494e-05,1.0031577114112713
-3.7472653061224493e-05,0.95843390092813074
-3.7462653061224491e-05,0.96216088513506048
-3.745265306122449e-05,0.96216088513506048
-3.7442653061224495e-05,0.98452279037662893
-3.7432653061224493e-05,0.95843390092813074
-3.7422653061224492e-05,0.98452279037663915
-3.741265306122449e-05,0.97706882196277967
-3.7402653061224488e-05,0.9696148535489133
-3.7392653061224494e-05,0.95470691672120089
-3.7382653061224492e-05,0.96216088513506048
-3.737265306122449e-05,0.97334183775584981
-3.7362653061224489e-05,0.96588786934199033
-3.7352653061224494e-05,0.96588786934199033
-3.7342653061224492e-05,0.96961485354892007
-3.7332653061224491e-05,0.95470691672120089
-3.7322653061224489e-05,0.96588786934200055
-3.7312653061224494e-05,0.98824977458355878
-3.7302653061224493e-05,0.95470691672120089
-3.7292653061224491e-05,0.96588786934199033
-3.728265306122449e-05,0.96216088513506048
-3.7272653061224495e-05,0.96588786934198867
-3.7262653061224493e-05,0.96588786934199033
-3.7252653061224492e-05,0.96588786934199033
-3.724265306122449e-05,0.97334183775584981
-3.7232653061224488e-05,0.96961485354892352
-3.7222653061224493e-05,0.97706882196277967
-3.7212653061224492e-05,0.96216088513506048
-3.720265306122449e-05,0.95097993251427115
-3.7192653061224489e-05,0.954706916721206
-3.7182653061224494e-05,0.96588786934198523
-3.7172653061224492e-05,0.96216088513506048
-3.7162653061224491e-05,0.95470691672120089
-3.7152653061224489e-05,0.96588786934198689
-3.7142653061224494e-05,0.95843390092813419
-3.7132653061224493e-05,0.96961485354892007
-3.7122653061224491e-05,0.97706882196277967
-3.7112653061224489e-05,0.95843390092813074
-3.7102653061224495e-05,0.95470691672120256
-3.7092653061224493e-05,0.95470691672120089
-3.7082653061224491e-05,0.95470691672120089
-3.707265306122449e-05,0.96961485354892007
-3.7062653061224488e-05,0.96961485354892851
-3.7052653061224493e-05,0.988249774583569
-3.7042653061224492e-05,0.95843390092813074
-3.703265306122449e-05,0.97706882196277967
-3.7022653061224489e-05,0.95097993251427793
-3.7012653061224494e-05,0.96588786934199033
-3.7002653061224492e-05,0.95470691672120089
-3.6992653061224491e-05,0.97706882196277967
-3.6982653061224489e-05,0.95843390092813918
-3.6972653061224494e-05,0.97706882196277123
-3.6962653061224493e-05,0.95097993251427115
-3.6952653061224491e-05,0.96588786934199033
-3.6942653061224489e-05,0.95470691672120089
-3.6932653061224495e-05,0.96216088513505704
-3.6922653061224493e-05,0.96216088513506048
-3.6912653061224491e-05,0.94725294830734141
-3.690265306122449e-05,0.988249774583569
-3.6892653061224495e-05,0.96216088513507236
-3.6882653061224493e-05,0.99197675879049874
-3.6872653061224492e-05,0.95843390092813074
-3.686265306122449e-05,0.96588786934199033
-3.6852653061224489e-05,0.96216088513505704
-3.6842653061224494e-05,0.95470691672120089
-3.6832653061224492e-05,0.95470691672120089
-3.6822653061224491e-05,0.95097993251427115
-3.6812653061224489e-05,0.96588786934198867
-3.6802653061224494e-05,0.96216088513506215
-3.6792653061224493e-05,0.96588786934199033
-3.6782653061224491e-05,0.95097993251427115
-3.6772653061224489e-05,0.96961485354892007
-3.6762653061224495e-05,0.93607199568656718
-3.6752653061224493e-05,0.97334183775584981
-3.6742653061224491e-05,0.96961485354892007
-3.673265306122449e-05,0.94725294830734141
-3.6722653061224495e-05,0.95470691672119745
-3.6712653061224493e-05,0.96588786934199033
-3.6702653061224492e-05,0.94725294830734141
-3.669265306122449e-05,0.96216088513506048
-3.6682653061224488e-05,0.95843390092813241
-3.6672653061224494e-05,0.96216088513506048
-3.6662653061224492e-05,0.96216088513506048
-3.665265306122449e-05,0.97706882196277967
-3.6642653061224489e-05,0.97334183775583794
-3.6632653061224494e-05,0.94725294830735329
-3.6622653061224492e-05,0.98079580616970941
-3.6612653061224491e-05,0.95843390092813074
-3.6602653061224489e-05,0.96961485354892007
-3.6592653061224494e-05,0.96961485354892007
-3.6582653061224493e-05,0.97706882196277967
-3.6572653061224491e-05,0.95843390092813074
-3.656265306122449e-05,0.97334183775584981
-3.6552653061224495e-05,0.96588786934199378
-3.6542653061224493e-05,0.95470691672120089
-3.6532653061224492e-05,0.98079580616970941
-3.652265306122449e-05,0.96961485354892007
-3.6512653061224488e-05,0.96588786934199378
-3.6502653061224494e-05,0.97334183775584981
-3.6492653061224492e-05,0.95843390092813074
-3.648265306122449e-05,0.95843390092813074
-3.6472653061224489e-05,0.954706916721206
-3.6462653061224494e-05,0.96588786934198523
-3.6452653061224492e-05,0.95097993251427115
-3.6442653061224491e-05,0.95470691672120089
-3.6432653061224489e-05,0.95097993251428303
-3.6422653061224494e-05,0.97706882196276779
-3.6412653061224493e-05,0.96216088513506048
-3.6402653061224491e-05,0.96961485354892007
-3.639265306122449e-05,0.97334183775584981
-3.6382653061224495e-05,0.96216088513506559
-3.6372653061224493e-05,0.96216088513506048
-3.6362653061224492e-05,0.96961485354892007
-3.635265306122449e-05,0.94725294830734141
-3.6342653061224488e-05,0.95843390092812908
-3.6332653061224494e-05,0.95470691672120089
-3.6322653061224492e-05,0.95843390092813074
-3.631265306122449e-05,0.94725294830734141
-3.6302653061224489e-05,0.94725294830735329
-3.6292653061224494e-05,0.97334183775583794
-3.6282653061224492e-05,0.94725294830734141
-3.6272653061224491e-05,0.95843390092813074
-3.6262653061224489e-05,0.95470691672120434
-3.6252653061224494e-05,0.96216088513505704
-3.6242653061224493e-05,0.95470691672120089
-3.6232653061224491e-05,0.97334183775584981
-3.622265306122449e-05,0.95097993251427115
-3.6212653061224495e-05,0.97706882196276779
