Power_measurements/Simeck_64_128_csv/simeck_active_l3_5.csv

#Digilent WaveForms Oscilloscope Acquisition
#Device Name: Discovery2
#Serial Number: SN:210321A1A9F5
#Date Time: 2018-06-28 16:26:04.317
#Sample rate: 1e+08Hz
#Samples: 8192
#Trigger: Source: Channel 1 Type: Edge Condition: Rising Level: 2 V Hyst.: Auto HoldOff: 0 s
#Channel 2: Range: 1 V/div Offset: 0 V

Time (s),Channel 2 (V)
-4.0693047091412744e-05,-1.0466836024000916
-4.0683047091412743e-05,-1.024321697158513
-4.0673047091412741e-05,-1.0392296339862253
-4.0663047091412746e-05,-1.0243216971585198
-4.0653047091412745e-05,-1.0355026497793023
-4.0643047091412743e-05,-1.0280486813654428
-4.0633047091412742e-05,-1.0355026497793023
-4.0623047091412747e-05,-1.0392296339862304
-4.0613047091412745e-05,-0.96468994984763656
-4.0603047091412744e-05,5.5612593964864114
-4.0593047091412742e-05,2.8219260043930214
-4.058304709141274e-05,5.3152784388276322
-4.0573047091412746e-05,2.2069736102496078
-4.0563047091412744e-05,5.460630822899307
-4.0553047091412742e-05,2.2107005944565374
-4.0543047091412741e-05,5.2221038336546437
-4.0533047091412746e-05,2.6765736203239174
-4.0523047091412744e-05,4.5996974710985272
-4.0513047091412743e-05,3.4741482406057331
-4.0503047091412741e-05,3.7946688824018997
-4.0493047091412746e-05,4.2456339714399931
-4.0483047091412745e-05,3.0939958514988959
-4.0473047091412743e-05,4.8009546182727361
-4.0463047091412742e-05,2.6691196519089004
-4.0453047091412747e-05,5.0059387496528114
-4.0443047091412745e-05,2.6057609203910941
-4.0433047091412744e-05,4.89785620765291
-4.0423047091412742e-05,2.8219260043930214
-4.041304709141274e-05,4.5512466764078656
-4.0403047091412746e-05,3.2877990302592446
-4.0393047091412744e-05,4.0294688874382709
-4.0383047091412742e-05,3.8505736455056407
-4.0373047091412741e-05,3.5039641142615303
-4.0363047091412746e-05,4.2940847661299255
-4.0353047091412744e-05,3.1238117251543338
-4.0343047091412743e-05,4.5512466764084403
-4.0333047091412741e-05,2.9560974358432373
-4.0323047091412746e-05,4.5922435026839237
-4.0313047091412745e-05,2.9821863252910017
-4.0303047091412743e-05,4.4282561975797572
-4.0293047091412741e-05,3.2468022039830169
-4.0283047091412747e-05,4.1040085715764762
-4.0273047091412745e-05,3.5896847510205561
-4.0263047091412743e-05,3.7350371350908178
-4.0253047091412742e-05,3.9586561875066044
-4.024304709141274e-05,3.4107895090882998
-4.0233047091412745e-05,4.2307260346124789
-4.0223047091412744e-05,3.1871704566721402
-4.0213047091412742e-05,4.323900639785724
-4.0203047091412741e-05,3.1610815672241253
-4.0193047091412746e-05,4.2456339714401983
-4.0183047091412744e-05,0.10122753333428097
-4.0173047091412743e-05,-1.8889820331662224
-4.0163047091412741e-05,-0.55472168708550973
-4.0153047091412746e-05,-0.88269629729503207
-4.0143047091412745e-05,-1.672816949164295
-4.0133047091412743e-05,0.078865628092702283
-4.0123047091412741e-05,-2.4107598221363915
-4.0113047091412747e-05,0.55964659078529344
-4.0103047091412745e-05,-2.6567407797937577
-4.0093047091412743e-05,0.57828151182129295
-4.0083047091412742e-05,-2.4592106168264793
-4.007304709141274e-05,0.22049102795505945
-4.0063047091412745e-05,-1.9225248910285904
-4.0053047091412744e-05,-0.43173120825667777
-4.0043047091412742e-05,-1.2218518601257915
-4.0033047091412741e-05,-1.2032169390908392
-4.0023047091412746e-05,-0.5360867660507117
-4.0013047091412744e-05,-1.7808994911652587
-4.0003047091412743e-05,-0.073940724391418758
-3.9993047091412741e-05,-2.1088741013740675
-3.9983047091412746e-05,0.11613547016098824
-3.9973047091412745e-05,-2.1126010855820097
-3.9963047091412743e-05,-0.0068550086666826909
-3.9953047091412741e-05,-1.859166159510784
-3.9943047091412747e-05,-0.37209946094647761
-3.9933047091412745e-05,-1.4268359915069295
-3.9923047091412743e-05,-0.89015026570904088
-3.9913047091412742e-05,-0.91996613936447913
-3.9903047091412747e-05,-1.3672042441958496
-3.9893047091412745e-05,-0.5025439081883436
-3.9883047091412744e-05,-1.6839979017850844
-3.9873047091412742e-05,-0.27519787156562697
-3.9863047091412741e-05,-1.803261396406139
-3.9853047091412746e-05,-0.26774390315176738
-3.9843047091412744e-05,-1.7287217122682417
-3.9833047091412743e-05,-0.42800422404974803
-3.9823047091412741e-05,-1.4715598019897649
-3.9813047091412746e-05,-0.76343280267375024
-3.9803047091412744e-05,-1.1398582075733363
-3.9793047091412743e-05,-1.110042333917898
-3.9783047091412741e-05,-0.8044296289499272
-3.9773047091412746e-05,-1.4007471020581499
-3.9763047091412745e-05,-0.56590263970614996
-3.9753047091412743e-05,-1.5610074229564015
-3.9743047091412742e-05,-0.5025439081883436
-3.9733047091412747e-05,-1.5386455177143517
-3.9723047091412745e-05,-0.54354073446457118
-3.9713047091412744e-05,-1.4231090072999997
-3.9703047091412742e-05,-0.73361692901799014
-3.969304709141274e-05,-1.2516677337810957
-3.9683047091412746e-05,-0.95723598143377697
-3.9673047091412744e-05,-0.99823280771000455
-3.9663047091412742e-05,-1.1920359864703531
-3.9653047091412741e-05,-0.81188359736376803
-3.9643047091412746e-05,-1.3672042441958006
-3.9633047091412744e-05,-0.67771216591404337
-3.9623047091412743e-05,-1.4231090072999997
-3.9613047091412741e-05,-0.67771216591436367
-3.9603047091412746e-05,-1.3821121810234516
-3.9593047091412745e-05,-0.77088677108728787
-3.9583047091412743e-05,-1.2330328127465808
-3.9573047091412742e-05,-0.92369312357140898
-3.9563047091412747e-05,-1.0876804286762447
-3.9553047091412745e-05,-1.0839534444693895
-3.9543047091412744e-05,-0.93114709198526846
-3.9533047091412742e-05,-1.2106709075050022
-3.952304709141274e-05,-0.83424550260529928
-3.9513047091412746e-05,-1.2852105916435976
-3.9503047091412744e-05,-0.78579470791500705
-3.9493047091412742e-05,-1.281483607436668
-3.9483047091412741e-05,-0.82306454998449463
-3.9473047091412746e-05,-1.2404867811602505
-3.9463047091412744e-05,-0.89760423412290047
-3.9453047091412743e-05,-1.1137693181248278
-3.9443047091412741e-05,-0.99450582350307826
-3.9433047091412746e-05,-1.001959791916931
-3.9423047091412745e-05,-1.1324042391594766
-3.9413047091412743e-05,-0.91996613936447913
-3.9403047091412742e-05,-1.1883090022634235
-3.9393047091412747e-05,-0.88269629729532029
-3.9383047091412745e-05,-1.2032169390911425
-3.9373047091412744e-05,-0.86406137626053248
-3.9363047091412742e-05,-1.1808550338495638
-3.935304709141274e-05,-0.92369312357150046
-3.9343047091412746e-05,-1.1249502707456172
-3.9333047091412744e-05,-0.99450582350307482
-3.9323047091412742e-05,-1.0615915392278108
-3.9313047091412741e-05,-1.0578645550208541
-3.9303047091412746e-05,-0.99823280771003164
-3.9293047091412744e-05,-1.1063153497109683
-3.9283047091412743e-05,-0.92369312357140898
-3.9273047091412741e-05,-1.1696740812286659
-3.9263047091412746e-05,-0.93114709198537693
-3.9253047091412745e-05,-1.1510391601941257
-3.9243047091412743e-05,-0.94232804460605779
-3.9233047091412741e-05,-1.1249502707456172
-3.9223047091412747e-05,-0.97587090246849373
-3.9213047091412745e-05,-1.0914074128832492
-3.9203047091412743e-05,-1.0317756655723727
-3.9193047091412742e-05,-1.0056867761238641
-3.918304709141274e-05,-1.0727724918485679
-3.9173047091412745e-05,-1.0019597919169343
-3.9163047091412744e-05,-1.1025883655040385
-3.9153047091412742e-05,-0.96468994984763656
-3.9143047091412741e-05,-1.1174963023316882
-3.9133047091412746e-05,-0.96468994984763656
-3.9123047091412744e-05,-1.0914074128832492
-3.9113047091412743e-05,-0.98705185508921522
-3.9103047091412741e-05,-1.072772491848573
-3.9093047091412746e-05,-1.0131407445377507
-3.9083047091412745e-05,-1.0355026497793023
-3.9073047091412743e-05,-1.0504105866070215
-3.9063047091412741e-05,-1.0131407445377236
-3.9053047091412747e-05,-1.072772491848573
-3.9043047091412745e-05,-0.98332487088228548
-3.9033047091412743e-05,-1.1025883655040385
-3.9023047091412742e-05,-0.98332487088228548
-3.901304709141274e-05,-1.0764994760554945
-3.9003047091412745e-05,-0.99823280771000455
-3.8993047091412744e-05,-1.0653185234347406
-3.8983047091412742e-05,-1.0168677287446535
-3.8973047091412741e-05,-1.0504105866070164
-3.8963047091412746e-05,-1.0392296339862321
-3.8953047091412744e-05,-1.0205947129515833
-3.8943047091412743e-05,-1.0615915392278108
-3.8933047091412741e-05,-1.0094137603308313
-3.8923047091412746e-05,-1.0914074128832119
-3.8913047091412745e-05,-1.0056867761238641
-3.8903047091412743e-05,-1.0727724918486001
-3.8893047091412741e-05,-0.98705185508921522
-3.8883047091412747e-05,-1.0615915392277768
-3.8873047091412745e-05,-0.99077883929614496
-3.8863047091412743e-05,-1.0615915392278108
-3.8853047091412742e-05,-1.0168677287446535
-3.8843047091412747e-05,-1.0205947129515816
-3.8833047091412745e-05,-1.042956618193162
-3.8823047091412744e-05,-1.0131407445377236
-3.8813047091412742e-05,-1.0541375708139513
-3.8803047091412741e-05,-1.0056867761238895
-3.8793047091412746e-05,-1.0615915392278108
-3.8783047091412744e-05,-1.0056867761238641
-3.8773047091412742e-05,-1.0578645550208812
-3.8763047091412741e-05,-1.009413760330816
-3.8753047091412746e-05,-1.0578645550208592
-3.8743047091412744e-05,-1.0056867761238641
-3.8733047091412743e-05,-1.0205947129515833
-3.8723047091412741e-05,-1.0355026497792954
-3.8713047091412746e-05,-1.0205947129515902
-3.8703047091412745e-05,-1.0355026497793023
-3.8693047091412743e-05,-1.0131407445377236
-3.8683047091412742e-05,-1.0466836024000916
-3.8673047091412747e-05,-1.0243216971585232
-3.8663047091412745e-05,-1.0466836024000916
-3.8653047091412744e-05,-1.0019597919169343
-3.8643047091412742e-05,-1.0466836024000916
-3.863304709141274e-05,-1.0094137603308024
-3.8623047091412746e-05,-1.0280486813654428
-3.8613047091412744e-05,-1.0168677287446535
-3.8603047091412742e-05,-1.0205947129515833
-3.8593047091412741e-05,-1.0317756655723302
-3.8583047091412746e-05,-0.93860106039917046
-3.8573047091412744e-05,5.6730689226943047
-3.8563047091412743e-05,2.7548402886682855
-3.8553047091412741e-05,5.367456217724615
-3.8543047091412746e-05,2.1846117050094764
-3.8533047091412745e-05,5.4643578071062366
-3.8523047091412743e-05,2.2405164681119754
-3.8513047091412742e-05,5.1811070073795733
-3.8503047091412747e-05,2.7212974308070357
-3.8493047091412745e-05,4.5326117553737912
-3.8483047091412744e-05,3.5263260195027506
-3.8473047091412742e-05,3.7089482456423095
-3.846304709141274e-05,4.3313546081989935
-3.8453047091412746e-05,3.0343641041880192
-3.8443047091412744e-05,4.849405412962823
-3.8433047091412742e-05,2.6504847308742514
-3.8423047091412741e-05,5.0171197022735621
-3.8413047091412746e-05,2.594579967771407
-3.8403047091412744e-05,4.8866752550321211
-3.8393047091412743e-05,2.8591958464623195
-3.8383047091412741e-05,4.53633873958018
-3.8373047091412746e-05,3.3474307775706613
-3.8363047091412745e-05,3.9847450769551136
-3.8353047091412743e-05,3.9064784086095878
-3.8343047091412742e-05,3.4629672879849442
-3.8333047091412747e-05,4.3499895292338291
-3.8323047091412745e-05,3.0977228357058255
-3.8313047091412744e-05,4.5810625500638782
-3.8303047091412742e-05,2.9300085463939851
-3.829304709141274e-05,4.5959704868908737
-3.8283047091412745e-05,3.0045482305325804
-3.8273047091412744e-05,4.4170752449589683
-3.8263047091412742e-05,3.2728910934315252
-3.8253047091412741e-05,4.0741926979212364
-3.8243047091412746e-05,3.6530434825385538
-3.8233047091412744e-05,3.6977672930215197
-3.8223047091412743e-05,3.9921990453689729
-3.8213047091412741e-05,3.3884276038467447
-3.8203047091412746e-05,4.2605419082675215
-3.8193047091412745e-05,3.1834434724652105
-3.8183047091412743e-05,4.3350815924065129
-3.8173047091412741e-05,3.1610815672236319
-3.8163047091412747e-05,4.2568149240604889
-3.8153047091412745e-05,1.2006878743785665
-3.8143047091412743e-05,-2.7909122112432296
-3.8133047091412742e-05,0.49628785926883778
-3.812304709141274e-05,-1.97842965413191
-3.8113047091412745e-05,-0.59944549756851795
-3.8103047091412744e-05,-0.87896931308825155
-3.8093047091412742e-05,-1.6020042492326292
-3.8083047091412741e-05,-0.021762945495420412
-3.8073047091412746e-05,-2.2616804538592001
-3.8063047091412744e-05,0.41056722250945282
-3.8053047091412743e-05,-2.5002074431027062
-3.8043047091412741e-05,0.45529103299132212
-3.8033047091412746e-05,-2.3772169642727361
-3.8023047091412745e-05,0.18322118588673617
-3.8013047091412743e-05,-1.9635217173048181
-3.8003047091412741e-05,-0.40564231880816931
-3.7993047091412747e-05,-1.3038455126778383
-3.7983047091412745e-05,-1.110042333917898
-3.7973047091412743e-05,-0.64044232384474553
-3.7963047091412742e-05,-1.6653629807504355
-3.7953047091412747e-05,-0.15593437694456025
-3.7943047091412745e-05,-2.0268804488226246
-3.7933047091412744e-05,0.034141817609544906
-3.7923047091412742e-05,-2.0827852119265708
-3.7913047091412741e-05,-0.055305803357595239
-3.7903047091412746e-05,-1.8703471121315733
-3.7893047091412744e-05,-0.35719152411808214
-3.7883047091412743e-05,-1.467832817783157
-3.7873047091412741e-05,-0.83051851839823898
-3.7863047091412746e-05,-0.99450582350300021
-3.7853047091412745e-05,-1.3075724968851765
-3.7843047091412743e-05,-0.5696296239130797
-3.7833047091412741e-05,-1.6318201228880673
-3.7823047091412747e-05,-0.33855660308402147
-3.7813047091412745e-05,-1.7659915543375395
-3.7803047091412743e-05,-0.29755977680720563
-3.7793047091412742e-05,-1.706359807026663
-3.7783047091412747e-05,-0.45782009770575405
-3.7773047091412745e-05,-1.4939217072316655
-3.7763047091412744e-05,-0.72988994481106029
-3.7753047091412742e-05,-1.1547661444010553
-3.774304709141274e-05,-1.0615915392277124
-3.7733047091412746e-05,-0.84542645522588356
-3.7723047091412744e-05,-1.348569323161404
-3.7713047091412742e-05,-0.62180740281009661
-3.7703047091412741e-05,-1.523737580886658
-3.7693047091412746e-05,-0.54354073446501694
-3.7683047091412744e-05,-1.5386455177148228
-3.7673047091412743e-05,-0.56590263970614996
-3.7663047091412741e-05,-1.41565503888583
-3.7653047091412746e-05,-0.73361692901830033
-3.7643047091412745e-05,-1.2442137653673702
-3.7633047091412743e-05,-0.95723598143377697
-3.7623047091412742e-05,-1.0317756655723727
-3.7613047091412747e-05,-1.1622201128148557
-3.7603047091412745e-05,-0.83051851839816437
-3.7593047091412744e-05,-1.3187534495059658
-3.7583047091412742e-05,-0.70752803956948163
-3.757304709141274e-05,-1.4007471020581093
-3.7563047091412746e-05,-0.71498200798334122
-3.7553047091412744e-05,-1.3262074179198253
-3.7543047091412742e-05,-0.77088677108728787
-3.7533047091412741e-05,-1.236759796953365
-3.7523047091412746e-05,-0.91623915515769516
-3.7513047091412744e-05,-1.1025883655040385
-3.7503047091412743e-05,-1.0504105866070215
-3.7493047091412741e-05,-0.94232804460617303
-3.7483047091412746e-05,-1.1957629706771677
-3.7473047091412745e-05,-0.84542645522588356
-3.7463047091412743e-05,-1.262848686402019
-3.7453047091412742e-05,-0.8156105815704453
-3.7443047091412747e-05,-1.2479407495741035
-3.7433047091412745e-05,-0.83797248681202396
-3.7423047091412744e-05,-1.2181248759188616
-3.7413047091412742e-05,-0.90133121832983021
-3.740304709141274e-05,-1.117496302331705
-3.7393047091412746e-05,-1.0019597919169343
-3.7383047091412744e-05,-1.024321697158513
-3.7373047091412742e-05,-1.0839534444693895
-3.7363047091412741e-05,-0.93487407619229834
-3.7353047091412746e-05,-1.1547661444009554
-3.7343047091412744e-05,-0.90133121832983021
-3.7333047091412743e-05,-1.1883090022634235
-3.7323047091412741e-05,-0.87151534467452418
-3.7313047091412746e-05,-1.1622201128147829
-3.7303047091412745e-05,-0.91251217095061965
-3.7293047091412743e-05,-1.1212232865386873
-3.7283047091412742e-05,-0.97587090246842589
-3.7273047091412747e-05,-1.0727724918485562
-3.7263047091412745e-05,-1.0355026497793023
-3.7253047091412743e-05,-0.99077883929614496
-3.7243047091412742e-05,-1.1063153497109683
-3.723304709141274e-05,-0.96468994984771284
-3.7223047091412745e-05,-1.1324042391594766
-3.7213047091412744e-05,-0.93860106039912805
-3.7203047091412742e-05,-1.1398582075733363
-3.7193047091412741e-05,-0.93860106039921454
-3.7183047091412746e-05,-1.1286772549524606
-3.7173047091412744e-05,-0.96096296564070671
-3.7163047091412743e-05,-1.0578645550208812
-3.7153047091412741e-05,-1.0094137603308042
-3.7143047091412746e-05,-1.0317756655723624
-3.7133047091412745e-05,-1.0690455076416705
-3.7123047091412743e-05,-0.98705185508921522
-3.7113047091412741e-05,-1.0839534444693895
-3.7103047091412747e-05,-0.98332487088233123
-3.7093047091412745e-05,-1.0988613812971086
-3.7083047091412743e-05,-0.96468994984763656
-3.7073047091412742e-05,-1.0951343970901788
-3.706304709141274e-05,-0.97587090246847163
-3.7053047091412745e-05,-1.07649947605553
-3.7043047091412744e-05,-1.0131407445377236
-3.7033047091412742e-05,-1.0355026497793023
-3.7023047091412741e-05,-1.0429566181931502
-3.7013047091412746e-05,-1.0168677287446535
-3.7003047091412744e-05,-1.0615915392278108
-3.6993047091412743e-05,-1.0131407445377236
-3.6983047091412741e-05,-1.0727724918485662
-3.6973047091412746e-05,-0.99823280771003842
-3.6963047091412745e-05,-1.0727724918486001
-3.6953047091412743e-05,-0.98705185508921522
-3.6943047091412741e-05,-1.0690455076416705
-3.6933047091412747e-05,-1.0019597919169647
-3.6923047091412745e-05,-1.0317756655723727
-3.6913047091412743e-05,-1.024321697158513
-3.6903047091412742e-05,-1.0280486813654428
-3.6893047091412747e-05,-1.0466836024000832
-3.6883047091412745e-05,-0.99823280771000455
-3.6873047091412744e-05,-1.07649947605553
-3.6863047091412742e-05,-0.99077883929614496
-3.6853047091412741e-05,-1.0727724918485713
-3.6843047091412746e-05,-1.009413760330794
-3.6833047091412744e-05,-1.0690455076416705
-3.6823047091412743e-05,-1.0056867761238641
-3.6813047091412741e-05,-1.0541375708139344
-3.6803047091412746e-05,-1.0168677287446704
-3.6793047091412745e-05,-1.0355026497793023
-3.6783047091412743e-05,-1.042956618193162
-3.6773047091412741e-05,-1.0131407445377236
-3.6763047091412746e-05,-1.0578645550208607
-3.6753047091412745e-05,-1.0131407445377236
-3.6743047091412743e-05,-1.0653185234347406
-3.6733047091412742e-05,-1.0168677287446535
-3.6723047091412747e-05,-1.0504105866070061
-3.6713047091412745e-05,-1.0131407445377236
-3.6703047091412744e-05,-1.0578645550208812
-3.6693047091412742e-05,-1.0168677287446535
-3.668304709141274e-05,-1.0429566181931451
-3.6673047091412746e-05,-1.0056867761238641
-3.6663047091412744e-05,-1.0168677287446535
-3.6653047091412742e-05,-1.0205947129515833
-3.6643047091412741e-05,-1.0019597919169596
-3.6633047091412746e-05,-1.0578645550208559
-3.6623047091412744e-05,-1.0205947129515833
-3.6613047091412743e-05,-1.042956618193162
-3.6603047091412741e-05,-1.0056867761238795
-3.6593047091412746e-05,-1.0392296339862168
-3.6583047091412745e-05,-1.009413760330794
-3.6573047091412743e-05,-1.0504105866070215
-3.6563047091412742e-05,-1.0205947129515833
-3.6553047091412747e-05,-0.81561058157053856
-3.6543047091412745e-05,6.0494943275942124
-3.6533047091412744e-05,2.4305926626653944
-3.6523047091412742e-05,5.4941736807616754
-3.651304709141274e-05,2.1585228155609961
-3.6503047091412746e-05,5.4047260597953599
-3.6493047091412744e-05,2.4231386942515352
-3.6483047091412742e-05,4.9239450971014183
-3.6473047091412741e-05,3.0679069620508916
-3.6463047091412746e-05,4.1785482557149569
-3.6453047091412744e-05,3.9139323770234471
-3.6443047091412743e-05,3.3697926828116991
-3.6433047091412741e-05,4.6108784237184919
-3.6423047091412746e-05,2.7958371149453383
-3.6413047091412745e-05,4.9947577970330839
-3.6403047091412743e-05,2.5461291730802174
-3.6393047091412742e-05,5.0320276391023819
-3.6383047091412747e-05,2.672846636116903
-3.6373047091412745e-05,4.7748657288242269
-3.6363047091412744e-05,3.0492720410157386
-3.6353047091412742e-05,4.2940847661302852
-3.634304709141274e-05,3.6083196720552491
-3.6333047091412746e-05,3.7052212614353799
-3.6323047091412744e-05,4.152459366266954
-3.6313047091412742e-05,3.2468022039830169
-3.6303047091412741e-05,4.4990688975107318
-3.6293047091412746e-05,2.9784593410847635
-3.6283047091412744e-05,4.6406942973747549
-3.6273047091412743e-05,2.9151006095662657
-3.6263047091412741e-05,4.5400657237870021
-3.6253047091412746e-05,3.1126307725341933
-3.6243047091412745e-05,4.2940847661302852
-3.6233047091412743e-05,3.4480593511572248
-3.6223047091412741e-05,3.9176593612303776
